1.39348370927
2.11948790896
1.54838709677
0.783367003367
1.06666666667
2.08359046283
1.52647058824
2.3179605755
0.681219210337
2.87143013459
1.94181181279
2.25079365079
1.50309790606
2.07827956989
1.04729344729
2.18878811883
2.28993382097
2.03174603175
1.58889731936
1.89806949807
0.439153439153
1.536996997
1.6
2.19714573891
0.745846153846
2.64893271599
1.48136458087
2.24084084084
0.457516339869
1.76744186047
1.74357076781
1.77927927928
1.70697012802
2.62962125495
1.71100713012
1.57333333333
3.0
1.2972972973
1.48832804584
1.02923976608
1.69797979798
1.02760942761
1.94117647059
1.20499108734
0.443517803518
1.40232362104
2.31321869063
0.956307400518
0.464141226111
0.74708994709
2.89312169312
0.857142857143
2.64363452291
1.38151260504
1.54496147531
2.0
1.22629032258
2.55319148936
0.904575163399
1.97613445378
2.07917129116
1.74985172982
1.75458744154
1.32413793103
1.50197628458
2.69881422925
1.30704336907
0.443517803518
2.71633443106
1.94113207547
1.68421052632
1.90701135063
1.56469886702
1.08143774069
1.41076923077
1.36363636364
0.910955207771
2.16666666667
2.13960784314
0.616296296296
0.55789819376
1.51408423861
2.02803327392
1.85107339192
0
3.65009032012
2.5334938177
1.11748381129
2.15757575758
1.6
2.03587207143
3.03229519992
2.05714285714
2.17531326243
1.77459032196
2.22789115646
1.39159663866
0.659784946237
1.11579638752
2.28571428571
0.411537317871
2.20559772296
1.19092418373
2.1812244898
2.67572665164
1.65
1.70084176275
1.78645973222
1.76064997804
2.22200328407
1.3045045045
1.27293447293
1.01778656126
0.714438502674
2.28993382097
1.77305450869
1.12277413308
1.73784615385
1.88502024291
1.22639083638
1.57333333333
1.1115942029
2.09534230587
1.42601880878
2.44999112313
1.92668773427
1.44456327986
2.08140934457
1.05314052651
1.85107339192
2.57233704293
2.21428571429
1.45287653523
2.75
1.97297297297
1.8619047619
1.36926829268
2.06387779794
0.721477325853
2.28888888889
0.746666666667
2.28389154705
1.74458874459
1.11196911197
2.03587207143
1.44477545214
1.17661538462
0.622262864368
0.205128205128
2.17496229261
1.73784615385
1.56802245121
1.45160784314
1.32092497356
1.51158645276
1.52136752137
2.84555555556
2.18195121951
1.74677002584
1.3866916823
1.88904235727
1.95838433293
1.19478935698
2.23529411765
1.94783868093
0.229915966387
1.94181181279
1.5396011396
2.35237380506
1.38461538462
0.22792022792
1.35791271347
1.28160676533
2.06451612903
1.76036866359
1.58588235294
1.89936150806
2.53594771242
0.303744923319
1.04723346829
1.85344827586
2.58379589674
2.12590011614
2.71633443106
0.42320587933
0.92091503268
1.7025862069
0.743193191484
1.01724026433
1.43448275862
1.45160784314
1.92837631589
1.56236786469
2.0734402852
1.43838383838
1.38461538462
1.37748987854
0.910344827586
2.16216216216
1.72083028083
2.58041114751
1.27293447293
1.73267062129
1.15523914275
2.24519480519
1.87153868457
1.49090909091
0.964705882353
1.71135531136
1.40553359684
1.01075046904
1.57803030303
1.69797979798
2.05884095861
1.40476190476
2.04761904762
0.850178253119
3.05882352941
2.34285714286
2.18735710243
2.40004300382
1.56802245121
2.36808743169
1.60079051383
2.3334904343
1.0526951567
2.97147596255
2.56955903272
2.14705882353
2.20769230769
0.142857142857
1.09714285714
2.56955903272
1.65539112051
1.91546537842
0.201253132832
1.82162666289
1.96
2.06666666667
0.709969442322
1.22885470085
1.62222222222
1.69353984741
1.34679802956
1.20557491289
1.59480519481
2.3652173913
1.59435483871
1.93795918367
1.94906108353
1.42857142857
1.27799364182
1.1623426382
1.77777777778
1.23285024155
2.63269986271
2.19714573891
2.0347826087
2.10582010582
1.17209302326
1.26203208556
2.31874267939
2.14472934473
0.316547239114
2.57233704293
2.62762762763
0.271264367816
0.893772893773
1.8330749354
1.10344827586
3.32958098812
1.19274193548
0.996960486322
2.2641509434
1.74545454545
1.98608695652
2.56818181818
0.594871794872
1.87105956428
2.14634146341
2.12173913043
1.49287749288
0.743311860553
1.20499108734
1.3045045045
1.75938461538
1.94150197628
2.45161290323
1.21904761905
2.16666666667
1.87153868457
1.77333333333
0.68655873919
1.73222325008
1.05050660264
1.86911810052
1.91546537842
1.87867746289
1.04751499983
1.14285714286
0.580392156863
1.92866614669
0.65780730897
1.70831678126
0.571510200437
1.20557491289
1.19675828048
1.45641025641
1.89872922776
1.28967741935
0.956776556777
1.22015037594
1.11579638752
0.640102564103
1.75626698883
0.718405832519
0.977777777778
2.60714285714
2.00686868687
1.26736373749
2.59278937381
1.60346320346
2.41344537815
2.13569661162
1.55075018755
1.882436967
1.94783868093
1.87002096436
2.11331103679
1.01778656126
1.4967965368
1.37931034483
1.74389051808
1.16612612613
1.73541116169
2.63442940039
1.8552071235
1.8719772404
1.51899159664
1.25200932401
3.02753319357
2.01818181818
1.80102855892
0.367876344086
1.05263157895
1.63946236559
2.84579987805
1.68472906404
1.36936936937
2.53261538462
1.23076923077
1.48644007156
1.73192121888
1.20803212851
0.266666666667
1.86911810052
1.83006535948
2.05331838272
1.85384615385
1.90520797821
1.63487292278
2.32233870137
2.15623561703
0.966844919786
1.34336519164
2.07865524193
1.27707317073
1.8097826087
2.26943589744
1.44444444444
0
1.44444444444
1.48428938595
0.818020022247
1.6997979798
1.95587358378
1.56060606061
1.80565535024
1.8332046332
2.09523809524
1.97964847364
1.90120689655
1.86956521739
1.29454095973
2.23529411765
1.15990344266
2.63333333333
1.64672364672
1.96264253394
1.30666666667
1.89784615385
1.72819841555
1.25454949944
2.33585477669
2.80739687055
0.743181818182
1.5968627451
2.44461538462
0.443517803518
0.524032258065
2.07326007326
1.65
0.291005291005
1.29032258065
1.45010034665
1.30666666667
1.65756569012
1.97857549858
0.77677224736
2.0612244898
0.63562023562
1.22629032258
0.71176359872
1.19156297134
1.32549019608
1.57419354839
0.439974042829
2.03692307692
2.2641509434
0.814358974359
0.822068965517
2.08108108108
1.40540540541
1.54838709677
2.74285714286
2.20571428571
0.577777777778
1.01935483871
1.77804646752
1.69435215947
1.79047619048
1.07343330792
1.29795918367
1.58547008547
1.25633873881
2.16379007644
1.58114308641
1.68472906404
1.27707317073
1.73222325008
2.3274053397
1.57889338731
1.52961876833
0.623481781377
0.673421368547
1.70831678126
1.86046511628
2.56955903272
1.98512508452
1.57462887989
2.30564516129
0.885419694679
2.76634146341
2.97684729064
2.69565217391
1.85210084034
1.75757575758
1.76518586587
2.0
2.24207261449
1.30375940976
1.71135531136
0.615384615385
0.932307692308
1.22055137845
1.90909090909
1.89178504765
2.21419354839
2.0393723773
2.06958073149
1.38461538462
1.0966042966
1.2501010101
1.86435786436
1.28234668096
1.60742115028
0.432804232804
1.89013914096
0.918579710145
2.19130434783
0.924444444444
1.32124190306
1.45454545455
2.45568917669
0.918964076859
1.01282051282
2.30072463768
1.33122529644
1.50997150997
1.30769230769
2.08319088319
1.19092418373
1.87727412889
0.626895854398
2.197945845
1.39130434783
1.03913630229
1.60270310348
2.35476472914
1.05724606462
