1.28900677327
2.04479452977
1.83801499456
0.566946709514
1.98987335265
1.10365081107
2.83654314466
1.90885428893
1.365577484
2.15979698862
1.83493960854
2.05966644369
1.02868899975
2.16052794376
2.0
0.984731927835
1.28337789584
2.12842572772
1.96899036994
1.64438438329
0.330759292238
2.05737799949
2.66323619009
2.19740106229
1.06752102537
1.02378139378
2.50646354834
1.46503974807
1.42133810904
1.05272271194
1.84998916025
1.44749372891
1.27801930085
2.23664569821
1.77777777778
1.20948631363
1.93218356616
2.30940107676
1.47801668913
1.61928180951
1.87794213613
0.799408065032
1.70560573084
1.98987335265
1.33865604245
1.16417100017
1.84052867067
2.05749072945
1.25707872211
1.14332390095
2.43115896447
0.990147542977
3.15984045159
1.788854382
2.07172958951
1.64121987972
1.63299316186
1.98176142831
1.44120751716
2.81410588273
1.97774336376
1.6876392484
1.49363208963
1.33182418363
1.64541880846
1.54919333848
1.53748442719
1.33865604245
2.03303685104
1.70824885304
2.3777817717
1.41544277909
1.41914975037
2.49878019022
1.54277843168
1.6197165744
0.865180912697
1.30639452948
2.32691209682
0.824786098842
0.872871560944
2.66587591059
0.877526908953
1.89345852481
0.820516150509
3.54175097939
2.06418738617
2.56000121832
3.05821140617
2.30897352865
2.05710816173
2.46525259471
1.71184197004
2.09956263667
2.15743955988
2.39297216646
2.67232347243
1.53604915436
1.77534413149
1.51185789204
1.25410889306
1.49801177255
1.11643311196
2.13620698475
2.67510497225
2.40965798671
2.82842712475
1.46360813073
2.13370410517
2.14422506968
1.62922615993
1.94605109027
1.21281462911
1.3058572502
1.28337789584
2.05330800936
1.75719074043
1.76081755696
1.80442839819
0.700300975252
1.20948631363
1.96396101212
2.34119691772
1.71867569769
2.032002032
2.32930054429
0.738548945876
2.00983773767
1.23168057427
1.89345852481
1.67114549717
2.6423130363
2.24707602216
2.45428796431
1.00591138154
1.63717496937
1.61245154966
2.24037213424
0.6
1.86666666667
1.2344267997
2.76609970835
1.7615420242
2.12842572772
2.05710816173
1.75792084984
1.41602086479
1.0894095588
1.07267809611
2.4642740117
1.76081755696
1.24878108211
2.39324980983
1.17793627813
1.24034734589
1.10940039245
2.48298136754
2.08192015562
1.46422831641
1.9318184176
1.87098910742
2.33333333333
2.66910505223
2.54217571042
2.23909348886
1.62290940268
1.83493960854
1.61311826523
1.51406659722
2.15165741456
1.29846890813
1.54983389809
0.763541715571
1.3568010506
2.23143683416
2.52069159811
1.29430045786
2.80087449901
1.35224680757
1.54010708217
1.74228962074
2.24433443075
2.33445567994
2.03303685104
1.37558799898
1.6480838484
1.91026773176
1.72513478142
2.66301619724
2.02837021135
2.39324980983
1.69333502667
0.713506068013
1.71498585143
1.90118861444
1.33746771018
2.91519478864
1.88982236505
1.82361090527
1.38795583672
2.12916258969
1.94605109027
1.42693537987
1.59900537267
2.6423130363
2.45428796431
1.3058572502
1.85164019955
2.77210595551
0.956182887468
1.00491886883
1.01908760848
1.87794213613
1.97419246717
1.64991582277
2.46184922692
1.00256082366
1.9889806324
1.590092784
2.13358584364
3.10674246992
1.24878108211
1.77367678552
1.89539697989
2.44948974278
0.804030252207
2.06050970532
2.41788209931
1.0886621079
2.3873967621
0.227921152919
1.15470053838
2.41788209931
2.14889967822
1.69774937525
0.522976360368
1.29861893942
2.06985446847
1.95130301973
2.18306339023
1.84782631249
1.73544366255
1.50598657707
1.73925271309
2.95769892215
2.00640821892
2.23703576286
1.46826069677
2.31900361746
1.80516836889
2.23772371114
2.26778683806
1.78296997664
2.09453975235
1.90108328252
2.27177807229
2.19740106229
1.65005729465
1.69540236885
1.81818181818
2.22375426116
2.05129037627
2.52050415125
1.51822623256
1.67114549717
1.60267335191
0.780720058359
1.81879544689
2.21744744486
1.65179328387
2.52670466284
1.04860824078
1.6043612575
2.23157774001
3.09715935005
1.53604915436
1.67541563317
0.554700196225
1.29986736724
1.9713084415
1.64156536334
1.68732297546
1.19284010396
1.98987335265
1.62922615993
2.53333333333
1.8053418677
1.89912586082
0.98413566261
1.30639452948
2.45428796431
1.67125804359
1.0894095588
2.13370410517
2.25986392711
2.42113532114
1.69774937525
2.19776902318
0.65648795189
1.94733528067
0.452910813658
1.92506684376
1.76
1.84773954175
1.70367084
2.95769892215
2.6222491255
2.77160931262
2.00097727834
1.47709789175
1.25335912288
1.66811531246
1.77534413149
1.0
1.36201044921
1.5554275421
1.31590338992
2.58198889747
2.0255685937
1.97948663722
2.45413811311
1.39970842445
1.08179744605
2.17732421581
1.56385810543
2.22834405812
2.23909348886
2.08038814703
2.48632624203
1.21281462911
1.82293086075
2.07019667803
1.62962962963
1.6459023996
1.69705627485
1.67481609275
1.84444933665
1.70323738108
1.80277563773
1.58776837207
2.16248202361
2.08081948404
2.09852555948
1.31590338992
1.47042924419
1.47441956155
2.36643191324
1.29777136905
1.31590338992
3.05281255436
1.96544926425
2.2478059478
2.07417989148
1.59920241084
2.5597787766
2.42113532114
1.66011471328
2.03321698101
2.79220195412
2.08893187147
2.13504205073
1.9518001459
1.18437313632
1.04053196343
1.80838886036
1.68710277976
2.48030534945
1.69790543991
2.34147762802
1.35786947967
0.619677335393
1.35786947967
1.82709375921
1.03917746664
1.06217000909
2.14889967822
0.64142698059
1.23478981303
2.43132269542
1.41698381686
2.15743955988
3.08931378288
1.79968508266
1.76546965901
2.54217571042
1.69230769231
2.93044674789
2.6222491255
2.04932923468
1.83532587096
1.93817484741
2.07978778758
1.56892908111
2.60307440065
2.2478059478
0.58976782462
2.1317921604
1.48191714727
1.33865604245
0.753734662881
2.12186841755
2.40965798671
1.17669681083
1.7806964021
2.27921152919
1.25794180407
2.72878913512
1.28337789584
1.48787326835
2.41957012576
1.25335912288
1.63299316186
1.41421356237
1.71791138077
1.90958415052
1.97105491331
1.07908316879
2.27553323679
2.23157774001
0.788810637747
0.556486674912
1.85903200618
2.91469274366
2.62950294054
2.43772128815
1.80906806747
2.16641024124
1.14578379846
1.68238204838
1.30465614611
1.85434529989
1.85604732981
1.80059654643
2.05798302171
1.06904496765
1.55568893653
1.16642368704
1.29777136905
2.48030534945
2.13370410517
1.86458889016
1.66641806055
0.834057656228
0.849590790486
1.2290197356
1.84773954175
2.77734804378
2.41788209931
1.9018292442
1.95562346033
1.0175408012
0.632455532034
2.39473736036
1.92952764248
2.26778683806
1.98272638839
1.31982403519
2.07846096908
2.19477620875
2.61262443754
1.05962588565
2.77210595551
1.24567534924
1.43974806613
1.38620656017
1.64263746448
1.22315325945
2.58071666832
1.94285714286
2.21338863582
1.33746771018
1.87991518543
0.828517156108
1.88146334172
0.458831467741
1.75304612937
0.386243639668
2.5689210832
2.11601497628
2.10493924634
2.2188007849
1.80177046585
0.85769002787
2.32745982632
1.47542222713
2.65818991243
2.30940107676
1.18262479198
2.5800394907
2.55168687643
2.28312717194
1.11643311196
2.04999082444
1.43777030938
1.80299574342
1.77504062792
1.19045822089
1.87408514266
2.1170244961
2.34622290176
