0.834057656228
1.53960071784
1.97980231965
1.51619608716
1.91485421551
1.03712595768
0.503952630679
1.82998284399
0.436435780472
1.52208478129
1.8349268437
1.8053418677
0.816496580928
2.31656202752
1.85164019955
1.43684241621
1.10096376513
3.25535262683
1.79195734076
1.97133153163
2.91972747441
2.15255294079
1.83041726129
1.46826069677
1.93046835626
2.24044813444
1.14578379846
0.489897948557
1.97122152122
1.06273786265
1.74574312189
2.20730162215
1.8243634196
0.854016820294
1.59363814578
1.00790526136
1.34715062811
1.56037899521
1.05409255339
2.41603836462
2.37611229657
0.789542033952
1.69517379365
1.61245154966
1.88780080373
2.1029989117
2.28257329457
1.81164325463
2.30940107676
2.51976315339
1.35224680757
0.852802865422
1.30930734142
1.788854382
0.628970902033
2.87273938584
1.42163730662
2.26077666104
2.50185116649
1.32664991614
1.41421356237
1.97948663722
2.41468999311
2.29615139153
0.81786082011
1.67125804359
2.13358584364
1.44016459965
1.61690416691
1.65567470877
0.411475599899
1.96946385567
1.76383420738
2.612275737
1.90887768775
1.60879933308
0.715198539852
2.62639661584
2.10480544223
1.97122152122
1.10674314219
1.78226557736
1.72588830174
1.93447764066
1.68421052632
1.4596008984
1.09544511501
1.31993265821
3.16939157463
2.82475145442
0.891645140121
1.22355058064
1.82998284399
1.46288102682
1.4128345142
1.87317162316
2.27414097446
1.39686059154
1.20528470628
2.72621680439
1.97105491331
2.26946605845
1.23904494826
1.54303349962
0.801336675953
0.398508385109
2.25448592076
1.3804735405
1.73719807243
1.88740286168
2.0
2.24280652008
1.70560573084
2.37099591346
1.9118084776
1.30661051602
2.49400888557
2.10480544223
1.70560573084
0.632455532034
1.44463023703
1.9118084776
1.76220780389
2.29795934796
1.2
1.63678641473
2.10262993215
1.89551640883
1.81452941745
2.40985630431
0.5
2.14506577744
1.60356745147
2.01007563052
1.3058572502
1.82006302077
2.08106392686
0.533465069369
2.12223243631
1.10940039245
0.857142857143
1.23091490979
2.30021853114
1.15470053838
1.65988202392
1.33182418363
3.11913835984
1.37612492411
1.5029382986
2.47910603028
2.9262540838
1.89081263318
1.24211800682
2.08410419718
2.16854990619
2.81237711208
2.80336606012
1.77777777778
1.02597835209
2.75
2.19650071355
0.596284794
1.31876094679
1.24101045599
1.27519650491
2.42464322484
1.39659449751
1.42231800444
1.64285714286
2.08514414057
1.14566630025
1.53504515776
1.27331000666
1.60200375783
1.23796892118
1.49240501449
0.639602149067
2.02837021135
1.74130156709
1.24939009511
1.60277537069
0.960768922831
2.23801153978
1.14500514815
1.03821709524
1.56144011672
0.890953674224
1.76565917859
1.74057053831
0.693977918359
1.20492815215
1.02652980515
2.07337577936
1.84295719648
1.98782475223
2.54340313783
1.52299922102
1.33102452929
1.47709789175
0.497576330857
1.21969915723
2.40204014946
2.45533769189
1.405528443
1.88890027552
2.72217861469
2.0
2.53500088919
2.99382079673
2.24317606451
1.39262124765
2.45967477525
1.91667010422
0.810191493667
1.66946002474
1.82036410924
0.334496804003
1.44827764109
1.18817705157
2.83011021155
1.34374202629
1.11417202906
2.68243035077
1.50814780573
0.917662935482
2.29770783161
3.25773001921
1.18469775552
2.882043171
1.51635079315
1.54758211253
2.0
1.69030850946
2.17597069945
0.529812942826
1.68421052632
2.18560277821
1.07763181216
1.44671108829
1.9811375855
1.24101045599
0.526361355968
1.65857685773
2.0
1.10096376513
1.48396446643
2.25417805005
1.94665705357
1.46059348668
1.57243171776
1.00408742468
