0.496730453743
1.51198686371
0.866206896552
1.71022727273
3.10344827586
1.25217391304
0.379032258065
1.26258553275
0
0.4
2.2
1.4039644566
0.675826086957
1.56805008945
0.515909872721
0.528172043011
0.464
3.23404255319
1.37602627258
1.72291531134
1.60088987764
1.54711168164
0.9970189099
1.77822580645
1.10344827586
2.02206896552
0.985620915033
0.704798394454
2.89211618257
0.444444444444
1.84360400445
2.30830039526
1.29142857143
1.24802043423
2.33333333333
1.08235294118
1.45154415954
0.945658263305
1.22597402597
0.896782496782
1.66666666667
0.774025974026
0.988347826087
0.227077497666
1.13043478261
1.88888888889
0.711794871795
0.938405797101
1.54313390313
1.49312169312
0.544952380952
0.673582600196
1.43298245614
1.87793645443
0.994914984904
1.72132132132
1.54805194805
1.97120708749
2.32111592112
0.94130675526
1.42256410256
1.53649578492
1.38924731183
1.05443390965
0.822118587608
1.9763546798
2.12901805843
0.964238659891
1.72133032245
2.39316239316
1.84050661413
0.727272727273
0.926877470356
1.33699978248
1.90584231424
0.349407114625
0.271264367816
1.61445503421
1.88888888889
2.89211618257
0.416815742397
1.856
1.58858858859
1.06541871921
1.39130434783
0.930158730159
0.757834757835
0.944367816092
2.69311292736
2.34693877551
0.641106821107
0.657657657658
1.9825136612
1.40096618357
1.30568356375
0.728778467909
1.39393939394
1.43315508021
2.55527036277
0.86081871345
1.82013685239
1.41176470588
0.608444444444
2.01163636364
0.437422037422
0.696179183136
1.29417989418
0.917280917281
1.89155555556
1.67186756228
1.07307401593
0.875
0.992424242424
1.04295220811
1.76036866359
0.790243902439
1.39140955838
1.87104718318
1.575
0.695566502463
1.12334682861
0.821978021978
1.07692307692
1.96637273296
0.990589844938
0.977777777778
1.12698412698
0.923921568627
2.01733333333
2.42090592334
0.827586206897
0.936911976912
2.32076023392
1.81557264957
1.17748917749
1.20376559715
1.46745644599
0
1.10476190476
0.405648267009
0.74953886693
1.40934065934
2.10470275067
1.20207638116
0.207827260459
1.65067462237
1.9362745098
1.73628912072
0
0.831578947368
1.76287173873
0.444444444444
0.743182743183
0.914285714286
1.57777777778
2.22789915966
2.03827751196
2.03908715169
1.36177777778
1.64758563074
0.582429335371
0.344927536232
1.11136695065
1.66811594203
0.208637873754
0.60645014245
1.08825312618
1.39161779081
0.436724565757
1.39135337194
1.79591836735
1.52333333333
0.318663650075
1.44
0.962875816993
0.832052700922
0.28835978836
1.48148148148
1.3593495935
0.327991149044
0.842945874002
0.285714285714
2.00214669052
0.692753623188
0.497297297297
1.52121212121
0.613286192597
1.09180035651
0.674356699201
0.705853566723
0.844444444444
1.56923076923
1.60227272727
1.41119248949
1.91586443586
1.56321514307
1.65098901099
1.31837016575
1.37931034483
1.25668016194
0.313846153846
1.75181422351
1.40268481755
1.1512195122
1.26841397849
2.61794871795
1.22273702274
2.32804232804
1.54723026912
1.76132404181
0.998064516129
2.64761904762
1.64581613508
0
0.888666666667
1.49310344828
0
1.09090909091
0.888877807766
1.60602365115
0.512418300654
1.24083452779
1.78697504565
1.19611380985
0.656205128205
2.14973262032
3.05905869304
1.76210526316
1.4551477508
1.79242424242
0.480035650624
2.02280336197
0.08
1.0612244898
0.393073593074
1.53281385281
1.43191919192
0.916989247312
0.76183908046
0.738636363636
0.896222090598
0.228571428571
0.96
1.36555373107
1.56606704389
0.688477951636
1.64423963134
1.47694235589
1.32640692641
1.66694278694
1.14743293247
