2.63157894737
0.769230769231
1.81818181818
1.30434782609
1.17647058824
0.588235294118
0.555555555556
1.25
1.11111111111
0.769230769231
0.555555555556
1.17647058824
0
1.11111111111
0.833333333333
0.952380952381
1.66666666667
0.588235294118
0.909090909091
1.05263157895
0.5
0.384615384615
0.952380952381
1.11111111111
0.625
0
0
1.73913043478
0
0
0.666666666667
0.714285714286
0.588235294118
0.666666666667
1.05263157895
0
0
0.769230769231
0
0.833333333333
0
0.588235294118
0.666666666667
1.76470588235
0.625
1.5
0.869565217391
0
0
0.909090909091
1.25
0.555555555556
0
0.588235294118
0
0
0
0
0
1.0
1.03448275862
0.416666666667
0.0
0
0
0.5
0
0
0
0
0.454545454545
2.14285714286
0
0
0.869565217391
0.666666666667
0
0.47619047619
0.666666666667
0
0
1.42857142857
0.625
0
0.645161290323
1.0
0
0.625
0
0.454545454545
0.714285714286
0
0
0
0
0.714285714286
0
0
0
1.42857142857
2.4
0.714285714286
2.72727272727
0
1.94174757282
2.38095238095
2.0
1.875
2.10526315789
0.47619047619
0
1.66666666667
1.05263157895
1.36363636364
1.33333333333
1.25
1.36363636364
0.526315789474
0.625
1.17647058824
0
1.17647058824
0
1.05263157895
0.952380952381
0.5
0.555555555556
0
0.47619047619
1.48148148148
1.11111111111
0
0
0.625
0.384615384615
0.952380952381
0
1.05263157895
0.625
0
0.416666666667
2.10526315789
1.07142857143
0.5
0.769230769231
0
0.47619047619
0
0.47619047619
0.909090909091
0
0.555555555556
0
0
0.454545454545
0
0
0.666666666667
0.625
0.5
0
0.666666666667
0
0.714285714286
0
0.952380952381
0
0.37037037037
0
0
0
1.5
0
0
0
0
0
0
0.37037037037
1.5
0.666666666667
0
0
1.0
0
0
0.666666666667
0.526315789474
0.588235294118
0.416666666667
0
0
0.333333333333
0
0.555555555556
0.909090909091
1.11111111111
2.2641509434
0.47619047619
0.111111111111
0.769230769231
0.769230769231
1.17647058824
1.92307692308
2.35294117647
1.62162162162
2.0
1.79104477612
1.05263157895
1.76470588235
1.2
1.25
0
0
1.11111111111
0
1.0
1.17647058824
0
1.05263157895
1.25
0
0
0
0.714285714286
0.434782608696
0.526315789474
1.05263157895
0
1.05263157895
0
1.0
0.952380952381
0.952380952381
0
0.454545454545
0
0.952380952381
0.555555555556
0
0.833333333333
1.05263157895
0.714285714286
1.11111111111
0
0
0.454545454545
0.714285714286
0.714285714286
1.05263157895
0.526315789474
0.625
0.384615384615
0.967741935484
0.625
0
0.666666666667
0.555555555556
0.526315789474
0.666666666667
0.606060606061
0.740740740741
0.588235294118
0.952380952381
0.909090909091
0
0
1.30434782609
0
0.666666666667
0
0
0
0.769230769231
0.555555555556
0.666666666667
0
0.5
0.869565217391
0.5
0
0
0
0
0.909090909091
0
0
0.47619047619
0
0
0
1.90476190476
1.51515151515
1.42857142857
0
0
0
0
0
0.37037037037
2.63157894737
1.76470588235
1.17647058824
1.11111111111
0
0.740740740741
1.09090909091
0.833333333333
0.526315789474
1.66666666667
0.909090909091
0.909090909091
1.62162162162
1.76470588235
0.833333333333
1.11111111111
1.11111111111
0
0.769230769231
1.5
1.0
1.42857142857
0
1.76470588235
1.33333333333
0.555555555556
0.869565217391
1.11111111111
0.625
1.36363636364
0.714285714286
0.454545454545
0
0
0
0
1.0
1.36363636364
0
0
0
0.714285714286
0
0.666666666667
0.952380952381
0
0
1.05263157895
0.666666666667
0.454545454545
0.454545454545
0.625
1.05263157895
0
0.526315789474
1.15384615385
0
0
0
0.666666666667
0
0.909090909091
0.714285714286
0.454545454545
0.5
0.555555555556
0.555555555556
1.0
0.625
0.454545454545
0
0
1.42857142857
0
0.454545454545
0
0.625
0.714285714286
0.869565217391
0
1.33333333333
0
0.5
0
0
0.555555555556
0
0.47619047619
0.588235294118
0
0.434782608696
0
0
1.0
0
0.384615384615
0.526315789474
0
0
0.714285714286
1.17647058824
1.66666666667
2.5
0
2.44897959184
1.25
1.66666666667
2.22222222222
0.714285714286
0.555555555556
1.42857142857
0
0
0.555555555556
0
0.5
0.625
1.0
0.416666666667
0
1.6
1.66666666667
1.42857142857
1.25
0
1.17647058824
1.25
1.15384615385
1.15384615385
0.5
0.555555555556
0.8
0.952380952381
1.5
2.8
0
0.5
0
1.66666666667
0.555555555556
1.33333333333
0.526315789474
1.875
0
0.588235294118
0.588235294118
0.434782608696
0.833333333333
1.05263157895
0.526315789474
0
0
0.869565217391
0.37037037037
2.8
0
0.454545454545
0
0.5
0.5
1.33333333333
1.37931034483
0.526315789474
0.4
0.909090909091
1.30434782609
1.37931034483
1.2
2.22222222222
0.5
1.0
1.11111111111
0.526315789474
0.833333333333
0.526315789474
0.645161290323
1.03448275862
3.22580645161
0
0
0.625
0
0.869565217391
2.0
0
0
0
0.625
0
0
0.526315789474
2.14285714286
0
1.0
2.0
0.555555555556
1.57894736842
0
0
0
1.875
1.73913043478
1.42857142857
1.66666666667
0.625
0.625
1.36363636364
1.66666666667
0.666666666667
1.57894736842
0
1.0
0.434782608696
0.625
0.526315789474
0.526315789474
0
1.0
1.36363636364
0.666666666667
0.689655172414
1.25
1.57894736842
1.66666666667
0
0
0.869565217391
0.555555555556
0.526315789474
0
0.769230769231
1.5
0
0.769230769231
0
0.909090909091
0.666666666667
1.30434782609
0.588235294118
0.5
0.5
0.555555555556
0.5
0
1.42857142857
1.0
0.588235294118
0.625
0
0
0.588235294118
0.714285714286
0
0
0.526315789474
0.909090909091
0
0
0
0
0.588235294118
0
0.4
0
0.666666666667
0
0.555555555556
0
0.526315789474
0.555555555556
0.869565217391
0
0
0
0.625
0.0
0
1.11111111111
0.434782608696
0.714285714286
0.526315789474
1.2
0.625
0
0.5
0
0
0.769230769231
0
0.625
1.05263157895
0.454545454545
0.769230769231
0.454545454545
0
0.357142857143
0
0.625
0.666666666667
0
1.30434782609
0
1.25
0.0
0
1.11111111111
2.10526315789
1.0
0.526315789474
1.0
0
0.833333333333
0.625
0.769230769231
0.714285714286
0.526315789474
0.869565217391
0.555555555556
2.10526315789
0.526315789474
0.625
0
1.30434782609
0
1.875
1.57894736842
1.42857142857
1.25
0.555555555556
1.5
0.555555555556
0.555555555556
0.526315789474
0
0
0
0
0.5
1.53846153846
0
0
0.588235294118
2.35294117647
0.357142857143
0.952380952381
0.666666666667
0.4
0
0.454545454545
0
0.47619047619
0
0.909090909091
1.11111111111
0
0.769230769231
0.5
0
0.909090909091
0.833333333333
0
1.30434782609
0.714285714286
0.869565217391
1.17647058824
0
0
0
0.625
0.714285714286
0
0.714285714286
0.555555555556
0
0.526315789474
0.588235294118
0.454545454545
0.625
0.0
0.588235294118
0
0.526315789474
0
0
0.625
0.909090909091
0
0.625
0
0.666666666667
0
0
1.33333333333
0
0
0
0.384615384615
0.769230769231
0
0.555555555556
0.606060606061
1.90476190476
1.05263157895
1.42857142857
3.125
0
0.588235294118
1.66666666667
1.25
0.625
1.57894736842
0.555555555556
1.42857142857
1.0
1.81818181818
0.526315789474
1.2
1.11111111111
0.454545454545
0
0
3.29411764706
0
0
0
1.42857142857
0
0
0.769230769231
1.03448275862
0
1.66666666667
0
0.714285714286
1.05263157895
1.0
0.909090909091
0.666666666667
0
0
0
0
0.555555555556
0.526315789474
0.869565217391
0.588235294118
0
1.5
0.666666666667
1.0
0.454545454545
2.5
0
0
0.869565217391
0
1.30434782609
0
0
0.454545454545
0
0
0
0.434782608696
0
0
0.8
0.526315789474
0.454545454545
0
0
1.0
0.526315789474
0
0
0
0
1.25
0.37037037037
1.07142857143
0.5
0
0.384615384615
0
0.588235294118
0
0
0
0.5
0.952380952381
0.47619047619
0.555555555556
0.833333333333
0
0.952380952381
0
0
0.37037037037
0
0
2.0
0.555555555556
1.05263157895
2.10526315789
1.53846153846
1.66666666667
0.555555555556
2.10526315789
1.42857142857
1.05263157895
0.869565217391
1.66666666667
0.909090909091
0.833333333333
0.526315789474
0.833333333333
1.25
1.0
0
0.47619047619
0
0.588235294118
1.0
1.0
0.5
1.15384615385
0.909090909091
0.526315789474
1.33333333333
0
0.625
0
0.666666666667
1.42857142857
0
0.5
0.526315789474
0
0
0
0
0.645161290323
0.666666666667
0
0.769230769231
0.434782608696
0
1.53846153846
0.5
0.294117647059
0
0.588235294118
0
0.714285714286
0
0.555555555556
0.4
0.952380952381
0
0
0.909090909091
0.588235294118
0.526315789474
0.666666666667
0.769230769231
0.444444444444
0.47619047619
0.47619047619
0
0
1.5
0.869565217391
2.5
0
1.81818181818
0.30303030303
1.25
0
0
0
0
0.37037037037
0.47619047619
0.869565217391
0
0
1.48148148148
0
1.66666666667
0.384615384615
0
0
0
0
0
0
0
1.11111111111
0
0
2.10526315789
2.18181818182
0.588235294118
0.666666666667
1.17647058824
1.05263157895
0
1.17647058824
1.36363636364
0.47619047619
0.869565217391
0.8
0
0.555555555556
1.05263157895
2.0
0
0.588235294118
0
0
1.57894736842
1.53846153846
0.625
0
0.769230769231
0.625
0.625
0.454545454545
2.5
0
0.454545454545
0.869565217391
0
1.66666666667
0
0.869565217391
0.47619047619
1.5
0
0.434782608696
0
0.526315789474
0
0
0
0
1.48148148148
1.05263157895
1.30434782609
0
0
0
0
0
0
0.666666666667
1.25
0
0
0.769230769231
0.526315789474
0
0.47619047619
1.42857142857
0.714285714286
0.526315789474
0
0.666666666667
0
0.526315789474
0
1.05263157895
0.555555555556
0.714285714286
0
0
0.588235294118
0
0
0
1.57894736842
1.5
0.526315789474
0
0.952380952381
0.47619047619
0.588235294118
0
0.47619047619
0.555555555556
0
0.47619047619
0
0
0
0.740740740741
0.434782608696
0.357142857143
0.5
0
3.63636363636
2.10526315789
0.833333333333
0.952380952381
1.33333333333
1.6
0.555555555556
1.11111111111
0.555555555556
1.875
1.25
0.526315789474
0
0.555555555556
0.769230769231
2.63157894737
1.25
0.555555555556
0
0
1.57894736842
1.11111111111
0
1.81818181818
0.8
0
0
0
0
0
0
1.17647058824
1.57894736842
1.17647058824
0.588235294118
1.76470588235
0
0
0.625
0.625
0.769230769231
0
0
0.666666666667
1.17647058824
0.4
0.555555555556
0.769230769231
1.05263157895
1.36363636364
0
0
0.5
0.526315789474
1.05263157895
0
1.66666666667
1.46341463415
0.555555555556
0
0.833333333333
1.30434782609
0.666666666667
1.17647058824
0
0
0
0
0.740740740741
0
0
0
0
0.714285714286
0
0.588235294118
1.66666666667
1.0
1.25
0
1.25
0.588235294118
0.0
0
1.11111111111
0.666666666667
0
0
1.0
0.357142857143
0.666666666667
1.33333333333
0.434782608696
1.66666666667
0.555555555556
0
0.909090909091
0
0
0
1.42857142857
0
2.0
1.17647058824
0.714285714286
1.76470588235
0.555555555556
0.526315789474
0
0.588235294118
0.952380952381
0.416666666667
1.57894736842
0.526315789474
0.555555555556
2.5
2.14285714286
1.0
2.22222222222
0
0.555555555556
0.4
0.526315789474
0.5
2.53164556962
2.38095238095
2.30769230769
1.25
0.555555555556
1.30434782609
0.714285714286
1.53846153846
0.555555555556
0.384615384615
0
0.909090909091
1.0
0.869565217391
0.740740740741
0.625
0.909090909091
0
0.588235294118
0
1.05263157895
1.05263157895
0.666666666667
0.625
0.909090909091
1.0
0.666666666667
0
0.952380952381
0.555555555556
1.25
0.666666666667
0
0
0
0
0.952380952381
0
0
0.666666666667
0.555555555556
0
0
0
0
0
0.869565217391
0.714285714286
0.555555555556
1.5
1.17647058824
0
0.454545454545
0.47619047619
0.454545454545
0.625
0
0.625
0
1.0
0
0
0.454545454545
0.526315789474
0
1.30434782609
0.833333333333
1.875
0
0
0.0
0
1.05263157895
0.454545454545
0.526315789474
0
3.33333333333
2.0
1.17647058824
0
1.62162162162
1.0
0.666666666667
2.27272727273
0.526315789474
2.0
0.588235294118
0
0.555555555556
0
0.5
0.952380952381
2.66666666667
1.17647058824
0
0
0
0
0.5
1.36363636364
1.11111111111
0.5
2.06896551724
0.416666666667
0
0
0.588235294118
0
0
0
0.666666666667
0
1.53846153846
0
0.666666666667
0
1.25
1.25
0
0
0.47619047619
0.952380952381
0.47619047619
1.11111111111
1.25
0.4
1.0
1.17647058824
0.909090909091
0.869565217391
0
1.0
0
0
0.47619047619
1.11111111111
1.33333333333
0
0
0.526315789474
0.5
0.526315789474
0.714285714286
0.714285714286
0.47619047619
0
1.25
1.33333333333
0
2.5
0.666666666667
0
0
1.25
0
0
1.5
0.666666666667
0
1.2
0
0
0
0
0.833333333333
0
0
0
0.555555555556
0.869565217391
0.294117647059
0
0.625
0.740740740741
0.526315789474
0
2.10526315789
1.66666666667
1.17647058824
1.92307692308
1.66666666667
1.875
1.42857142857
0.869565217391
0.5
1.39534883721
0.555555555556
1.05263157895
0
2.10526315789
0.833333333333
0.416666666667
0.526315789474
0.625
0
0
1.36363636364
1.0
0.588235294118
0.526315789474
1.25
1.05263157895
0.5
1.5
0
0
0.952380952381
0
0.526315789474
0.833333333333
2.63157894737
1.36363636364
0
1.11111111111
0.625
0
0.555555555556
1.09090909091
0
0
0
0.588235294118
1.5
0.5
0.555555555556
0
0.967741935484
1.76470588235
0
0
0.952380952381
0
0.833333333333
0
0
0.526315789474
0
0.555555555556
0
0.833333333333
0.555555555556
0.4
0
0.555555555556
0.47619047619
0.588235294118
0
0
0.714285714286
0
0
0
0.357142857143
0.909090909091
0.37037037037
0
0
0.454545454545
0
0.833333333333
0.555555555556
0.344827586207
0
1.0
0
0.714285714286
0
1.33333333333
0
0
0
0.769230769231
0.909090909091
0.434782608696
1.03448275862
1.25
1.11111111111
2.72727272727
3.50877192982
1.76470588235
2.46913580247
1.11111111111
1.2
0.869565217391
0
2.0
0.555555555556
0
1.81818181818
2.0
0
1.42857142857
0.526315789474
2.12765957447
0
1.11111111111
0.555555555556
1.2
0.588235294118
0
0.454545454545
0
0
2.5
0
0.5
0.625
0.869565217391
0.714285714286
0.555555555556
0
1.42857142857
1.0
0
0
1.75438596491
1.57894736842
0
1.76470588235
0.434782608696
0
0
0.625
0
0.47619047619
0.5
0.416666666667
0
0
1.41176470588
0.5
0.625
0.434782608696
0.740740740741
1.05263157895
0
1.57894736842
0.769230769231
0.909090909091
0
1.05263157895
0.434782608696
0.526315789474
0
0
0.47619047619
0
0.625
0.833333333333
1.73913043478
0
0.666666666667
0
0
0.952380952381
0.5
0
0.555555555556
0.555555555556
1.11111111111
1.33333333333
0
0
0
1.76470588235
0
0.625
0.952380952381
0
0
0
0
0.5
0
0.625
0.8
2.0
2.30769230769
1.27659574468
0.952380952381
1.17647058824
1.66666666667
0
0.666666666667
0.833333333333
0
0.555555555556
0.4
0
1.57894736842
0
1.0
2.17391304348
0.666666666667
1.2
1.66666666667
0
0
0.625
0.625
0.555555555556
0.588235294118
0
1.17647058824
0
0
0
0.454545454545
0.5
0.714285714286
0.625
0
0
0
0.526315789474
0.714285714286
1.25
0
0.0
0
1.0
0
0.384615384615
0
0.8
0
0.540540540541
0.588235294118
0
1.11111111111
0.625
0
0
0.588235294118
0
0
0
0
0.416666666667
0
0
0.952380952381
2.22222222222
0
1.0
0
0.833333333333
0
1.11111111111
0
0.526315789474
0.416666666667
1.25
0.588235294118
1.57894736842
1.05263157895
0
0.47619047619
0
0
0.625
0
1.81818181818
0
0
0.416666666667
0
0.5
0.555555555556
0
1.11111111111
0.833333333333
0
0
0
0.666666666667
1.57894736842
1.36363636364
2.18181818182
2.0
1.42857142857
0.769230769231
2.5
1.33333333333
0.526315789474
1.61290322581
0
0.714285714286
0.833333333333
0
0.833333333333
0
0.666666666667
1.11111111111
0
1.42857142857
0.952380952381
0.769230769231
0.909090909091
1.0
0
1.0
0
1.90476190476
0
0
0.714285714286
0.952380952381
0.666666666667
0.666666666667
1.11111111111
0
1.05263157895
0
0.769230769231
0.625
0
0
0
0.625
0.714285714286
0
0.666666666667
0
0
0
0
0
0
0.555555555556
0.714285714286
0
0
0
1.11111111111
0.5
0
0.526315789474
1.66666666667
0.833333333333
1.875
0
1.11111111111
1.05263157895
0
0.37037037037
1.0
0
0
0.454545454545
0
0.555555555556
0
0.740740740741
0
0
0.625
2.12121212121
0
0
1.57894736842
0.740740740741
0
0.344827586207
0.555555555556
1.76470588235
0.588235294118
0.714285714286
0
0
0.769230769231
0
0
0.0
0.714285714286
0
4.4094488189
1.62162162162
2.38095238095
1.42857142857
1.875
1.73913043478
0.769230769231
0.952380952381
1.8018018018
0.526315789474
1.11111111111
0.625
0.666666666667
2.22222222222
1.53846153846
1.66666666667
2.06896551724
1.57894736842
2.5
0.833333333333
2.5
0.952380952381
1.66666666667
0
0.47619047619
0
0.909090909091
1.11111111111
0.416666666667
0.833333333333
0.666666666667
1.25
0.625
1.11111111111
1.17647058824
0
0
0.625
0
1.0
0.357142857143
1.5
2.0
0
0.526315789474
0
0.47619047619
0
0.434782608696
0.526315789474
1.05263157895
0
0
0
0.588235294118
1.05263157895
0
1.33333333333
0
0
0.588235294118
1.42857142857
0.625
0
2.0
0
0.952380952381
0.714285714286
0
0
1.05263157895
0
0.5
1.25
0
0
0
0.714285714286
0.555555555556
0.5
0
0.666666666667
0
0
0
1.5
0.434782608696
0
0
0.47619047619
0
1.5
2.35294117647
1.42857142857
0
0
0
1.05263157895
0
1.36363636364
1.05263157895
3.07692307692
0.666666666667
1.5
1.25
2.30769230769
0
2.63157894737
1.25
1.57894736842
1.05263157895
0.588235294118
0
1.42857142857
1.11111111111
0
0.588235294118
0
1.11111111111
0.5
1.73913043478
0
0
0.555555555556
0.714285714286
1.53846153846
1.05263157895
0.454545454545
2.4
0
0.769230769231
0
0.909090909091
0
1.2
0.909090909091
0
0
0.833333333333
0.689655172414
0.833333333333
0
0
1.11111111111
0
0.952380952381
0.5
0
0.714285714286
0
1.0
0.625
1.17647058824
0.869565217391
1.73913043478
0
0
0
1.03448275862
0.4
0.588235294118
0.4
0.588235294118
0.666666666667
0
0.344827586207
0
1.17647058824
0
0.5
1.27659574468
0.666666666667
0
0.666666666667
0.689655172414
0
0.555555555556
0
0.555555555556
0
0
0.47619047619
0.625
1.66666666667
0.555555555556
0.416666666667
1.42857142857
0
0
0.5
0.625
0
0
0
0.606060606061
0.454545454545
0
0.689655172414
0
1.66666666667
2.5
2.27272727273
1.27659574468
2.35294117647
1.57894736842
1.05263157895
1.33333333333
0.47619047619
1.66666666667
0.588235294118
1.46341463415
0.666666666667
0.714285714286
1.53846153846
0.5
0.714285714286
0
0
0
0.909090909091
0
0
0
0
0
1.0
0
0
0.47619047619
0.625
0
2.30769230769
0
0.454545454545
0.833333333333
0.666666666667
0.4
1.17647058824
0.769230769231
0
0.588235294118
0
0.47619047619
0.454545454545
0.526315789474
1.11111111111
0
0
0.5
1.76470588235
0
0.555555555556
0.625
0
0
0
0.588235294118
2.22222222222
0.833333333333
0
0
0.5
0.454545454545
0.588235294118
0
0
0
0.714285714286
0
0.526315789474
0.454545454545
0.625
0
0
0
0
0.47619047619
0
0
0.47619047619
0.555555555556
0.869565217391
0.869565217391
1.42857142857
0
0.625
0.625
0.952380952381
0
0
0.769230769231
1.11111111111
1.17647058824
0.909090909091
0.769230769231
0.909090909091
0.416666666667
0
0.434782608696
0
