1.3130643286
1.55699788832
1.60128153805
1.06904496765
0.438529009654
1.29099444874
0.266500895445
0.883883476483
0.954427144464
0.636284762976
1.76776695297
0.774596669241
0.0
1.14587312129
1.54303349962
0.613139339485
0.370624658331
0.559016994375
1.03417537999
1.53093108924
0.733673982067
1.08465228909
1.16642368704
0.0
0.0
0.68252363279
1.07676380412
1.39754248594
0.365636212064
0.0
0.0
1.62308613516
0.0
0.0
0.192879187453
1.30744090092
0.418121005004
0.405220449237
1.1656310103
0.491473187183
0.0
0.700140042014
0.365636212064
0.68041381744
1.05021006302
1.30930734142
0.306569669742
0.37267799625
0.629940788349
2.10818510678
1.25738922692
0.324101861776
0.334076552391
0.645497224368
0.907841299003
0.0
0.0
1.3103560459
0.418121005004
0.346687622641
0.29617443888
0.555555555556
0.278207442037
0.0
1.09632252413
0.266500895445
1.59744612766
0.731272424127
0.0
0.495073771488
1.43019388387
0.989070710094
0.0
0.571661950475
0.288675134595
1.00222965717
0.0
1.40112134579
0.408248290464
0.0
0.322748612184
1.03509833901
0.435194139889
0.672672793996
0.818317088385
1.02062072616
0.74720322208
0.860309002015
0.605227532669
1.08147614087
1.44337567297
0.0
0.758582606136
0.318142381488
0.0
0.0
0.357142857143
0.295656197995
0.0
0.0
2.09060502502
0.629940788349
1.11803398875
0.35805743702
2.04124145232
2.05737799949
1.11803398875
1.72516389836
1.2757759077
1.83711730709
0.972305585328
0.435194139889
1.69030850946
1.21267812518
1.80421959122
1.87619693597
0.909508593886
0.87481776528
0.625
0.653720450461
0.0
0.355334527259
1.00222965717
0.252860868712
1.23612846515
0.278207442037
1.2598815767
0.0
0.546267780547
1.61787557232
0.37267799625
0.87481776528
0.0
0.7453559925
1.70560573084
0.437688109532
0.688247201612
0.896421457001
0.295656197995
0.0
0.944911182523
1.44578732992
1.54919333848
0.285830975238
0.37267799625
0.0
0.259237923683
0.666666666667
0.556414884075
0.0
1.68168198499
0.495073771488
0.0
0.385758374905
0.490290337845
0.395284707521
0.0
0.615457454897
0.0
0.811107105654
0.34020690872
0.0
0.989070710094
0.707106781187
0.266500895445
0.307728727448
0.573539334676
0.283069258536
0.322748612184
0.0
0.825722823845
0.0
0.314970394174
0.278639106288
0.854704323447
0.0
0.219264504827
0.0
0.295656197995
0.238095238095
0.0
1.25
0.350070021007
0.476731294623
0.0
0.322748612184
0.707106781187
1.2171612389
0.524142418361
0.0
0.0
0.355334527259
0.77151674981
0.0
0.866025403784
0.0
1.27256952595
1.33630620956
0.278639106288
0.0917469804272
0.334076552391
1.00222965717
0.710669054519
1.29099444874
0.72547625011
2.12132034356
0.275240941282
1.54303349962
1.51584765648
1.67038276195
0.613139339485
0.766964988847
0.0
0.672672793996
1.61374306092
0.456435464588
0.7453559925
1.14332390095
0.0
0.54554472559
0.0
1.31558702896
0.456435464588
0.438529009654
0.805822964025
0.0
1.18262479198
0.514344499874
0.408248290464
0.962250448649
0.245145168923
0.521286035143
1.08465228909
0.489115988045
0.32686022523
0.324101861776
0.563436169819
0.0
0.939336436628
0.285830975238
0.0
0.968245836552
0.385758374905
0.0
0.365636212064
0.28171808491
0.818317088385
0.284901441149
0.693375245282
0.0
0.540738070436
1.04006286792
0.0
0.400320384513
0.350070021007
0.742610657233
1.11803398875
0.613139339485
0.345032779671
0.836242010007
0.0
0.629940788349
0.277777777778
0.57735026919
0.778498944162
0.0
0.422577127364
0.835917318863
0.51031036308
0.0
0.0
0.0
0.0
0.0
0.653720450461
1.13066754217
1.10096376513
0.521286035143
0.32897584748
0.222717701594
0.0
0.0
0.250313087161
0.0
0.818317088385
0.0
0.0
1.00080096128
0.0
0.294627825494
0.0
0.877058019307
0.6
0.0
0.642824346533
0.22360679775
0.416666666667
1.09108945118
0.385758374905
0.638442398069
2.33853586673
1.64845118349
0.357142857143
0.716114874039
1.91345949294
1.44337567297
0.930260509419
0.0
0.737209780774
1.38013111868
1.33250447722
1.25
0.825722823845
1.63430112615
0.975900072949
1.24034734589
0.331133089266
0.571661950475
1.57472444733
1.84210526316
1.18469775552
1.91345949294
0.645497224368
1.07417231106
2.08012573584
0.578314931966
1.79968508266
0.285830975238
1.4808721944
1.52145154863
1.65144564769
0.489115988045
2.33853586673
0.416666666667
0.47619047619
0.944911182523
0.717547309852
1.11282976815
0.833333333333
1.0375716958
0.284901441149
0.0
0.714285714286
0.716114874039
1.08147614087
0.556414884075
0.697863157799
0.953462589246
0.306569669742
0.313112145543
0.527046276695
0.588235294118
0.491473187183
0.0
0.270369035218
0.51031036308
0.244557994022
0.0
0.0
0.721687836487
0.25515518154
0.272772362795
0.402911482013
0.625543242171
0.0
0.731272424127
0.790569415042
0.472455591262
0.693375245282
0.277777777778
0.0
1.56556072771
0.741249316661
0.0
0.303169531295
0.0
0.37267799625
0.0
1.27688479614
0.0
0.691714463866
0.0
0.263523138347
0.37267799625
0.0
0.0
0.0
0.704469953676
0.0
0.0
0.200160192256
0.0
0.0
0.294627825494
0.0
0.0
0.0
0.0
0.0
0.0
2.62445329584
0.805822964025
2.12132034356
1.20096115354
2.35702260396
1.79968508266
0.87481776528
0.896421457001
2.20479275922
0.659380473396
1.05851224805
2.22699667042
0.554700196225
0.930260509419
0.468292905791
0.774596669241
1.48249863332
0.314970394174
1.2598815767
0.456435464588
2.30845129219
1.57894736842
1.22868296796
2.05882352941
0.833333333333
2.84018778722
1.41421356237
0.536056267419
1.15470053838
0.953462589246
1.42133810904
1.1877113737
0.277777777778
0.0
1.9583736295
0.72547625011
0.557278212575
0.360843918244
0.456435464588
0.0
1.26773138209
0.690065559342
1.53846153846
0.838525491562
0.313112145543
0.524142418361
1.19182823656
0.4472135955
0.790569415042
0.613139339485
0.557278212575
0.559016994375
1.1487593716
0.662266178533
1.74963553056
0.672672793996
0.750939261483
0.0
0.35805743702
0.0
0.555555555556
0.0
0.313112145543
0.866025403784
1.15470053838
0.307728727448
0.58321184352
0.629940788349
1.54303349962
0.0
0.716114874039
0.0
0.710669054519
1.05409255339
0.34020690872
0.240562612162
0.860662965824
1.99431008804
0.191179778225
1.14707866935
0.0
1.08785658644
0.693375245282
0.815892439831
0.648203723552
0.277777777778
0.0
0.0
0.263523138347
0.322748612184
0.707106781187
1.163105263
0.845154254729
0.0
1.90260597662
0.28375217692
0.244557994022
0.0
0.0
0.0
2.06239477846
2.09980262783
1.05021006302
0.854704323447
0.591312395989
0.753778361444
1.9583736295
0.909508593886
0.32686022523
1.90260597662
0.389249472081
1.0
0.890870806375
0.353553390593
1.24072916746
0.606339062591
0.753778361444
0.302613766334
1.29099444874
0.321412173267
0.526315789474
0.514344499874
2.35810554571
1.63299316186
0.710669054519
0.731272424127
0.645497224368
0.615457454897
0.886968593984
0.721687836487
0.0
0.811107105654
0.456435464588
0.75
0.0
0.478364873235
0.753778361444
0.962250448649
0.389249472081
1.05409255339
0.275240941282
0.307728727448
0.674199862463
0.0
1.67248402001
0.674199862463
0.0
0.426401432711
0.402911482013
0.0
1.16774841624
0.0
0.690065559342
0.0
0.32686022523
0.524142418361
0.298807152334
0.243975018237
1.55043418237
0.0
0.578314931966
0.721687836487
0.313112145543
0.322748612184
0.54392829322
0.321412173267
0.0
0.400320384513
0.556414884075
0.557278212575
0.0
0.267261241912
0.0
0.294627825494
0.269190951029
0.0
0.0
0.693375245282
0.0
0.0
0.0
1.39319553144
0.0
0.37267799625
0.217597069945
0.337099931232
0.159394178266
0.345857231933
0.0
0.324101861776
0.731272424127
0.244557994022
0.0
0.0
0.0
0.235702260396
0.0
0.408248290464
0.77151674981
0.0
1.60128153805
1.46254484825
0.68041381744
0.589255650989
0.714285714286
0.365636212064
0.886968593984
0.37267799625
0.672672793996
0.500626174322
0.713477241232
0.0
1.47313912747
0.805822964025
1.33630620956
0.489115988045
0.875376219065
1.05021006302
1.75035010504
0.444554224474
1.61374306092
0.0
0.801783725737
0.68041381744
2.09165006634
0.318142381488
0.0
0.674199862463
0.314970394174
0.975900072949
0.731272424127
0.51031036308
0.318142381488
0.0
0.50251890763
0.877058019307
0.0
0.684653196881
1.09690863619
0.306569669742
0.300964632714
1.11282976815
0.896421457001
0.0
0.944911182523
0.0
0.988211768803
0.0
0.629940788349
0.350070021007
0.5
0.533001790889
0.781929052714
0.674199862463
0.0
1.40028008403
1.2757759077
0.334076552391
0.0
0.95672974647
0.285830975238
0.227507877597
0.700140042014
0.303169531295
1.18469775552
0.251259453815
0.307728727448
0.376889180722
0.0
1.11187397499
0.314347306731
0.731272424127
0.331133089266
0.250313087161
0.294627825494
0.272772362795
0.910031510387
0.790569415042
0.741249316661
0.365636212064
1.0
0.554700196225
0.627181507505
0.923186182345
0.5
0.542326144547
0.0
0.0
0.32686022523
0.314347306731
0.714285714286
0.0
0.76546554462
0.540738070436
0.0
0.0
0.270369035218
0.0
0.0
0.0
1.0
1.2964074471
0.591312395989
1.23091490979
2.01801838199
1.0
1.56556072771
1.81443684651
0.68041381744
1.0375716958
0.60858061945
0.721687836487
0.400320384513
2.03843562082
2.18844054766
0.389249472081
2.10558721903
1.3416407865
1.41534629268
0.82408564343
1.22474487139
0.982946374366
0.81348921682
0.0
2.00160192256
1.26773138209
0.313112145543
0.854704323447
0.0
1.02232602514
1.2598815767
0.389249472081
0.954427144464
0.476731294623
0.345032779671
1.22278997011
1.01129979369
0.710669054519
0.0
0.870388279778
0.0
0.668153104781
0.672672793996
0.707106781187
1.7782168979
0.805822964025
1.68549965616
1.19522860933
0.322748612184
0.0
0.811107105654
0.68252363279
0.690065559342
0.563436169819
0.362738125055
0.444554224474
0.95672974647
0.346687622641
0.224960635333
0.275240941282
0.0
1.11138556119
0.838525491562
0.370624658331
0.0
1.19182823656
1.1396057646
1.00503781526
0.245736593591
0.589255650989
0.0
0.833333333333
0.0
1.20385853086
1.01129979369
1.80578779629
0.3125
0.209980262783
1.2515654358
1.04713477073
0.0
0.0
0.707106781187
0.178799634963
1.60706086633
0.0
0.324101861776
0.306569669742
0.622841098903
1.28564869307
0.0
0.645497224368
0.0
0.835917318863
0.512989176043
0.0
0.0
0.211288563682
0.495073771488
0.98692754244
2.16295228174
1.88982236505
0.993399267799
1.29099444874
1.23612846515
1.25
1.21267812518
1.72928615967
0.77151674981
0.0
1.10096376513
0.9375
1.31761569174
0.395284707521
0.800640769025
1.19522860933
0.836242010007
0.306569669742
0.46625240412
1.11455642515
0.0
0.674199862463
1.02868899975
0.636284762976
0.29160592176
1.6042223698
0.476731294623
0.601929265429
1.06904496765
1.20096115354
1.20096115354
0.400320384513
0.512989176043
0.556414884075
0.645497224368
0.717547309852
0.322748612184
1.17647058824
1.16642368704
0.0
0.0
1.42450720575
0.0
0.0
0.444554224474
0.239182436617
0.337099931232
0.589255650989
0.860309002015
0.412042821715
0.0
0.0
0.451753951453
1.38342892773
0.0
1.31761569174
0.19462473604
0.781929052714
0.0
0.833333333333
0.636284762976
0.517087689995
0.592348877759
0.0
0.491473187183
0.0
0.506369683542
0.566138517072
0.0
0.0
0.32897584748
0.968245836552
0.742610657233
0.0
1.53864363724
0.337099931232
0.438529009654
0.0
0.25515518154
0.923186182345
0.360843918244
0.0
0.395284707521
1.00402416113
0.0
0.0
0.559016994375
0.672672793996
0.345032779671
0.838525491562
0.302613766334
0.0
0.412042821715
0.0
0.807572853087
0.0
0.0
0.380693493813
0.542326144547
0.0
2.57172249937
1.51584765648
0.605227532669
0.972305585328
0.648203723552
0.271163072273
0.357142857143
1.1396057646
1.80980691498
0.638442398069
1.17851130198
1.14707866935
0.769230769231
0.557278212575
0.707106781187
1.11187397499
0.314970394174
0.713477241232
1.42915487619
0.389249472081
0.919709009227
0.389249472081
0.385758374905
0.0
1.11187397499
0.0
0.416666666667
1.00125234864
0.778498944162
1.03509833901
0.818317088385
1.46385010942
0.357142857143
1.18469775552
0.0
0.662266178533
0.0
0.659380473396
0.289157465983
0.0
0.0
0.834622326112
0.298807152334
0.944911182523
0.668153104781
0.29160592176
0.383482494424
0.589255650989
0.0
0.0
0.285830975238
0.54554472559
0.578637562358
0.0
0.716114874039
0.365636212064
0.389249472081
0.0
0.896421457001
0.0
0.524142418361
0.337099931232
0.0
0.962250448649
0.476731294623
0.298807152334
0.707106781187
0.376889180722
0.0
0.471404520791
0.0
0.302613766334
0.0
0.32686022523
0.321412173267
0.0
0.0
0.0
0.0
0.0
0.65795169496
1.02868899975
0.753778361444
0.0
0.0
0.0
0.284901441149
0.385758374905
0.465242105199
0.32686022523
0.263157894737
0.0
0.0
0.249067740693
0.418121005004
0.377425678048
0.288675134595
0.650332477143
1.00125234864
0.0
3.34076552391
2.38165255811
0.721687836487
1.08253175473
1.9245008973
0.953462589246
0.690065559342
0.573539334676
0.648203723552
1.51306883167
1.09108945118
0.402911482013
0.707106781187
0.708683386892
0.0
1.11803398875
0.266500895445
0.476731294623
0.0
0.818317088385
0.849207775608
0.455015755193
0.365636212064
0.982946374366
1.05409255339
0.648203723552
0.0
0.395284707521
0.629940788349
0.951302988309
0.733673982067
0.322748612184
0.896421457001
0.270369035218
0.408248290464
0.314970394174
0.98692754244
0.563436169819
0.0
0.314347306731
0.800640769025
0.0
0.243975018237
0.34020690872
1.15470053838
0.573539334676
0.0
0.350070021007
0.597614304667
1.51584765648
0.0
0.0
0.886968593984
0.629940788349
0.645497224368
0.909090909091
0.32686022523
1.46385010942
0.514344499874
0.334076552391
1.66781096249
0.350070021007
1.02062072616
0.65795169496
0.605227532669
0.283069258536
0.0
0.0
0.81025465444
0.0
0.0
0.0
0.0
0.0
0.559016994375
0.636284762976
0.77151674981
0.578314931966
0.32897584748
0.300964632714
0.422577127364
0.318142381488
0.606339062591
0.0
0.314970394174
0.0
0.0
0.0
0.370624658331
1.36930639376
0.0
0.346687622641
0.542326144547
0.284901441149
0.485071250073
0.0
0.257172249937
0.205152484966
0.303169531295
0.0
1.90885428893
1.38013111868
0.318142381488
0.930484210398
0.0
1.11803398875
0.370624658331
1.15470053838
0.37267799625
0.314970394174
0.334076552391
0.0
0.263523138347
1.2598815767
0.888523316639
2.42100062353
0.721687836487
0.620173672946
1.44578732992
0.721687836487
0.737209780774
0.0
0.7453559925
1.11803398875
0.620173672946
1.44337567297
1.5625
0.890870806375
0.645497224368
0.279508497187
1.07142857143
0.438529009654
0.34020690872
0.0
1.31761569174
0.456435464588
0.487950036474
0.816496580928
0.606339062591
1.01129979369
1.03417537999
0.605227532669
0.37267799625
0.789473684211
0.943041920193
0.566138517072
1.29099444874
0.716114874039
0.5
0.50251890763
0.288675134595
0.666666666667
1.30321508786
0.0
0.9375
0.32897584748
1.22627867897
1.06600358178
0.476731294623
1.09108945118
0.954427144464
0.606339062591
0.350070021007
0.681818181818
0.288675134595
0.408248290464
0.300964632714
0.360843918244
0.505076272276
0.0
0.468292905791
0.77151674981
0.674199862463
0.733673982067
0.592348877759
0.0
0.253184841771
0.0
0.313112145543
1.86704011204
0.0
0.476731294623
0.588235294118
0.278207442037
0.57735026919
0.0
0.277777777778
0.845154254729
0.0
1.39103721019
1.02062072616
0.592348877759
0.295656197995
1.08821437517
0.346687622641
0.0
0.266500895445
0.0
0.834622326112
0.0
2.88675134595
2.30769230769
2.13003216808
0.0
1.30558241967
1.33333333333
0.77151674981
0.909090909091
1.74963553056
1.21045506534
1.53864363724
1.03279555899
0.307728727448
0.625
1.02062072616
1.26430434356
1.30744090092
1.38013111868
0.294627825494
1.42915487619
0.491473187183
1.40028008403
2.2232432295
1.30321508786
0.970142500145
0.618589574132
0.883883476483
0.0
0.781929052714
0.753778361444
1.09690863619
0.304290309725
0.245736593591
0.345857231933
0.435194139889
0.899842541332
0.571661950475
0.605227532669
0.605227532669
0.0
1.34595475515
0.400320384513
0.301511344578
0.628694613462
0.0
1.11282976815
1.20281306081
1.43019388387
1.44337567297
0.489115988045
0.295656197995
0.735435506768
0.860309002015
0.857492925713
0.0
0.395284707521
0.872871560944
0.0
0.898026510134
0.36514837167
0.741249316661
0.250313087161
0.222717701594
0.0
0.0
0.3125
0.559016994375
0.0
0.825722823845
0.0
0.778498944162
0.0
0.0
1.09690863619
0.597614304667
0.286769667338
0.690065559342
0.294627825494
0.633865691046
0.591312395989
0.790569415042
0.322748612184
0.427960492511
0.849207775608
0.337099931232
0.489115988045
0.0
0.0
1.46342351751
0.0
0.693375245282
0.304290309725
0.0
0.47619047619
0.0
0.294627825494
1.81568259801
0.793884186037
0.0
0.0
0.376889180722
1.86550626811
1.15044748327
1.70782512766
1.00900919099
1.07417231106
0.9642365198
1.42886901662
0.0
1.13227703414
0.527046276695
1.50187852297
0.22360679775
0.834622326112
0.666831336712
1.09422027383
0.5
1.00125234864
0.226804605813
1.35581536137
1.63902517027
0.0
0.834622326112
1.50482316357
0.0
1.51601828638
0.345032779671
1.03279555899
0.0
0.681818181818
0.251259453815
0.264628062012
0.275240941282
1.00503781526
0.284901441149
1.31761569174
0.264628062012
0.491473187183
0.345032779671
0.324101861776
0.251259453815
1.63299316186
1.08253175473
0.998890737318
0.0
0.34020690872
0.559016994375
0.954427144464
0.0
0.645497224368
1.86467463496
0.550481882563
0.68041381744
0.395284707521
0.23186944788
0.0
0.633865691046
0.29160592176
0.0
1.72015615514
0.376889180722
0.668153104781
0.659380473396
1.02576242483
1.15470053838
0.0
0.400320384513
0.37267799625
0.633865691046
0.206196524711
0.162736138726
0.613139339485
1.07417231106
0.0
0.54554472559
0.402911482013
0.526315789474
0.894427191
0.149270358507
1.3416407865
0.491473187183
0.478364873235
0.636284762976
0.860309002015
0.456435464588
0.0
0.0
0.0
0.0
0.418121005004
0.288675134595
0.72547625011
0.0
0.521286035143
0.0
0.0
0.290129426593
0.264628062012
0.933520056019
0.815892439831
2.0228869497
2.51312344975
1.36930639376
0.980580675691
0.838525491562
1.57134840264
0.860309002015
1.65144564769
1.02062072616
1.43019388387
0.790569415042
1.20385853086
2.59850575194
1.36386181397
0.690065559342
1.11803398875
1.66666666667
1.14332390095
0.626224291085
0.334076552391
1.60128153805
0.668153104781
1.76776695297
0.0
0.0
0.888523316639
0.0
0.952380952381
0.0
0.606339062591
2.15352760823
1.62050930888
0.700140042014
0.807572853087
0.0
1.14108866147
1.2964074471
1.65144564769
0.277350098113
0.87481776528
1.19591218309
0.0
1.39103721019
0.758582606136
0.516397779494
0.0
0.298807152334
0.76546554462
0.968245836552
0.0
0.466760028009
1.4808721944
0.322748612184
1.40112134579
0.32897584748
1.21267812518
0.491473187183
0.653410262804
0.345857231933
0.0
0.266500895445
0.322748612184
0.697863157799
0.559016994375
0.563436169819
0.491473187183
0.270369035218
0.251259453815
0.0
0.34020690872
0.300964632714
0.0
0.788110406239
1.51910905063
0.0
0.0
0.0
0.286769667338
0.301511344578
1.36386181397
0.668153104781
0.750939261483
0.0
0.835917318863
0.866025403784
0.517087689995
0.270369035218
1.26269068069
0.345032779671
0.0
0.54554472559
0.0
0.0
0.0
0.0
0.0
0.588235294118
0.256494588021
0.0
0.188712839024
3.34366927545
2.12132034356
0.629940788349
1.00125234864
0.77151674981
1.0375716958
0.454545454545
0.613139339485
1.0
0.606339062591
1.7349447959
1.02868899975
0.591312395989
0.968003865828
0.314970394174
1.15384615385
1.35113204733
1.792842914
0.526315789474
0.793884186037
0.298807152334
0.322748612184
0.778498944162
0.370624658331
1.20385853086
1.57485197087
0.0
0.58321184352
0.306569669742
1.43838990446
0.559016994375
0.0
0.534522483825
0.972305585328
0.350070021007
0.555555555556
1.0
0.242535625036
0.302613766334
0.35805743702
0.769230769231
0.295656197995
0.0
0.527046276695
0.550481882563
0.721687836487
0.615457454897
0.37267799625
0.860309002015
0.524142418361
0.476731294623
0.0
0.0
0.542326144547
1.33630620956
0.936585811582
0.0
0.58321184352
1.00503781526
0.662266178533
0.0
0.456435464588
0.672672793996
0.0
0.569802882298
1.8609684208
1.57485197087
1.67183463773
0.591312395989
0.422577127364
0.302613766334
0.0
0.615457454897
0.333333333333
0.68041381744
0.870388279778
0.835917318863
0.0
0.57735026919
0.314970394174
0.313112145543
0.529256124025
0.642824346533
0.0
0.302613766334
0.314347306731
0.790569415042
0.0
0.0
0.715096941934
0.307728727448
0.542326144547
0.336336396998
0.0
0.0
1.15727512472
0.260643017571
0.0
0.0
0.0
1.88982236505
2.18217890236
1.76776695297
1.80980691498
0.800640769025
2.31793162486
1.36363636364
1.0
2.41225320339
2.70364357513
1.74963553056
0.629940788349
0.5
1.17851130198
0.877058019307
0.318142381488
1.04257207029
0.557278212575
0.395284707521
1.76776695297
1.47313912747
2.15165741456
0.75
0.978231976089
1.14707866935
0.716114874039
0.0
1.90940653956
0.625
0.527046276695
0.715096941934
0.930260509419
1.06600358178
0.313112145543
0.589255650989
0.34020690872
0.346687622641
0.975900072949
0.199204768222
0.257172249937
0.514344499874
0.904534033733
0.888523316639
0.0
1.15727512472
0.395284707521
0.370624658331
0.360843918244
0.615457454897
1.06600358178
0.68041381744
0.0
0.322748612184
1.33630620956
0.0
0.35805743702
0.75
0.244557994022
0.993399267799
0.0
0.37267799625
0.571661950475
0.972305585328
1.32453235707
0.28171808491
1.30930734142
0.0
0.968245836552
0.731925054711
0.324101861776
0.0
0.416666666667
0.7453559925
0.744437500478
0.310086836473
0.54554472559
0.886968593984
0.29617443888
0.218844054766
0.855920985022
0.318142381488
1.75219161013
0.0
0.753778361444
0.253184841771
0.750939261483
0.495073771488
0.204124145232
0.690065559342
2.06021410858
1.86550626811
0.807572853087
0.714285714286
0.597614304667
0.0
0.0
0.0
1.44337567297
0.707106781187
0.693375245282
4.19573195839
1.62221421131
2.57172249937
1.82574185835
1.48249863332
1.96396101212
1.72132593165
1.37649440322
1.91345949294
0.731272424127
1.08147614087
1.01015254455
1.16051770637
0.550481882563
0.60858061945
1.66855953118
1.69841555122
0.0
1.07417231106
0.334076552391
1.57894736842
0.888523316639
1.23091490979
1.83449846426
0.324101861776
0.336336396998
1.33366267342
1.18469775552
0.81348921682
0.758582606136
0.0
1.44337567297
0.400320384513
1.7334381132
0.346687622641
2.30940107676
0.35805743702
0.32686022523
1.2757759077
0.0
0.785674201318
1.2171612389
2.05737799949
0.247536885744
0.0
0.251259453815
0.566138517072
0.37267799625
0.0
0.295656197995
0.588235294118
2.05152484966
0.263157894737
1.28586124968
1.8843366572
2.25667733462
0.17902871851
0.72547625011
0.870388279778
1.08253175473
0.346687622641
0.930260509419
0.385758374905
0.244557994022
0.645497224368
0.0
1.9462473604
0.836242010007
0.716114874039
0.506369683542
0.833333333333
0.0
0.557278212575
0.835917318863
0.606339062591
0.566138517072
0.0
0.288675134595
2.15758485668
0.573539334676
0.0
2.00445931434
0.837707816583
0.790569415042
0.324101861776
1.39103721019
0.731925054711
0.389249472081
0.0
0.0
0.0
1.14707866935
1.18585412256
0.636284762976
0.540738070436
1.31558702896
0.573539334676
0.636284762976
0.257172249937
0.600480576769
2.25924028529
2.55945348444
0.836242010007
0.642824346533
1.40859042455
1.25
1.6283473682
2.11695098703
0.418121005004
0.681818181818
0.0
0.790569415042
1.11282976815
2.26778683806
0.972305585328
0.867472397949
1.86052101884
0.713477241232
0.923186182345
1.2171612389
1.62221421131
0.731272424127
0.35805743702
0.930260509419
0.306569669742
0.668153104781
0.345032779671
1.02868899975
1.20096115354
0.605227532669
1.26592420885
0.277350098113
0.445435403187
0.691714463866
0.266500895445
0.0
0.550481882563
0.77151674981
1.04257207029
0.500626174322
0.384615384615
0.0
0.318142381488
0.650332477143
0.253184841771
0.615457454897
0.939336436628
0.980580675691
1.25
1.25244858217
0.556414884075
0.836242010007
0.968245836552
0.666831336712
1.09108945118
0.800640769025
0.350070021007
0.324101861776
0.458349248514
0.240007680369
0.0
0.871213683738
0.35805743702
0.416666666667
1.42915487619
0.478364873235
0.0
0.629940788349
0.239182436617
0.0
0.625
0.370624658331
0.37267799625
0.360843918244
1.22572584461
0.304290309725
0.597614304667
0.0
0.350070021007
0.605227532669
0.0
0.314970394174
1.07142857143
0.972305585328
0.735435506768
0.0
0.277777777778
0.370624658331
0.559016994375
0.592348877759
1.15727512472
0.263523138347
0.0
0.0
0.240562612162
0.512989176043
0.0
1.42450720575
0.322748612184
1.7782168979
1.84637236469
1.08821437517
0.9375
0.538381902058
0.886968593984
0.962250448649
0.0
1.43222974808
0.970142500145
1.25
1.41421356237
1.41534629268
0.790569415042
0.800640769025
0.458349248514
1.07676380412
0.2326210526
0.353553390593
0.652173913043
1.03509833901
0.416666666667
0.769230769231
0.653720450461
0.360843918244
0.0
0.471404520791
0.438529009654
0.693375245282
0.333333333333
0.896421457001
0.0
0.912870929175
0.990147542977
0.0
0.476731294623
0.0
0.0
1.07142857143
0.571661950475
1.27256952595
0.334076552391
1.30558241967
1.39103721019
0.272772362795
0.0
0.57735026919
0.668153104781
1.09690863619
0.834622326112
1.00125234864
0.626224291085
0.238365647311
0.370624658331
0.0
0.0
0.495073771488
0.294117647059
1.875
0.737209780774
0.0
0.346687622641
0.322748612184
0.888523316639
0.65795169496
0.72547625011
0.0
0.275240941282
0.741249316661
0.435194139889
0.306569669742
0.304290309725
0.716114874039
0.547722557505
0.962250448649
0.58321184352
0.203784786485
0.272772362795
0.37267799625
0.51031036308
0.239182436617
1.21987509119
1.12687233964
0.639602149067
0.34020690872
0.476731294623
0.314970394174
0.314970394174
0.919709009227
0.0
0.402911482013
1.06066017178
0.811107105654
0.0
0.422577127364
0.345857231933
0.578314931966
1.02597835209
0.0
0.29160592176
0.500626174322
