1.7766726363
3.23575114465
0.589255650989
1.09108945118
0.953462589246
2.33549683248
3.0
0.912870929175
1.19522860933
2.29174624257
2.5
1.74963553056
2.98807152334
1.9518001459
1.61374306092
2.43975018237
2.61116483934
4.61538461538
2.88675134595
2.52538136138
0.57735026919
3.33333333333
1.76776695297
1.63663417677
3.42997170285
3.2232918561
2.44948974278
2.27272727273
3.28299576979
1.86052101884
0.0
0.0
3.18142381488
1.67248402001
1.24034734589
1.70940864689
1.30066495429
2.43975018237
2.48069469178
2.83473354757
4.44749589997
1.490711985
2.63117405792
2.31125081761
2.5451390519
1.78174161275
3.11399577665
2.10818510678
4.12478955692
2.35702260396
0.0
2.2360679775
1.48249863332
1.57242725508
0.5
1.55699788832
1.69030850946
0.824786098842
1.33630620956
3.916747259
2.37170824513
2.61116483934
3.11804782231
0.975900072949
3.4020690872
2.11288563682
1.47087101354
1.19522860933
2.51976315339
3.07692307692
1.05409255339
2.63523138347
0.890870806375
1.1396057646
2.27921152919
0.0
3.2025630761
3.08606699924
3.47182537415
3.02702757298
2.2360679775
2.83473354757
1.41421356237
2.53546276419
0.625
2.38365647311
1.63663417677
3.81770857785
1.96116135138
3.4020690872
1.19522860933
2.73861278753
0.975900072949
1.82574185835
2.63117405792
0.605227532669
4.04061017821
3.6514837167
2.35702260396
3.47182537415
2.50872603002
1.06600358178
2.0203050891
0.0
2.53546276419
1.9245008973
2.50872603002
2.61608321785
2.94627825494
1.41736677378
3.23575114465
2.04124145232
1.47828098997
3.55334527259
4.02015126104
0.645497224368
2.98279379501
2.01801838199
1.80421959122
2.70030862434
1.62697843364
2.14834462212
1.63663417677
2.91666666667
3.22748612184
2.65165042945
4.18330013267
2.77350098113
2.53546276419
4.00320384513
1.0
3.19801074533
1.19522860933
1.490711985
1.63663417677
2.94627825494
4.00891862869
3.81385035698
3.24101861776
3.02702757298
1.29099444874
2.72165526976
1.78608627078
0.566138517072
2.5
2.72772362795
0.0
3.4109552012
0.0
4.67707173347
2.26455406829
2.39045721867
1.46385010942
2.36227795631
1.67705098312
4.29668924424
2.43975018237
1.66666666667
2.90473750966
2.31455024943
2.09656967344
2.18217890236
3.09294787066
0.589255650989
1.60128153805
2.04124145232
1.9245008973
3.33486484425
0.845154254729
1.553424415
3.57217254156
2.35702260396
4.3740888264
0.481125224325
2.50872603002
1.36082763488
1.63663417677
1.82818106032
3.4109552012
3.03169531295
2.41746889208
2.59437260831
0.824786098842
0.481125224325
1.46385010942
1.78174161275
0.0
2.56494588021
4.35194139889
2.41746889208
2.91666666667
1.44337567297
2.61116483934
3.24101861776
2.27921152919
3.46687622641
2.89318781179
1.9245008973
1.44337567297
2.92770021885
2.63523138347
1.42857142857
1.67705098312
1.7010345436
3.57142857143
2.31455024943
2.96499726664
2.63117405792
3.36336396998
2.27284322524
0.487950036474
2.13200716356
0.0
3.27326835354
1.490711985
0.0
0.0
2.96499726664
3.06970306757
1.76776695297
2.01455741006
0.555555555556
4.80384461415
2.19264504827
0.402911482013
2.94117647059
0.0
0.0
2.84267621807
3.23529411765
1.74077655956
2.36227795631
4.5732956038
3.53553390593
1.2964074471
3.19801074533
1.26773138209
1.17851130198
2.36227795631
3.2025630761
1.1396057646
3.84615384615
1.02062072616
2.63822426506
2.17060785531
2.45145168923
0.589255650989
1.84900065408
4.18330013267
1.72132593165
3.60288346061
1.01015254455
0.527046276695
3.34946922652
2.46182981959
2.27921152919
2.94627825494
2.0
0.0
0.833333333333
3.90867979985
2.88675134595
2.04124145232
1.57485197087
1.26773138209
2.80056016806
3.08606699924
2.00445931434
0.476731294623
1.7902871851
1.06600358178
0.402911482013
0.597614304667
3.19504825211
2.85714285714
3.36336396998
1.41736677378
2.04124145232
2.88675134595
0.382359556451
3.36787657027
0.620173672946
3.17553674415
3.27326835354
3.5634832255
0.975900072949
3.38061701891
3.26598632371
3.9735970712
4.8181205583
3.93863180722
2.33549683248
4.28571428571
3.5909242323
2.6207120918
3.26598632371
3.7267799625
2.28217732294
2.09656967344
0.0
1.9364916731
3.23575114465
2.29415733871
1.68168198499
0.0
0.870388279778
2.94627825494
1.1396057646
0.0
2.31455024943
1.490711985
3.0
1.11187397499
2.72772362795
0.7453559925
1.75411603861
3.36787657027
2.98279379501
1.9518001459
3.84615384615
2.94627825494
1.41736677378
2.98142397
0.0
1.66666666667
4.54545454545
2.5451390519
1.88982236505
2.94174202707
0.629940788349
3.3920026265
4.04226041727
1.13227703414
0.944911182523
2.94627825494
0.845154254729
2.39045721867
3.08606699924
4.26401432711
1.00503781526
2.72165526976
1.15727512472
2.18217890236
2.31793162486
0.890870806375
2.16777492381
2.72852578166
3.35410196625
0.764719112902
0.0
2.94627825494
0.975900072949
1.44337567297
1.19522860933
3.46467433592
2.22699667042
3.05555555556
0.559016994375
2.12605016068
2.22222222222
2.5515518154
0.597614304667
3.62620333811
3.53553390593
2.60132990857
1.44337567297
4.02015126104
2.37170824513
2.45145168923
3.06970306757
0.620173672946
2.6207120918
3.19504825211
3.916747259
2.5
4.58333333333
2.84267621807
3.77964473009
3.6514837167
3.8490017946
0.714285714286
3.53553390593
1.34534558799
2.3312620206
2.88675134595
1.90940653956
1.70940864689
2.18217890236
2.4152294577
2.02072594216
1.55699788832
2.31455024943
3.08606699924
2.73861278753
2.2360679775
3.75
2.37170824513
2.52538136138
3.10529501704
0.912870929175
0.909090909091
2.28802157661
0.597614304667
2.85714285714
1.78571428571
1.25244858217
2.35864088262
0.645497224368
2.85714285714
1.88982236505
2.10818510678
0.589255650989
3.5805743702
0.0
3.72104203768
1.22474487139
1.44337567297
0.597614304667
0.569802882298
0.0
3.50823207723
1.41736677378
1.792842914
1.09108945118
3.53553390593
2.82038037409
2.80224269159
2.09656967344
1.38013111868
3.19457571669
1.00503781526
1.54303349962
2.58198889747
2.08333333333
4.12478955692
2.2360679775
0.527046276695
1.69030850946
0.51031036308
4.35194139889
3.08606699924
4.34121571062
2.42681335849
1.33630620956
4.02015126104
1.16774841624
1.67705098312
2.37170824513
0.495073771488
2.31125081761
0.77151674981
3.79536057638
3.03045763366
0.645497224368
1.54303349962
2.88675134595
2.0203050891
2.07019667803
2.51039505523
3.60288346061
1.9284730396
3.44423360097
2.14285714286
3.85077023108
1.38013111868
1.53093108924
0.0
3.33562192497
1.86052101884
1.47087101354
2.04124145232
0.790569415042
1.82574185835
2.58198889747
0.50251890763
3.06970306757
2.13200716356
1.06600358178
2.68055482124
2.07019667803
1.20873444604
0.866025403784
2.85714285714
1.76776695297
2.50640205914
2.66500895445
3.07692307692
1.53093108924
3.01511344578
2.04124145232
3.33562192497
1.7902871851
3.53553390593
2.63117405792
0.629940788349
0.721687836487
1.88982236505
1.51522881683
1.94461117066
2.61488180184
1.88982236505
1.54303349962
3.36787657027
2.50489716434
3.30718913883
1.37504774554
0.77151674981
1.9641855033
2.94627825494
0.524142418361
3.53553390593
1.66666666667
0.674199862463
2.91666666667
0.625
3.36787657027
2.48734169082
0.0
0.0
2.11288563682
2.58198889747
2.82038037409
0.0
2.37170824513
0.597614304667
2.66500895445
3.6514837167
2.28802157661
1.54303349962
3.9735970712
0.790569415042
1.9364916731
0.51031036308
2.84901441149
2.25924028529
2.28802157661
3.14970394174
3.35410196625
1.82574185835
1.08821437517
2.2360679775
1.50755672289
5.0
3.6514837167
1.17851130198
3.88449298034
0.629940788349
3.84615384615
1.66666666667
2.9740593874
1.90692517849
0.453609211627
1.66666666667
1.26773138209
3.33486484425
2.82038037409
2.12132034356
2.98807152334
2.17597069945
0.597614304667
0.527046276695
3.37099931232
3.585685828
2.91666666667
4.50693909433
2.00738767137
3.24101861776
1.69030850946
1.38013111868
1.34839972493
1.70940864689
3.48155311911
3.5634832255
0.0
2.00445931434
1.24034734589
1.01015254455
1.86338998125
2.9617443888
1.90692517849
0.0
3.19801074533
1.50616019019
1.09108945118
0.0
1.23091490979
1.69030850946
1.60128153805
1.43019388387
1.04828483672
2.18217890236
2.60874597375
0.0
3.24101861776
2.14834462212
0.690065559342
4.64285714286
2.63523138347
2.04124145232
1.38013111868
1.41736677378
1.36930639376
1.78571428571
2.98807152334
1.9364916731
2.28217732294
3.26598632371
2.13200716356
2.0
1.33630620956
2.15410109214
1.19522860933
2.52538136138
2.11288563682
1.13227703414
0.481125224325
2.35702260396
1.20873444604
2.28217732294
1.61374306092
2.31455024943
0.912870929175
3.34323924918
2.67261241912
1.11803398875
1.61374306092
0.975900072949
3.57142857143
3.19801074533
2.59437260831
3.5805743702
3.93863180722
0.597614304667
2.59437260831
1.88982236505
4.26401432711
3.53553390593
1.74077655956
2.31455024943
1.43019388387
3.26598632371
0.0
2.69230769231
1.80421959122
3.2232918561
3.85758374905
1.33630620956
3.11804782231
3.03169531295
2.43975018237
0.0
2.85714285714
3.75
0.912870929175
0.877058019307
4.33012701892
1.25
3.61111111111
2.4152294577
1.61164592805
3.41565025532
4.00047345683
3.44423360097
2.58198889747
3.23380833382
0.569802882298
3.37099931232
3.03045763366
0.54554472559
2.98142397
1.99431008804
3.30718913883
2.82958229209
0.912870929175
1.18585412256
4.08248290464
3.34076552391
3.36787657027
3.08606699924
4.22577127364
3.6514837167
1.74077655956
3.62620333811
2.58198889747
1.19522860933
0.721687836487
0.445435403187
1.15470053838
3.75
1.13389341903
0.0
3.0
2.14285714286
3.94676108688
2.14834462212
1.82574185835
2.73861278753
1.19522860933
3.57217254156
3.19801074533
0.527046276695
0.629940788349
1.06600358178
0.980580675691
2.79508497187
4.00320384513
2.18217890236
3.51763235341
2.15165741456
1.01015254455
2.2360679775
1.42857142857
3.8490017946
1.43019388387
2.74675132787
0.785674201318
1.53392997769
2.18217890236
2.76026223737
3.33711906236
1.9364916731
3.7267799625
2.96499726664
3.6514837167
1.63663417677
3.08606699924
0.54554472559
2.2360679775
1.25436301501
3.88449298034
1.53093108924
3.16227766017
1.01015254455
3.45032779671
2.00081682666
2.31455024943
2.2360679775
2.14285714286
1.86052101884
2.43975018237
1.13227703414
0.833333333333
2.38365647311
2.56776295507
2.10042012604
2.94174202707
2.51976315339
4.472135955
1.26773138209
2.00445931434
2.10818510678
2.27921152919
3.73101253622
2.92770021885
2.22717701594
1.67038276195
1.45095250022
2.51976315339
2.59437260831
0.472455591262
0.975900072949
1.65566544633
1.41736677378
2.67261241912
3.35410196625
3.08606699924
2.22374794998
0.54554472559
3.06186217848
2.58198889747
2.72772362795
2.98142397
2.00445931434
2.4152294577
2.5515518154
3.8490017946
2.67261241912
2.14834462212
1.54303349962
3.23575114465
1.66666666667
2.18217890236
2.35702260396
2.39045721867
1.76776695297
3.22748612184
1.41736677378
1.17851130198
3.46153846154
0.0
2.67261241912
3.11804782231
1.2598815767
1.0
3.40692571935
2.04124145232
2.19577516413
3.19801074533
2.5
2.26871303243
0.620173672946
0.845154254729
1.792842914
3.98409536445
0.0
0.0
3.06186217848
2.69230769231
3.77964473009
2.85714285714
2.40562612162
2.61116483934
2.73861278753
2.17060785531
1.1396057646
0.668153104781
0.51031036308
2.65165042945
1.15470053838
2.08333333333
2.37825747077
1.55902391116
3.88888888889
1.34839972493
4.33012701892
0.0
0.714285714286
1.36930639376
3.53553390593
2.22717701594
3.03045763366
1.54303349962
1.85312329165
0.0
2.67261241912
2.4152294577
3.40168025708
3.33562192497
2.27921152919
4.74341649025
2.30089496654
2.41746889208
3.81881307913
0.833333333333
1.41421356237
3.35410196625
1.60706086633
3.11804782231
3.72104203768
0.418121005004
0.462250163521
1.69030850946
0.597614304667
2.10818510678
1.2598815767
2.04124145232
2.45495126515
2.59437260831
2.88675134595
3.75
2.07019667803
1.54303349962
2.77350098113
2.97927011534
0.445435403187
2.28217732294
1.69030850946
1.78174161275
1.08465228909
0.975900072949
1.73205080757
3.10529501704
1.04828483672
0.542326144547
3.96296961951
0.597614304667
0.0
2.91666666667
3.34076552391
2.0
2.17597069945
1.07142857143
1.17851130198
1.42857142857
4.03603676398
0.533001790889
1.60128153805
1.59071190744
2.85830975238
0.524142418361
1.30558241967
1.51522881683
1.57485197087
2.85714285714
3.75
2.0203050891
1.69841555122
2.5
0.0
0.707106781187
0.0
2.35702260396
2.92684703502
2.96499726664
4.26401432711
3.02702757298
1.67705098312
0.389249472081
1.06600358178
3.69970036698
2.0
2.13200716356
1.61164592805
2.82038037409
2.88675134595
4.51335466924
4.38529009654
3.11399577665
1.50755672289
1.15470053838
1.7766726363
2.85773803325
2.31455024943
2.45495126515
0.674199862463
0.620173672946
2.35702260396
3.26598632371
0.0
2.27272727273
2.28217732294
2.94627825494
2.63822426506
1.47313912747
4.56435464588
1.90692517849
0.0
2.01007563052
1.50755672289
0.0
3.24759526419
0.845154254729
0.710669054519
3.10086836473
0.668153104781
1.47087101354
2.91666666667
1.76776695297
1.46385010942
1.47087101354
3.57217254156
1.88982236505
0.944911182523
1.56556072771
0.953462589246
2.94117647059
0.0
1.90159707314
3.27326835354
2.26871303243
1.62697843364
0.912870929175
2.94174202707
2.86445949616
3.76308904503
2.40562612162
1.72516389836
1.19522860933
0.707106781187
0.975900072949
3.22748612184
3.19801074533
0.524142418361
2.10818510678
2.51259453815
1.490711985
2.2360679775
1.15384615385
2.70030862434
2.38144836104
1.33630620956
3.8490017946
1.01015254455
4.33012701892
0.541530361074
2.58198889747
1.9462473604
3.04635897922
2.72474630457
1.42857142857
1.53284834871
1.60128153805
0.0
0.77151674981
4.472135955
1.70940864689
1.57242725508
0.454545454545
3.87298334621
0.975900072949
0.714285714286
2.67261241912
2.33549683248
1.9518001459
1.61164592805
2.26455406829
1.11111111111
0.428746462856
0.505076272276
4.44749589997
2.92508969651
3.61157559257
1.9245008973
3.57217254156
0.68041381744
2.4152294577
2.69679944985
3.92857142857
3.09359216769
2.77777777778
1.44337567297
0.741249316661
2.18217890236
2.63523138347
0.845154254729
1.53284834871
1.03509833901
0.402911482013
3.19504825211
2.72772362795
0.527046276695
3.77964473009
1.70940864689
0.0
1.41421356237
2.61116483934
2.2360679775
2.52538136138
1.63663417677
3.56512047954
3.73101253622
2.94627825494
1.42857142857
2.79508497187
0.527046276695
2.09656967344
1.17851130198
3.69800130817
2.86445949616
2.44948974278
2.88675134595
3.06186217848
1.60128153805
4.40958551844
3.88922234131
0.77151674981
2.94627825494
0.462250163521
2.22374794998
2.80224269159
2.67261241912
2.00445931434
0.962250448649
0.845154254729
1.9245008973
2.30940107676
5.0
3.60288346061
0.589255650989
2.1875
3.21428571429
1.41736677378
2.09656967344
2.91666666667
2.67261241912
1.77393718797
2.89533012072
2.29415733871
0.527046276695
1.2598815767
0.376889180722
3.71153744479
0.0
1.69030850946
1.76776695297
3.57217254156
3.33333333333
1.88982236505
2.72474630457
2.33549683248
1.57242725508
2.86038776774
4.07687124164
2.66500895445
2.66500895445
3.19801074533
0.345032779671
0.0
1.04828483672
3.27326835354
2.37170824513
1.11111111111
1.65144564769
1.09108945118
3.2025630761
2.01007563052
2.39045721867
3.77964473009
1.2598815767
3.34076552391
0.690065559342
2.63523138347
3.26598632371
2.01455741006
2.72165526976
1.08785658644
3.15063018906
1.82574185835
2.12132034356
3.59546247753
1.11803398875
3.14485451017
1.50755672289
2.5515518154
2.72474630457
1.05409255339
2.48069469178
1.2598815767
4.22577127364
3.19801074533
3.77964473009
1.490711985
3.42997170285
2.0
3.07728727448
1.90940653956
0.645497224368
2.2360679775
4.28571428571
1.31558702896
2.29415733871
2.13200716356
0.710669054519
1.26773138209
0.0
1.62697843364
0.357142857143
0.0
3.34076552391
1.20096115354
1.54303349962
1.73205080757
0.975900072949
1.59900537267
1.92879187453
1.53093108924
0.524142418361
1.78174161275
1.57242725508
0.0
1.38013111868
1.78571428571
0.753778361444
3.11399577665
1.490711985
3.38061701891
3.08606699924
1.54303349962
1.44337567297
4.1502867832
0.456435464588
2.80224269159
2.88675134595
1.59900537267
3.50823207723
1.02062072616
2.47536885744
1.20873444604
1.02597835209
2.41746889208
2.45145168923
2.94627825494
4.00163365333
1.69030850946
0.54554472559
0.790569415042
0.0
0.890870806375
3.45032779671
2.18217890236
1.53093108924
1.17851130198
2.77350098113
0.833333333333
1.84637236469
1.51522881683
1.44337567297
3.85337317794
3.65636212064
2.00445931434
1.55699788832
1.5
1.18585412256
1.26773138209
0.0
3.33333333333
4.26401432711
0.597614304667
0.674199862463
3.73101253622
3.53553390593
4.08814908766
3.14269680527
1.42857142857
1.9641855033
3.2025630761
1.21987509119
1.57242725508
0.707106781187
1.88982236505
2.14285714286
1.792842914
1.09108945118
1.66666666667
3.19801074533
1.19522860933
3.54341693446
0.445435403187
0.980580675691
1.15470053838
2.15410109214
3.75
1.792842914
1.31558702896
0.912870929175
3.06186217848
2.92684703502
4.07687124164
3.14414072761
0.854704323447
3.34076552391
2.22374794998
1.33630620956
3.48155311911
2.06835075998
1.33630620956
3.10086836473
2.69679944985
3.34719340698
2.14285714286
2.72165526976
1.51522881683
1.23717914826
0.953462589246
2.98142397
3.23529411765
4.10791918129
2.69679944985
1.0
2.37170824513
1.09108945118
1.96116135138
2.10818510678
0.77151674981
0.707106781187
2.95803989155
1.29099444874
2.04124145232
2.46182981959
2.56411297034
2.45049014705
3.6514837167
0.0
2.31455024943
4.59933105504
0.912870929175
0.392837100659
3.14970394174
3.34719340698
0.953462589246
0.0
4.02015126104
0.0
2.5515518154
3.88888888889
1.33630620956
4.00320384513
3.04635897922
2.73861278753
1.69030850946
2.5
3.46153846154
2.35702260396
1.39875721236
3.19801074533
1.34839972493
2.48069469178
3.2025630761
3.11804782231
0.764719112902
2.14285714286
4.26401432711
0.0
3.84615384615
1.26773138209
1.92879187453
0.7453559925
1.44337567297
2.53546276419
4.28174419289
0.0
2.04124145232
2.86445949616
1.11111111111
2.50872603002
2.95803989155
0.648203723552
4.26401432711
1.09108945118
2.83473354757
1.31558702896
1.57242725508
3.03045763366
2.43975018237
2.2360679775
3.19801074533
1.9245008973
1.53093108924
0.524142418361
2.04124145232
3.21428571429
1.09108945118
2.55945348444
1.11803398875
4.59279326772
1.49403576167
1.57242725508
2.33549683248
1.41736677378
1.54303349962
1.54303349962
0.975900072949
2.61116483934
1.20873444604
1.05409255339
1.90940653956
0.912870929175
0.990147542977
3.16227766017
4.5732956038
3.19801074533
2.85773803325
1.85312329165
3.38061701891
1.06600358178
2.31455024943
0.35805743702
1.88982236505
2.51259453815
3.69970036698
2.98142397
3.33333333333
0.445435403187
1.20873444604
2.66556994992
0.472455591262
2.09165006634
2.91691675598
1.33630620956
1.46385010942
2.22717701594
2.70369035218
2.75009549108
2.10042012604
4.35194139889
2.6207120918
1.60128153805
0.310684883001
1.82574185835
1.09108945118
2.84267621807
2.09656967344
1.792842914
2.86445949616
1.490711985
2.37170824513
2.0
0.916698497028
2.46182981959
0.0
3.35410196625
1.82574185835
1.70940864689
0.962250448649
2.04124145232
2.64705882353
3.85871816571
3.90867979985
1.25436301501
3.585685828
3.34076552391
2.26455406829
2.16506350946
1.26773138209
1.9245008973
0.975900072949
1.44337567297
1.00503781526
1.792842914
3.77964473009
1.05409255339
3.11399577665
1.7766726363
3.19801074533
3.35410196625
3.6514837167
2.44948974278
0.597614304667
2.2360679775
3.33333333333
1.66666666667
1.09108945118
1.51522881683
0.456435464588
2.04124145232
1.9518001459
3.77964473009
2.53546276419
3.57142857143
1.72516389836
2.45255735794
2.27921152919
2.92770021885
0.0
1.1396057646
0.0
1.875
3.48155311911
1.2598815767
2.73861278753
1.58113883008
2.52538136138
2.59437260831
1.58113883008
2.01455741006
2.5
1.9245008973
3.84615384615
4.28746462856
3.34076552391
3.8490017946
1.75035010504
1.53846153846
2.4152294577
1.11111111111
2.02113020864
1.70940864689
0.0
1.0
1.0375716958
3.2232918561
3.07692307692
0.422577127364
2.09656967344
1.88982236505
3.4020690872
0.944911182523
1.63663417677
0.0
3.66679398811
1.58113883008
0.298807152334
2.5
1.69030850946
2.40192230708
3.51479745783
1.54303349962
1.22474487139
0.615457454897
1.44337567297
1.01015254455
2.82038037409
2.17597069945
1.42857142857
2.40192230708
1.15470053838
1.63663417677
1.47570334025
2.18217890236
2.5
2.48734169082
4.28571428571
1.41736677378
1.69030850946
2.98142397
2.28217732294
2.48069469178
0.533001790889
1.84900065408
1.0
