1.11111111111
3.52941176471
0.909090909091
2.22222222222
1.81818181818
2.5
4.22535211268
1.66666666667
0
1.53846153846
3.87096774194
2.5
2.85714285714
3.0
3.0303030303
3.0
2.0
5.0
2.5
3.33333333333
0
5.0
2.22222222222
2.85714285714
2.22222222222
3.33333333333
3.24324324324
1.81818181818
3.07692307692
2.5
0
0
3.07692307692
0.833333333333
2.85714285714
0
0.555555555556
2.5
3.33333333333
1.42857142857
4.54545454545
0
4.16666666667
3.75
4.66666666667
2.0
3.44827586207
2.30769230769
3.75
0
0
2.85714285714
0
1.25
0
3.33333333333
1.33333333333
2.0
2.0
3.33333333333
2.85714285714
3.33333333333
3.75
1.0
2.5
2.30769230769
1.11111111111
1.11111111111
4.0
3.84615384615
2.14285714286
3.84615384615
1.0
3.0
4.0
0.769230769231
3.07692307692
3.22580645161
5.0
3.44827586207
1.66666666667
2.85714285714
1.81818181818
2.85714285714
0
3.0
1.25
3.63636363636
2.22222222222
4.44444444444
0.769230769231
3.33333333333
1.66666666667
1.42857142857
2.0
0
3.75
3.0
2.5
3.84615384615
3.63636363636
0.769230769231
0.833333333333
0
2.5
2.30769230769
4.22535211268
2.9702970297
3.63636363636
1.42857142857
4.44444444444
4.0
1.76470588235
3.75
3.75
1.25
3.15789473684
2.0
2.66666666667
4.28571428571
2.5
3.07692307692
1.0
3.07692307692
3.7037037037
1.66666666667
4.11764705882
3.125
2.5
4.61538461538
0
4.54545454545
2.85714285714
3.33333333333
0
2.85714285714
4.44444444444
3.63636363636
3.125
3.44827586207
1.0
1.25
2.94117647059
2.22222222222
2.5
3.33333333333
1.25
4.0
0
4.0
2.0
1.42857142857
1.81818181818
2.5
1.0
4.0
3.0
0.909090909091
3.75
3.84615384615
2.22222222222
3.33333333333
3.33333333333
0
2.0
3.125
3.63636363636
2.94117647059
0
2.85714285714
2.5
3.0
4.11764705882
1.25
3.33333333333
3.33333333333
0
2.60869565217
3.75
3.44827586207
2.72727272727
3.0
1.81818181818
0
2.5
1.33333333333
1.66666666667
3.33333333333
3.84615384615
2.85714285714
3.33333333333
1.33333333333
3.33333333333
2.30769230769
1.66666666667
4.54545454545
3.07692307692
3.33333333333
1.66666666667
2.5
3.15789473684
1.42857142857
1.25
3.0
2.85714285714
4.44444444444
3.84615384615
3.63636363636
3.52941176471
2.30769230769
1.11111111111
3.0
0
3.47826086957
2.85714285714
0
2.0
3.84615384615
3.84615384615
3.33333333333
2.5
0
5.0
4.16666666667
1.33333333333
3.22580645161
2.85714285714
2.22222222222
3.38983050847
3.125
2.92682926829
2.79069767442
3.75
4.0
1.0
4.54545454545
2.22222222222
1.11111111111
1.53846153846
4.28571428571
1.0
5.0
2.22222222222
2.77777777778
1.66666666667
2.30769230769
2.0
3.63636363636
4.44444444444
1.42857142857
5.0
2.22222222222
0
3.57142857143
2.35294117647
2.5
3.63636363636
2.0
0.769230769231
0
2.85714285714
2.72727272727
2.5
1.17647058824
3.0
3.07692307692
3.84615384615
1.25
1.875
3.65853658537
2.5
0.714285714286
2.22222222222
3.57142857143
2.5
2.5
1.17647058824
3.07692307692
4.61538461538
2.14285714286
4.54545454545
1.42857142857
3.33333333333
3.63636363636
2.5
0
2.94117647059
3.63636363636
4.11764705882
4.61538461538
4.0
3.0
4.28571428571
2.5
3.75
2.79069767442
4.0
2.22222222222
2.0
0
2.22222222222
3.63636363636
1.53846153846
2.30769230769
0
3.63636363636
4.16666666667
2.0
0
2.5
2.85714285714
2.5
1.81818181818
2.72727272727
1.66666666667
2.72727272727
4.54545454545
5.0
1.25
4.375
4.54545454545
1.66666666667
4.0
0
3.75
5.0
3.84615384615
1.66666666667
3.87096774194
1.25
4.54545454545
3.07692307692
2.22222222222
0
5.0
0
1.11111111111
3.63636363636
4.44444444444
3.0
2.0
1.53846153846
2.5
2.14285714286
1.42857142857
3.1746031746
2.77777777778
4.66666666667
1.11111111111
0
2.72727272727
0
3.33333333333
4.44444444444
3.0
2.72727272727
2.0
0
1.81818181818
4.08163265306
2.4
1.0
3.84615384615
5.0
2.30769230769
1.66666666667
4.0
2.72727272727
2.72727272727
3.84615384615
1.11111111111
3.0
4.0
4.16666666667
3.0
5.0
2.22222222222
3.63636363636
4.0
3.87096774194
2.0
4.54545454545
1.17647058824
3.33333333333
3.63636363636
2.30769230769
3.33333333333
2.22222222222
3.57142857143
3.22580645161
1.42857142857
3.07692307692
2.85714285714
4.0
3.33333333333
3.63636363636
2.5
2.0
4.61538461538
0
2.0
2.77777777778
0.666666666667
2.14285714286
2.5
0.625
2.14285714286
1.81818181818
4.16666666667
1.53846153846
2.5
3.52941176471
4.0
0
3.33333333333
2.5
0.769230769231
2.22222222222
0
0
2.85714285714
1.17647058824
3.0
0.833333333333
2.5
3.33333333333
4.16666666667
2.22222222222
1.53846153846
2.72727272727
1.42857142857
3.75
2.22222222222
3.0
4.44444444444
2.66666666667
2.0
1.53846153846
0.769230769231
4.0
2.5
4.375
2.30769230769
2.72727272727
4.22535211268
1.42857142857
1.11111111111
1.66666666667
0
1.66666666667
4.28571428571
4.0
1.53846153846
1.11111111111
0
2.5
1.11111111111
2.5
1.66666666667
4.28571428571
3.33333333333
3.52941176471
1.66666666667
4.0
2.85714285714
2.5
0
4.61538461538
3.33333333333
1.0
3.125
1.42857142857
1.66666666667
2.5
2.22222222222
2.85714285714
2.5
2.77777777778
2.30769230769
3.57142857143
2.60869565217
2.35294117647
1.66666666667
1.53846153846
2.5
4.54545454545
4.54545454545
3.0
4.16666666667
3.0
4.61538461538
3.50877192982
3.63636363636
3.63636363636
1.25
0
2.22222222222
1.17647058824
2.4
1.11111111111
2.5
1.875
3.15789473684
3.44827586207
4.44444444444
2.22222222222
0
2.0
2.0
0
4.54545454545
2.5
3.33333333333
4.16666666667
0
2.22222222222
2.72727272727
0
0
2.35294117647
3.63636363636
2.30769230769
0
2.5
0
1.875
4.28571428571
3.125
4.44444444444
4.44444444444
0
2.5
0
2.0
2.0
4.32989690722
4.14814814815
4.54545454545
1.33333333333
2.14285714286
2.5
0.526315789474
5.0
4.0
0
3.0
3.0
5.0
2.30769230769
2.92682926829
1.53846153846
1.81818181818
1.11111111111
2.22222222222
3.44827586207
4.28571428571
0
3.33333333333
2.5
2.14285714286
1.25
1.42857142857
4.375
4.28571428571
3.63636363636
1.05263157895
3.125
2.14285714286
1.81818181818
2.85714285714
2.0
3.84615384615
2.5
0
2.85714285714
1.0
1.33333333333
2.85714285714
3.44827586207
4.16666666667
0
4.0
1.81818181818
2.5
1.66666666667
2.22222222222
2.0
0.833333333333
1.0
2.72727272727
2.22222222222
2.92682926829
2.0
2.22222222222
3.125
1.53846153846
5.0
2.5
1.11111111111
1.76470588235
0.769230769231
2.66666666667
2.30769230769
4.375
3.75
1.42857142857
4.0
2.60869565217
3.33333333333
2.72727272727
0.833333333333
0
1.66666666667
3.33333333333
1.66666666667
1.25
2.5
1.53846153846
3.63636363636
0.666666666667
4.61538461538
2.85714285714
4.44444444444
0
2.5
3.24324324324
2.85714285714
5.0
4.54545454545
3.22580645161
3.78378378378
4.0
0
3.0
2.5
4.54545454545
3.07692307692
1.0
4.16666666667
1.25
2.94117647059
0
4.61538461538
0.833333333333
3.0
5.0
0.0
4.28571428571
3.33333333333
2.0
1.66666666667
5.0
5.0
2.0
0
4.0
1.42857142857
3.87096774194
3.57142857143
2.85714285714
2.85714285714
3.75
3.7037037037
3.33333333333
2.85714285714
1.25
2.22222222222
3.07692307692
0
3.84615384615
3.0
3.0
2.22222222222
0
2.14285714286
3.84615384615
3.33333333333
2.72727272727
2.5
3.84615384615
5.0
1.875
3.33333333333
3.33333333333
0
0
0
2.0
4.16666666667
2.22222222222
0
4.0
2.5
4.0
4.16666666667
4.0
4.0
0
4.16666666667
4.54545454545
0
1.25
1.66666666667
1.42857142857
5.0
4.66666666667
3.0
3.77358490566
2.30769230769
2.0
2.85714285714
1.0
3.87096774194
0.714285714286
2.14285714286
2.5
1.53846153846
2.5
4.66666666667
3.33333333333
4.0
2.5
4.16666666667
4.0
2.85714285714
4.375
0.833333333333
3.63636363636
3.33333333333
4.28571428571
1.53846153846
4.54545454545
1.11111111111
3.75
3.33333333333
0
2.66666666667
2.5
1.11111111111
2.72727272727
2.22222222222
3.33333333333
4.16666666667
2.22222222222
1.81818181818
2.5
2.5
5.0
2.72727272727
0.909090909091
3.0
2.22222222222
3.63636363636
3.63636363636
2.0
1.25
0.833333333333
2.85714285714
4.66666666667
0
0.833333333333
4.28571428571
0.833333333333
2.85714285714
5.0
3.22580645161
3.84615384615
0
1.81818181818
4.28571428571
3.63636363636
4.66666666667
2.85714285714
2.85714285714
3.33333333333
3.87096774194
0
1.66666666667
2.5641025641
2.22222222222
1.17647058824
3.63636363636
3.75
2.22222222222
3.0
3.0
2.14285714286
1.66666666667
3.33333333333
1.42857142857
4.0
2.60869565217
2.5
0
2.30769230769
2.0
1.81818181818
3.63636363636
2.0
2.85714285714
1.42857142857
1.66666666667
1.71428571429
2.30769230769
0
0
1.93548387097
3.33333333333
4.0
4.61538461538
1.11111111111
2.30769230769
3.75
4.0
1.25
1.42857142857
0
3.15789473684
0.833333333333
3.15789473684
1.0
1.93548387097
5.0
2.85714285714
4.54545454545
1.11111111111
1.66666666667
2.0
4.0
1.76470588235
3.75
1.81818181818
3.125
0
3.33333333333
3.57142857143
3.125
5.0
1.42857142857
5.0
1.42857142857
2.14285714286
2.85714285714
2.14285714286
0
5.0
0.666666666667
2.22222222222
3.75
0.769230769231
1.0
2.0
3.0
2.22222222222
0.833333333333
2.30769230769
2.85714285714
2.72727272727
1.42857142857
3.75
1.25
2.22222222222
2.5
3.33333333333
1.42857142857
4.16666666667
0
2.22222222222
1.66666666667
3.0
2.22222222222
4.22535211268
3.33333333333
0.769230769231
4.44444444444
1.66666666667
0
4.16666666667
2.5
2.0
2.72727272727
1.5
1.81818181818
1.11111111111
3.75
0
3.22580645161
2.30769230769
2.14285714286
1.0
0
2.85714285714
1.0
4.16666666667
4.44444444444
2.30769230769
3.0
3.75
0
2.0
0
2.22222222222
3.63636363636
3.84615384615
4.54545454545
3.24324324324
2.72727272727
1.33333333333
0.909090909091
3.0
3.33333333333
2.0
2.5
2.85714285714
4.54545454545
3.33333333333
4.16666666667
2.5
2.94117647059
2.0
3.33333333333
2.79069767442
1.66666666667
2.0
0
1.0
2.85714285714
2.72727272727
0
1.81818181818
4.16666666667
2.5
3.07692307692
3.07692307692
4.16666666667
2.0
0
2.85714285714
2.85714285714
1.81818181818
4.16666666667
0
1.11111111111
4.375
2.22222222222
2.72727272727
4.0
1.42857142857
2.22222222222
1.0
3.15789473684
1.81818181818
1.53846153846
1.42857142857
2.30769230769
3.44827586207
0
1.53846153846
2.85714285714
2.94117647059
1.42857142857
1.42857142857
4.54545454545
2.85714285714
4.54545454545
1.53846153846
1.81818181818
2.5
1.66666666667
1.66666666667
2.72727272727
4.54545454545
0
2.22222222222
3.84615384615
1.53846153846
2.0
2.5
3.42857142857
2.92682926829
3.75
3.87096774194
1.11111111111
3.33333333333
2.22222222222
3.63636363636
2.30769230769
3.57142857143
3.33333333333
1.42857142857
1.76470588235
2.85714285714
0
2.5
3.75
2.5641025641
2.5
0.909090909091
3.0
1.66666666667
1.66666666667
2.85714285714
3.07692307692
2.72727272727
1.33333333333
1.81818181818
2.72727272727
0.769230769231
1.11111111111
4.54545454545
3.07692307692
3.33333333333
1.53846153846
3.33333333333
0
3.94736842105
3.33333333333
4.61538461538
3.75
4.08163265306
5.0
0.666666666667
1.0
2.72727272727
0
0.666666666667
1.0
0.666666666667
4.54545454545
2.0
1.0
3.75
3.63636363636
0
1.42857142857
2.72727272727
1.66666666667
2.92682926829
1.25
3.52941176471
2.5
3.68421052632
1.42857142857
4.0
1.25
1.66666666667
2.5
3.52941176471
4.16666666667
3.57142857143
2.66666666667
3.07692307692
3.33333333333
5.0
3.52941176471
3.75
3.63636363636
2.14285714286
3.94736842105
3.24324324324
1.42857142857
1.25
1.42857142857
1.66666666667
3.63636363636
3.75
5.0
4.0
2.0
2.5
5.0
1.875
3.33333333333
3.33333333333
2.0
4.66666666667
2.92682926829
2.85714285714
0
3.0
0.625
2.66666666667
1.11111111111
2.5
2.72727272727
4.16666666667
4.16666666667
1.42857142857
4.0
2.66666666667
1.25
2.0
4.44444444444
2.14285714286
4.61538461538
3.33333333333
0
0
3.0
4.28571428571
3.57142857143
3.0
3.0
0.833333333333
3.57142857143
2.0
4.44444444444
3.63636363636
2.85714285714
4.0
0.666666666667
1.66666666667
4.0
1.90476190476
2.5
1.33333333333
3.125
1.53846153846
3.0
3.63636363636
0.714285714286
3.27485380117
1.17647058824
2.30769230769
3.33333333333
2.0
2.85714285714
1.66666666667
4.0
4.54545454545
4.0
2.44897959184
2.72727272727
0
2.0
2.06896551724
1.875
2.22222222222
5.0
1.81818181818
2.85714285714
3.33333333333
0.833333333333
1.81818181818
0
2.72727272727
0
0
3.75
2.85714285714
3.33333333333
3.1746031746
0.769230769231
2.5
2.5
0
1.25
1.66666666667
2.5
0
1.875
2.72727272727
2.5974025974
3.24324324324
0.769230769231
4.0
2.30769230769
1.11111111111
1.17647058824
4.54545454545
0.833333333333
4.0
3.63636363636
2.0
3.63636363636
1.25
3.63636363636
1.76470588235
1.25
1.875
1.42857142857
3.63636363636
3.33333333333
1.0
1.25
0
1.875
0.714285714286
5.0
1.0
2.5
2.5
3.52941176471
0
4.0
0.769230769231
5.0
3.125
3.57142857143
1.66666666667
1.66666666667
1.11111111111
2.72727272727
0.909090909091
1.25
4.16666666667
4.54545454545
1.42857142857
2.14285714286
4.44444444444
4.54545454545
3.07692307692
2.0
4.28571428571
2.35294117647
4.66666666667
1.17647058824
2.14285714286
1.11111111111
0.909090909091
0
2.5
2.0
3.75
2.85714285714
1.42857142857
3.07692307692
1.66666666667
0.909090909091
0.909090909091
0.833333333333
4.16666666667
2.0
1.11111111111
1.42857142857
1.42857142857
2.72727272727
3.7037037037
3.15789473684
0.769230769231
3.75
3.33333333333
1.81818181818
4.54545454545
2.0
0
3.84615384615
2.22222222222
3.0
3.27868852459
4.61538461538
3.0
1.0
1.25
4.16666666667
3.44827586207
3.57142857143
4.0
0
2.5
0
2.22222222222
5.0
2.5
0
3.0
1.42857142857
3.24324324324
1.81818181818
1.53846153846
4.11764705882
4.44444444444
1.11111111111
5.0
4.66666666667
0
1.11111111111
2.85714285714
3.52941176471
1.76470588235
0
3.33333333333
0
3.63636363636
4.0
2.30769230769
4.61538461538
3.33333333333
5.0
2.5
2.85714285714
3.75
2.0
0.833333333333
4.54545454545
0
1.25
5.0
4.0
2.60869565217
1.66666666667
4.54545454545
0
3.33333333333
1.81818181818
2.77777777778
1.25
1.66666666667
0
4.61538461538
2.5
1.81818181818
3.33333333333
3.0
3.33333333333
4.0
2.14285714286
4.54545454545
2.0
1.81818181818
2.0
3.0
1.81818181818
2.72727272727
2.5
4.54545454545
3.33333333333
2.0
1.11111111111
4.44444444444
5.0
2.0
3.125
2.5
4.44444444444
1.0
1.25
3.07692307692
0.833333333333
1.17647058824
2.35294117647
1.66666666667
3.84615384615
2.66666666667
0.909090909091
1.81818181818
0
1.53846153846
3.33333333333
3.33333333333
4.16666666667
4.61538461538
0
3.33333333333
0.909090909091
3.33333333333
0.714285714286
0.909090909091
2.22222222222
3.125
4.375
2.22222222222
1.25
0.526315789474
3.57142857143
0.666666666667
4.0
3.33333333333
0
1.11111111111
2.5
2.72727272727
2.5
2.79069767442
3.57142857143
2.0
3.57142857143
0
3.33333333333
1.25
2.30769230769
1.25
1.81818181818
4.61538461538
1.25
2.85714285714
3.33333333333
1.53846153846
2.85714285714
0
4.54545454545
0.909090909091
1.93548387097
1.0
3.0
2.63157894737
3.75
4.0
3.50877192982
4.44444444444
4.61538461538
3.0
5.0
0.714285714286
3.33333333333
1.66666666667
1.66666666667
2.5
1.53846153846
3.75
0.769230769231
3.7037037037
2.5
2.60869565217
3.75
4.0
3.57142857143
0.909090909091
3.125
3.84615384615
2.5
0
1.33333333333
2.0
0
3.0
5.0
2.5
3.75
3.65853658537
3.33333333333
1.71428571429
2.5
1.0
1.11111111111
0
3.75
4.54545454545
1.17647058824
4.0
0.909090909091
2.85714285714
4.66666666667
5.0
2.14285714286
1.81818181818
2.5
4.66666666667
4.44444444444
4.0
3.87096774194
4.375
3.94736842105
4.66666666667
3.0
2.0
1.42857142857
0
3.33333333333
0
4.16666666667
4.54545454545
1.11111111111
2.22222222222
1.66666666667
2.85714285714
2.0
2.22222222222
1.42857142857
2.85714285714
3.63636363636
0.833333333333
2.85714285714
2.5
3.84615384615
2.22222222222
2.0
1.53846153846
1.11111111111
2.22222222222
2.22222222222
2.0
2.0
2.22222222222
2.30769230769
1.11111111111
1.11111111111
2.5
1.53846153846
3.33333333333
1.53846153846
4.16666666667
2.5
2.0
2.85714285714
4.16666666667
4.0
2.22222222222
4.0
0
