0.939336436628
1.82574185835
3.50070021007
4.61479103495
1.08695652174
0.944911182523
4.0
2.5
1.66666666667
3.5634832255
3.22251693318
4.0
0.626224291085
0.845154254729
4.1195323745
4.22577127364
2.26871303243
2.51259453815
3.22251693318
4.26745906794
1.00125234864
1.02062072616
3.49967104638
4.24516695727
0.68041381744
3.08606699924
3.47182537415
3.33333333333
1.0
2.41746889208
3.63241578628
4.08248290464
2.40192230708
2.16930457819
2.50872603002
3.85758374905
1.7334381132
2.79078152826
3.22251693318
4.08248290464
1.03509833901
3.0
3.0
4.472135955
0.569802882298
1.54303349962
4.24437343814
3.83016173143
0.456435464588
1.66666666667
4.06147770805
4.62910049886
1.0
2.28217732294
3.32875142968
4.59279326772
1.06904496765
2.67261241912
2.5
4.22577127364
2.20479275922
3.33415668356
3.125
4.45099098569
1.2515654358
1.29099444874
1.66666666667
2.79508497187
1.21987509119
2.2360679775
3.6514837167
0.923186182345
1.44337567297
4.0625
1.80421959122
3.22589583541
4.05553552827
2.17642875033
2.37170824513
3.88290137358
1.02062072616
2.00445931434
3.75
0.392837100659
2.17490899131
2.31455024943
1.97202659437
3.5634832255
3.2596012026
1.32582521472
2.53546276419
3.0
1.15727512472
3.18073212581
3.77964473009
0.376889180722
3.53553390593
1.66666666667
0.714285714286
2.18217890236
0.0
2.699527624
1.77878118384
2.00445931434
0.0
2.2360679775
0.870388279778
3.09359216769
1.72516389836
2.39356776939
0.350070021007
2.00445931434
1.44337567297
2.63523138347
0.307728727448
3.71580267809
1.11187397499
3.08606699924
1.15470053838
3.14921933463
2.04124145232
1.88444590361
1.9695964929
2.5
0.77151674981
2.90688837075
0.535671584006
2.5
1.80187492539
2.4152294577
1.9518001459
1.11187397499
0.438529009654
1.66666666667
1.91532719421
1.44337567297
0.0
3.06186217848
1.30558241967
2.0
1.2171612389
2.21601315107
2.17803420935
0.912870929175
1.75411603861
1.44337567297
0.700140042014
3.75
0.721687836487
1.41736677378
0.860662965824
3.0
0.243975018237
1.66666666667
0.912870929175
2.74397736228
0.277350098113
2.28217732294
0.716114874039
2.67261241912
1.07142857143
3.16227766017
1.24878108211
4.12478955692
0.385758374905
2.50872603002
0.441941738242
2.00445931434
0.77151674981
1.42857142857
0.0
2.0203050891
1.11111111111
1.50755672289
2.37170824513
1.02062072616
1.39754248594
2.67261241912
0.60858061945
2.5
0.0
2.82842712475
0.0
3.33415668356
0.416666666667
3.06186217848
0.314970394174
3.14347306731
0.930260509419
1.82574185835
1.00321544238
3.08606699924
2.2360679775
2.67261241912
1.56385810543
2.60874597375
1.19522860933
3.33415668356
1.19522860933
1.02062072616
1.42886901662
3.71580267809
1.11111111111
2.65804766536
1.02062072616
1.82574185835
2.2866478019
3.1137618439
2.45736593591
2.0
2.16506350946
2.13003216808
0.462250163521
2.35435477899
1.07417231106
2.30089496654
1.03417537999
1.54303349962
1.17851130198
2.5
1.9867985356
3.76889180722
2.26133508433
2.14285714286
1.83711730709
1.66666666667
1.61374306092
2.9617443888
1.11803398875
2.60874597375
1.61690416691
1.67248402001
3.0
3.71580267809
1.26592420885
2.72165526976
1.07211253484
2.31455024943
1.50755672289
2.0
1.97385508488
1.41736677378
1.7766726363
3.76889180722
0.834622326112
1.82574185835
0.438529009654
0.0
0.909090909091
1.95991577402
1.2598815767
0.345857231933
0.629940788349
1.78174161275
0.278207442037
1.33630620956
0.714285714286
1.26592420885
1.33630620956
0.0
1.30257921805
1.88982236505
1.58113883008
0.857492925713
2.06835075998
1.15727512472
0.476731294623
1.52145154863
0.912870929175
1.90260597662
0.435194139889
1.60128153805
0.790569415042
0.242535625036
1.09108945118
0.50251890763
1.47313912747
2.83069258536
1.87619693597
0.721687836487
1.25
0.0
2.30089496654
0.990147542977
1.10377696422
1.90692517849
1.03509833901
0.0
2.26960324751
1.17073226448
1.18585412256
0.0
1.66666666667
1.50755672289
1.16774841624
1.2964074471
2.56718015405
1.21854359169
0.0
1.15727512472
0.833333333333
1.69030850946
0.54554472559
1.84466196843
2.1869439637
0.668153104781
0.645497224368
0.0
0.0
0.589255650989
1.33630620956
0.909508593886
1.58192999292
0.0
0.200160192256
1.32287565553
1.38675049056
1.490711985
1.11803398875
2.42146455874
1.6448792374
1.66855953118
1.67248402001
0.0
0.561754414705
1.17851130198
0.0
1.96116135138
1.3103560459
0.811107105654
0.77151674981
0.912870929175
0.527046276695
1.76776695297
0.668153104781
0.6316139408
2.45967477525
0.0
1.72928615967
1.58113883008
1.43384833669
1.16774841624
1.94028500029
0.0
0.240562612162
1.44337567297
0.988211768803
0.919709009227
1.31876094679
0.912870929175
0.790569415042
0.668153104781
0.0
1.2515654358
0.0
1.11803398875
2.31455024943
1.54303349962
1.58113883008
0.968245836552
0.557278212575
1.11358850797
1.50755672289
0.7453559925
2.72165526976
0.639602149067
1.25436301501
0.0
1.38013111868
1.2598815767
0.77151674981
0.606339062591
0.589255650989
1.18262479198
0.77151674981
2.04124145232
0.0
1.05851224805
1.46385010942
1.88982236505
0.982946374366
0.438529009654
2.2360679775
1.38675049056
0.51031036308
1.0
1.63178487966
1.24367084541
1.09108945118
2.83473354757
0.517087689995
1.61164592805
1.35520541216
1.68455070254
1.70940864689
0.0
1.15727512472
1.58113883008
0.0
0.731272424127
0.769230769231
0.883883476483
1.50755672289
0.962250448649
0.0
1.792842914
0.845154254729
1.86052101884
1.45999279018
0.58321184352
0.0
0.0
0.0
1.00167084494
0.8505172718
0.625
1.27688479614
1.32842232831
0.68041381744
0.0
1.42857142857
0.600480576769
1.44337567297
0.800640769025
0.559016994375
1.33333333333
0.889108448949
2.25
1.2598815767
1.54303349962
1.10701860693
0.81348921682
1.94028500029
0.589255650989
0.805822964025
1.91741247212
0.0
1.02062072616
1.66666666667
0.304290309725
0.924500327042
0.580258853186
1.33917896001
1.42857142857
2.04124145232
1.69909641537
0.645497224368
0.526315789474
1.27894289489
2.02072594216
0.32686022523
0.953462589246
1.11803398875
1.47828098997
1.57242725508
0.533001790889
0.376889180722
1.74240695849
1.25
0.0
0.0
0.877058019307
2.76399789397
0.753778361444
1.72015615514
2.04124145232
1.71190595816
1.05409255339
0.714285714286
1.31558702896
1.46385010942
1.25
0.890870806375
1.06600358178
0.0
1.35520541216
1.17851130198
0.0
1.84210526316
2.07019667803
2.16006912332
0.5
1.06600358178
0.741249316661
1.08147614087
0.605227532669
0.778498944162
1.05409255339
0.0
1.7766726363
1.86550626811
2.57247877714
0.472455591262
0.645497224368
0.322748612184
0.0
1.19522860933
1.61164592805
0.851256530759
0.456435464588
1.09952499921
1.66666666667
0.527046276695
1.30321508786
1.82574185835
0.612563891832
1.39319553144
1.30558241967
0.487950036474
0.0
0.721687836487
1.07417231106
2.88675134595
0.790569415042
1.17851130198
1.2515654358
1.13753938798
0.0
0.0
1.36930639376
0.707106781187
1.00222965717
0.533001790889
2.35702260396
1.29099444874
0.0
0.533001790889
0.0
0.435194139889
2.14285714286
1.13066754217
2.13200716356
0.707106781187
1.74574312189
0.912870929175
2.36188746487
2.106752429
0.0
0.707106781187
1.14332390095
2.30769230769
0.205152484966
1.34839972493
1.67183463773
0.462250163521
1.16642368704
1.163105263
0.490290337845
1.06600358178
1.29099444874
0.912870929175
1.33366267342
1.15384615385
0.0
2.0
0.559016994375
0.912870929175
1.792842914
1.57485197087
0.402911482013
1.21566134771
1.47313912747
0.0
1.11803398875
0.68041381744
1.29099444874
0.0
1.84900065408
1.02062072616
0.404226041727
1.15727512472
0.0
0.975900072949
0.716114874039
0.50251890763
0.0
1.48249863332
1.53093108924
0.836242010007
1.52145154863
0.77151674981
0.721687836487
1.0
0.796162194123
0.805822964025
2.13834300862
1.63188341442
0.707106781187
2.02926925843
0.668153104781
1.04006286792
2.04124145232
0.0
1.67705098312
1.00503781526
1.32582521472
1.01418510567
1.17851130198
1.04828483672
1.17851130198
0.77151674981
1.42450720575
1.54303349962
1.57173653365
1.4596008984
0.0
0.0
0.0
0.836242010007
0.0
0.0
0.304290309725
0.714285714286
1.16051770637
0.0
0.491473187183
1.53284834871
0.35805743702
0.930260509419
1.27256952595
1.90260597662
0.962250448649
1.33630620956
2.98807152334
0.836242010007
2.45049014705
1.02062072616
0.860309002015
0.25
0.0
2.36227795631
0.418121005004
1.97951895616
0.35805743702
0.555555555556
0.636284762976
0.357142857143
1.43019388387
0.0
0.51031036308
0.800640769025
0.867109969524
0.172825282455
0.0
1.86550626811
0.0
1.05948362103
1.11978502191
0.778498944162
0.877328007929
0.376889180722
0.556414884075
0.0
0.882352941176
0.924500327042
1.54303349962
1.57485197087
0.559016994375
1.23091490979
0.741249316661
0.0
0.51031036308
0.629940788349
0.668153104781
0.962250448649
1.21666065848
1.00503781526
0.892857142857
2.88675134595
0.928476690885
1.88982236505
2.03522894603
0.714285714286
1.60506059456
0.462250163521
0.870388279778
1.42915487619
0.845154254729
0.613395615082
0.51031036308
1.41736677378
0.860309002015
1.05409255339
0.0
0.0
0.833333333333
2.13003216808
0.990147542977
2.0
1.9462473604
0.0
1.66666666667
1.20281306081
1.14707866935
0.668153104781
0.845154254729
1.0
0.0
1.82574185835
1.16642368704
0.808452083454
1.04489250955
1.17851130198
0.833333333333
1.54303349962
0.0
1.83333333333
0.0
0.9375
0.715096941934
1.71779500294
0.385758374905
0.437688109532
1.43019388387
1.08253175473
0.629940788349
1.17444043903
0.0
1.11111111111
0.435194139889
0.383482494424
1.63663417677
0.476731294623
1.48249863332
0.0
1.07142857143
0.707106781187
1.43222974808
0.690065559342
1.792842914
1.12272178285
2.04124145232
1.11803398875
1.33630620956
1.25320102957
0.533001790889
1.57485197087
2.22222222222
2.00445931434
0.0
1.43747227125
0.629940788349
1.9364916731
1.11187397499
0.0
0.29617443888
0.385758374905
0.0
1.06407066345
1.11803398875
1.12480317666
0.220433357089
0.903712849693
0.0
0.629940788349
0.334076552391
1.16642368704
0.270369035218
1.57242725508
1.62221421131
1.08253175473
0.0
0.0
1.47087101354
1.65997895459
0.962250448649
0.982946374366
1.17851130198
1.07417231106
1.52739952493
2.35702260396
0.790569415042
0.944911182523
0.51031036308
1.70940864689
1.04828483672
1.22627867897
1.00503781526
1.02062072616
0.25515518154
0.833333333333
1.22474487139
0.800640769025
0.714285714286
1.2598815767
0.833333333333
1.54303349962
0.753778361444
0.0
1.96116135138
0.790569415042
1.19522860933
0.716114874039
0.472455591262
0.707106781187
1.42857142857
1.2598815767
0.541265877365
0.953462589246
1.85312329165
1.5625
1.63663417677
0.77151674981
0.721687836487
1.11111111111
1.47441956155
1.48522131447
0.294627825494
0.0
1.58113883008
0.0
0.0
0.707106781187
1.43222974808
0.0
0.555555555556
0.0
1.46385010942
1.11111111111
2.16506350946
0.374240594283
1.53392997769
0.869565217391
1.21267812518
0.811107105654
2.00445931434
0.550481882563
0.933520056019
1.51584765648
0.645497224368
1.02062072616
0.629940788349
1.24448931923
0.0
0.866025403784
0.0
2.2360679775
0.57735026919
0.668153104781
1.85312329165
1.490711985
1.33630620956
0.714285714286
0.0
0.721687836487
1.37492985231
1.42886901662
1.06600358178
0.833333333333
2.19125245045
0.625
0.50251890763
1.11111111111
1.0
0.836242010007
1.53093108924
0.289157465983
2.58198889747
1.490711985
0.778498944162
0.944911182523
0.980580675691
1.28316225644
0.77151674981
0.384615384615
0.238365647311
1.36930639376
0.597614304667
0.0
0.0
0.278207442037
0.81348921682
0.0
0.527046276695
0.845154254729
1.36386181397
2.0
0.968245836552
0.7453559925
2.0203050891
1.80187492539
0.491473187183
1.28623938857
0.314970394174
1.53998100702
1.02597835209
0.0
1.63572164022
1.17851130198
1.11803398875
1.11187397499
0.77151674981
1.97338054344
1.2964074471
0.912870929175
2.0751433916
0.645497224368
1.34595475515
1.69030850946
1.98272638839
1.82574185835
0.769483764064
2.35969951862
1.50616019019
1.66666666667
2.29639663386
1.70940864689
1.42857142857
1.49240501449
2.6207120918
0.0
1.63663417677
0.991950106899
2.39182436617
1.17851130198
1.30558241967
1.54303349962
1.35581536137
1.20096115354
0.615457454897
1.76117488419
2.08231682518
1.37620470641
1.2598815767
1.75
2.44948974278
1.65359456942
0.589255650989
0.0
0.668153104781
1.42857142857
0.924500327042
0.54554472559
1.58113883008
1.1396057646
1.02062072616
2.37170824513
2.0194517395
1.93327223335
0.790569415042
1.81568259801
0.435194139889
1.80936716114
0.9375
0.800640769025
0.0
0.721687836487
0.279946255478
0.77151674981
1.04257207029
1.31761569174
1.08695652174
0.0
1.63299316186
1.58113883008
0.668153104781
0.0
0.690065559342
0.668153104781
1.0
0.668153104781
1.48039131366
1.59071190744
1.44337567297
0.0
1.20096115354
1.52145154863
0.972305585328
0.825722823845
1.30434782609
0.753778361444
1.25436301501
1.1396057646
0.435194139889
0.263523138347
0.0
0.555555555556
0.0
1.33333333333
1.84637236469
1.2598815767
1.50755672289
0.0
1.51584765648
1.46734796413
2.34311674452
0.37267799625
1.00900919099
1.0
2.66500895445
0.472455591262
0.0
1.11803398875
1.33333333333
1.88982236505
0.983421572061
1.23717914826
0.668153104781
1.42857142857
1.490711985
0.490290337845
0.870388279778
2.31992668002
0.0
1.54303349962
0.0
0.629940788349
1.31558702896
0.592348877759
0.0
2.06835075998
1.33333333333
0.0
1.02868899975
1.0
1.20873444604
1.31558702896
0.833333333333
1.25
1.30558241967
1.17851130198
1.51306883167
0.77151674981
0.0
0.980580675691
0.456435464588
1.15384615385
1.16774841624
1.06904496765
1.58776837207
1.13066754217
0.589255650989
0.615457454897
0.909508593886
0.953462589246
1.39875721236
1.02868899975
0.0
0.527046276695
1.20096115354
1.36930639376
0.883883476483
0.0
0.714285714286
0.613139339485
0.0
2.58198889747
1.12687233964
2.02259958739
1.81818181818
1.70940864689
1.62221421131
0.0
0.0
0.645497224368
1.36082763488
0.833333333333
0.912870929175
0.35805743702
1.9245008973
1.33440128171
0.972305585328
1.02232602514
1.53284834871
0.912870929175
2.36939551104
0.455015755193
1.03509833901
1.25
0.845154254729
2.25
0.0
0.980580675691
1.51584765648
0.77151674981
1.22868296796
0.733673982067
1.35434084721
0.589255650989
1.43606739476
0.800640769025
0.0
0.0
1.63663417677
0.382359556451
0.0
0.912870929175
1.73931310696
1.31590338992
0.912870929175
2.4140393963
1.4580296088
1.32598708826
0.0
0.314970394174
1.39754248594
0.648203723552
3.34076552391
0.0
1.88982236505
1.15079291114
0.77151674981
0.304290309725
1.67038276195
1.16774841624
0.953462589246
1.45478593491
2.31455024943
1.22278997011
0.753778361444
0.924500327042
1.19522860933
0.910031510387
0.365636212064
1.75
1.88982236505
0.0
0.0
0.0
0.387201546331
1.20873444604
0.527046276695
1.37931034483
1.57134840264
1.84466196843
1.46076636867
3.16227766017
2.00445931434
0.0
0.909090909091
0.589255650989
0.334076552391
1.36930639376
0.569802882298
0.0
0.77151674981
0.0
1.792842914
1.38675049056
0.790569415042
1.42857142857
0.907442510801
1.2598815767
1.46254484825
0.331133089266
0.890870806375
1.11803398875
0.50251890763
1.03509833901
0.0
0.87481776528
0.589255650989
0.793884186037
1.85239643409
0.833333333333
0.782780363856
0.668153104781
0.58321184352
0.35805743702
1.46254484825
1.76776695297
0.793884186037
1.53093108924
0.0
1.67705098312
0.0
0.278207442037
0.668153104781
1.11803398875
0.278639106288
1.36061941399
2.0
1.40242048501
1.69030850946
0.962250448649
1.00503781526
0.747685755693
2.62552515755
1.61374306092
2.04124145232
0.0
1.9462473604
0.953462589246
0.0
1.44337567297
0.395284707521
1.69030850946
0.604367223019
1.15470053838
0.77151674981
0.629940788349
0.0
1.25
0.653720450461
0.0
1.31876094679
0.754851356096
1.63572164022
1.67093470609
0.0
0.625
0.60858061945
0.625
1.35581536137
0.615457454897
1.21267812518
1.42857142857
1.86338998125
1.57242725508
1.05409255339
1.44149994031
0.456435464588
1.18585412256
0.625
1.16774841624
1.11111111111
0.805822964025
0.68041381744
1.11803398875
0.629940788349
0.912870929175
0.51031036308
0.514344499874
1.25244858217
1.33630620956
0.0
0.81978229473
1.47313912747
0.500626174322
0.0
0.601929265429
0.912870929175
0.954427144464
0.54554472559
1.58113883008
0.668153104781
1.16774841624
1.02062072616
0.834622326112
0.645497224368
0.0
0.0
0.0
0.77151674981
0.716114874039
0.490290337845
0.597614304667
2.02899214311
1.25738922692
1.2598815767
0.668153104781
0.742610657233
0.0
2.92770021885
0.755928946018
0.0
0.0
0.962250448649
1.7708440083
0.7453559925
1.88982236505
1.9245008973
1.33630620956
0.0
1.87439498563
1.4580296088
1.06600358178
0.0
0.0
0.385758374905
2.37170824513
1.09690863619
2.54237589937
1.20096115354
1.25
0.5
0.0
0.0
1.22474487139
2.10818510678
1.22474487139
2.69679944985
1.2598815767
2.25
1.792842914
0.799502686334
1.77789750555
1.16774841624
1.38013111868
1.79546211615
1.72516389836
2.40990093252
2.29966552752
0.890870806375
0.833333333333
1.08253175473
0.828741930165
1.2598815767
0.50251890763
0.0
0.766964988847
1.06600358178
0.0
0.542326144547
0.629940788349
1.2598815767
1.2598815767
0.780868809443
1.35184517609
1.47087101354
1.54303349962
1.35184517609
1.84637236469
0.769230769231
0.415945165404
0.778498944162
1.25436301501
0.527046276695
0.456435464588
0.622841098903
1.69030850946
0.912870929175
1.69030850946
1.70940864689
0.753778361444
0.808452083454
2.0
1.69030850946
0.801783725737
1.75219161013
0.668153104781
3.1137618439
1.58113883008
1.21267812518
0.559016994375
1.55126306999
1.38675049056
1.80144173031
1.33333333333
0.714285714286
1.09108945118
1.58113883008
0.77151674981
0.68041381744
2.07390338946
0.872871560944
0.764719112902
1.31558702896
0.597614304667
1.2171612389
0.769483764064
2.10042012604
1.86338998125
2.08514414057
2.25924028529
0.430331482912
1.25436301501
0.0
1.00900919099
1.30744090092
0.912870929175
0.625
0.0
0.279508497187
0.629940788349
1.43019388387
0.57735026919
2.53916687539
1.7334381132
0.845154254729
1.30144801574
1.04713477073
0.877058019307
1.63299316186
1.97788701321
1.17851130198
1.0
0.741249316661
2.88675134595
0.721687836487
1.19522860933
0.4472135955
2.4794235184
0.944911182523
1.42857142857
0.833333333333
1.35581536137
0.742269619025
0.58321184352
0.690065559342
0.909090909091
0.912870929175
0.405553552827
0.0
0.883883476483
0.405553552827
0.0
0.629940788349
1.25
0.845154254729
1.39875721236
0.0
1.72516389836
1.54303349962
1.1048543456
0.0
1.33630620956
1.70782512766
3.14970394174
0.721687836487
0.953462589246
0.0
1.66855953118
0.778498944162
0.789473684211
0.970142500145
0.9375
0.546267780547
1.77324841404
2.06474160484
0.81348921682
0.625
0.472455591262
1.16642368704
1.84900065408
0.0
1.09108945118
0.790569415042
1.8609684208
0.983611844206
1.76776695297
1.03509833901
1.58113883008
0.0
1.41421356237
0.0
0.0
1.63663417677
0.896421457001
0.68041381744
0.559016994375
0.0
0.926561645826
1.64133041075
1.33630620956
1.67038276195
0.0
1.06600358178
0.755928946018
0.625
1.36930639376
0.404226041727
0.87481776528
0.750939261483
0.77151674981
1.26773138209
2.11288563682
0.385758374905
1.06600358178
0.790569415042
0.702439358686
0.336336396998
0.800640769025
1.67248402001
0.0
1.50755672289
0.555555555556
0.527963677348
0.912870929175
2.08012573584
0.968245836552
1.87867287326
1.72061800403
1.33630620956
1.20096115354
0.912870929175
1.76863075314
0.866025403784
0.860309002015
1.91259213059
0.912870929175
1.43222974808
0.51031036308
1.17851130198
2.13003216808
0.0
0.629940788349
0.944911182523
1.05409255339
1.60816880226
1.52739952493
1.35931811957
1.33630620956
0.629940788349
0.980580675691
2.10731807606
0.0
1.03509833901
2.21403721385
0.0
0.793884186037
1.57134840264
0.690065559342
1.02062072616
1.94461117066
0.845154254729
2.37758609366
2.0
1.77878118384
0.0
0.527046276695
1.59900537267
0.77151674981
2.5
0.0
0.559016994375
0.298807152334
2.02072594216
1.35812819539
1.20873444604
0.29160592176
1.03098262355
2.9077631575
0.456435464588
1.72061800403
0.625543242171
0.766964988847
0.527046276695
0.714285714286
1.15384615385
1.40028008403
1.67248402001
0.953462589246
1.70940864689
0.870388279778
1.00503781526
0.592348877759
0.952380952381
1.44337567297
0.717547309852
1.15044748327
0.278207442037
0.953462589246
0.0
1.89814150591
2.93031774303
1.25
2.06239477846
1.5625
1.17851130198
2.10818510678
2.4794235184
0.766964988847
0.625
0.4482107285
0.589255650989
1.34839972493
1.05433165798
0.790569415042
0.32686022523
1.60375074775
1.43222974808
0.912870929175
0.758582606136
1.29099444874
1.13753938798
1.91925043491
2.19602615289
0.250313087161
1.66666666667
2.55945348444
0.400320384513
0.668153104781
1.76776695297
0.625
2.1661214443
0.573539334676
3.03915336927
1.16642368704
1.58113883008
0.613395615082
1.11803398875
0.0
2.0
2.30940107676
0.527046276695
1.50755672289
0.400320384513
0.0
0.944911182523
0.635641726164
0.0
2.12218671907
2.20970869121
0.569802882298
2.16930457819
0.0
1.54303349962
1.98029508595
0.825722823845
0.714285714286
1.82574185835
0.816496580928
1.82574185835
0.0
0.412393049421
0.924500327042
0.529256124025
0.845154254729
0.0
0.0
0.472455591262
0.952500952501
1.44337567297
1.54303349962
0.721687836487
1.51306883167
0.0
0.559016994375
1.58113883008
0.953462589246
1.31761569174
2.30796545586
1.73913043478
1.01388388207
2.00497719559
1.77324841404
0.35805743702
0.435194139889
1.2757759077
1.2964074471
2.84604989415
1.70940864689
0.334076552391
0.278207442037
0.907218423253
1.34595475515
1.36082763488
2.33333333333
1.2598815767
0.0
1.11111111111
0.877058019307
0.462250163521
1.72413793103
2.49391874555
0.451856424847
0.845154254729
2.04124145232
0.721687836487
2.76078815187
1.05409255339
0.888523316639
0.67082039325
0.877058019307
0.909508593886
0.912870929175
1.25436301501
0.376889180722
0.51031036308
0.0
0.857492925713
1.2515654358
0.668153104781
0.68041381744
1.13066754217
0.629940788349
0.527046276695
1.22627867897
1.65566544633
2.05152484966
0.256494588021
0.707106781187
0.674199862463
0.786889475365
0.690065559342
1.33630620956
0.870388279778
0.953462589246
0.58321184352
0.527046276695
0.0
0.962250448649
1.84256932798
0.589255650989
2.10297756048
1.67183463773
0.37267799625
0.597614304667
1.85239643409
1.08821437517
1.56556072771
1.44337567297
0.487950036474
2.29174624257
1.53190838336
1.17073226448
0.0
0.597614304667
2.17505546462
1.53960071784
0.758582606136
1.59255514318
1.04828483672
0.462250163521
0.892051550175
1.32453235707
0.916544468883
1.76047539254
0.872871560944
0.589255650989
0.0
0.462250163521
0.533001790889
1.17851130198
0.0
0.629940788349
1.58113883008
1.1556254088
1.10377696422
0.569802882298
0.0
0.693375245282
1.13227703414
1.00503781526
0.668153104781
1.43222974808
1.18469775552
0.727392967453
1.44337567297
0.0
1.23091490979
0.968245836552
0.924500327042
1.47313912747
0.962250448649
1.31578947368
0.731272424127
2.3788041338
1.46385010942
1.54303349962
0.766964988847
1.62221421131
0.912870929175
0.629940788349
1.89814150591
1.06904496765
1.82574185835
2.28375069598
0.668153104781
1.62221421131
1.79798738057
0.524142418361
1.05409255339
1.04006286792
0.0
1.98029508595
0.272772362795
0.643119694284
0.272772362795
0.694444444444
0.441941738242
1.00503781526
1.43019388387
0.0
1.14332390095
1.57485197087
0.476731294623
0.7453559925
0.766964988847
1.20385853086
0.68041381744
0.462250163521
0.435194139889
1.2598815767
0.989759478081
0.0
0.303169531295
0.643119694284
0.0
2.25924028529
1.54880618532
0.430331482912
0.7453559925
1.42886901662
0.77151674981
0.0
1.75
1.06600358178
1.17851130198
1.875
1.06600358178
0.77151674981
0.569802882298
0.615457454897
1.44337567297
2.14285714286
1.57485197087
1.37281294597
0.818317088385
0.912870929175
0.883883476483
0.840424428127
1.56385810543
0.893998174815
0.435194139889
0.645497224368
0.72547625011
1.31076030098
0.533001790889
1.78174161275
0.556414884075
0.0
1.22474487139
0.845154254729
2.47536885744
1.04006286792
1.02062072616
1.41736677378
0.0
0.0
1.63902517027
0.936585811582
0.941647230862
0.589255650989
1.46734796413
1.09108945118
0.57735026919
2.23151849572
1.86550626811
1.28623938857
1.38675049056
0.0
0.668153104781
0.0
0.422577127364
0.7453559925
0.816496580928
1.17851130198
0.77151674981
1.25
0.0
0.392232270276
0.0
2.2278319717
1.11803398875
0.833333333333
2.86038776774
0.702439358686
0.0
1.28836780421
1.10096376513
2.0
1.06600358178
1.875
0.0
0.0
1.490711985
0.589255650989
1.7334381132
1.11111111111
0.58321184352
2.2360679775
2.25346954716
0.51031036308
1.91654987368
1.27128345233
0.54554472559
0.0
0.962250448649
0.0
1.1593472394
0.0
0.828741930165
0.0
0.9375
1.28697890418
1.72516389836
0.912870929175
0.569802882298
2.05832326855
0.400320384513
0.912870929175
1.875
0.489115988045
1.33366267342
0.0
0.790569415042
1.05409255339
0.778498944162
1.63572164022
1.86338998125
1.0
1.09690863619
0.654653670708
1.17851130198
1.51584765648
1.72825282455
1.78174161275
1.05409255339
0.0
0.845154254729
1.84210526316
2.41955395437
0.29160592176
0.77151674981
0.636284762976
0.870388279778
1.00503781526
0.811107105654
1.9188064472
0.5
1.94461117066
2.28217732294
0.845154254729
1.08465228909
1.33440128171
1.31558702896
0.0
0.213980246255
1.90940653956
0.0
0.490290337845
1.61164592805
1.33630620956
1.29099444874
0.408248290464
0.833333333333
1.81901718777
1.21987509119
1.23577883186
1.32582521472
2.32008084334
0.953462589246
0.811107105654
0.778498944162
1.09108945118
0.962250448649
2.01246117975
1.29271922499
1.8604027516
0.816496580928
1.38013111868
1.02062072616
0.924500327042
0.408248290464
1.11803398875
1.25
1.08253175473
1.69030850946
2.17597069945
2.06239477846
0.589255650989
1.163105263
1.33630620956
1.22474487139
1.31558702896
0.845154254729
0.890870806375
0.60858061945
0.270369035218
2.54213156936
2.33826186772
0.753778361444
1.0
1.0
0.0
0.672672793996
1.16774841624
0.258198889747
1.71779500294
1.11803398875
1.25
0.487950036474
2.398508059
1.84637236469
0.589255650989
1.42857142857
1.02062072616
0.808452083454
0.818317088385
3.6514837167
0.666831336712
1.54303349962
0.912870929175
0.0
1.25
0.77151674981
0.765839581067
1.2598815767
2.11288563682
0.838525491562
2.0
1.53846153846
1.00503781526
0.693375245282
0.912870929175
1.1725441178
1.25108648434
0.0
