0
0
2.94117647059
4.41176470588
0
1.42857142857
4.0
5.0
0
3.2
3.5
3.33333333333
0
0
3.59550561798
4.54545454545
0.833333333333
2.85714285714
3.5
4.375
0.555555555556
0
2.66666666667
4.10256410256
0
2.0
3.0
5.0
2.14285714286
2.27272727273
3.33333333333
5.0
0
1.78571428571
2.30769230769
4.0
1.0
2.5
3.5
5.0
0
2.0
0
4.0
0
1.25
3.92857142857
3.33333333333
0
4.0
2.85714285714
3.125
0
3.07692307692
2.5
4.28571428571
0.5
2.0
3.33333333333
4.54545454545
1.66666666667
2.22222222222
3.61445783133
3.93939393939
1.76470588235
2.0
1.81818181818
4.28571428571
0
2.85714285714
3.33333333333
0
1.66666666667
2.72727272727
0.909090909091
2.5
3.87096774194
0.869565217391
2.5
3.63636363636
0
2.5
2.5
2.72727272727
3.05555555556
5.0
0.833333333333
3.2
3.68421052632
0.833333333333
2.5
0
0
1.66666666667
4.28571428571
0
3.33333333333
1.81818181818
0
1.66666666667
0
1.90476190476
0.526315789474
0
0
2.35294117647
0.909090909091
2.85714285714
0.952380952381
1.66666666667
0.714285714286
1.25
1.25
2.0
0
2.30769230769
0
2.0
0.833333333333
3.33333333333
0
1.42857142857
0
2.85714285714
0
2.5
0.769230769231
1.66666666667
0.869565217391
2.30769230769
2.0
0.769230769231
1.53846153846
0
0.625
3.33333333333
0
1.25
0.909090909091
3.33333333333
0.714285714286
2.38095238095
1.875
0
0.588235294118
2.22222222222
0
3.33333333333
1.25
1.25
0.833333333333
2.0
2.0
3.75
0
3.22580645161
0.666666666667
3.07692307692
0.666666666667
0.909090909091
0
2.30769230769
0.909090909091
3.33333333333
0.625
1.0
0
2.22222222222
1.42857142857
0
0
2.5
1.0
2.5
0
2.5
1.5
0.909090909091
0
2.91666666667
0
1.25
0
2.22222222222
0.666666666667
2.0
0
2.44897959184
3.125
0
0.833333333333
2.72727272727
1.66666666667
0.909090909091
0
3.33333333333
0
2.22222222222
1.11111111111
0
1.66666666667
2.30769230769
0
2.0
0
2.0
1.11111111111
3.63636363636
0.625
2.5
2.22222222222
2.35294117647
0.833333333333
1.81818181818
0
2.5
0.666666666667
0
0.833333333333
2.91666666667
0
3.33333333333
1.33333333333
4.0
0.555555555556
2.5
0
3.18181818182
0.416666666667
3.33333333333
0
1.25
2.0
2.30769230769
1.17647058824
2.63157894737
0
4.0
0
3.33333333333
0.833333333333
1.25
1.11111111111
3.33333333333
0.769230769231
0
1.25
0
0.833333333333
1.66666666667
0
0.666666666667
1.11111111111
0.625
0.666666666667
0
0
0.4
0
1.25
1.05263157895
2.0
1.66666666667
0.666666666667
0
0.833333333333
0
0.714285714286
0
0.769230769231
0
0.714285714286
1.66666666667
0.555555555556
1.05263157895
0.714285714286
0.769230769231
2.5
0.833333333333
0
0
0.833333333333
0
0.5
0.625
0
0.555555555556
2.5
0.454545454545
0
1.33333333333
0
0
1.25
0
1.76470588235
0
0.526315789474
0
1.11111111111
0
0
0.588235294118
0
0.909090909091
0
0.625
0
0
1.11111111111
1.25
0
1.6
0
0.526315789474
0
0
1.81818181818
0
0.63829787234
0
0
0
0
1.03448275862
0
0
1.25
1.36363636364
0.625
1.42857142857
0
0.909090909091
1.0
0
0.3125
0.555555555556
0
1.17647058824
1.25
1.11111111111
0.714285714286
0.909090909091
0
0
0
0.909090909091
0
0
1.66666666667
0
0
0
0.952380952381
0
0
0
0
1.25
0
0
0
0
1.42857142857
2.22222222222
0.869565217391
0
0
0
1.25
0
0.769230769231
2.0
0
1.42857142857
0
2.0
0
0.909090909091
1.0
0
0
1.66666666667
0
1.0
2.72727272727
0.625
0.526315789474
1.42857142857
2.85714285714
0.666666666667
0
0
1.30434782609
1.0
0
0
0
0
1.0
1.76470588235
1.11111111111
1.2
0
0
1.66666666667
0
0.666666666667
0.555555555556
0.833333333333
0
0
0
0
0.47619047619
1.42857142857
0.588235294118
0.5
0
0
0
0.47619047619
2.72727272727
0
0
1.42857142857
0.714285714286
0
1.11111111111
2.0
0
0
0
0
0
1.66666666667
1.0
0
0
0
0.909090909091
0.833333333333
1.16279069767
1.66666666667
0
0.740740740741
0
0
0.714285714286
0.645161290323
0
0
0
1.25
0
0
0.714285714286
0
0
0
0
0.909090909091
0.75
1.0
0
1.66666666667
0
1.0
0
0
0
0
0
0.555555555556
0
0
0
0
0.666666666667
0.625
1.53846153846
0
0.666666666667
0
0
0.625
0.526315789474
1.17647058824
0
1.33333333333
0
1.53846153846
0.909090909091
0
0.833333333333
0
1.5
0
0.526315789474
0
1.0
0.689655172414
0
1.11111111111
1.42857142857
1.36363636364
0.625
0.714285714286
1.0
1.25
0
0
1.66666666667
0
1.53846153846
0.416666666667
1.66666666667
0
0
1.25
0
1.66666666667
0.909090909091
0
0
0
0
0.909090909091
0
0
1.25
0.454545454545
0
0.625
1.66666666667
0.416666666667
0.588235294118
0
1.81818181818
0
0.769230769231
0.47619047619
0
0
0
1.42857142857
1.05263157895
0
0
1.25
0
0
0
0
0
0.833333333333
0
0
1.90476190476
0
0
0.769230769231
1.42857142857
0
0
1.42857142857
0
0
0
0
0
0
0
0
0
1.66666666667
0
0
0
0
0
0
0
1.11111111111
1.0
0
0.555555555556
0
0.869565217391
0
0
0
1.11111111111
1.11111111111
0.47619047619
1.42857142857
0
0
0
0
0
0
0
0.588235294118
1.0
0
0
0
0.833333333333
0
0
0
0
0
0
0.555555555556
0
0
0
0.833333333333
0
0.909090909091
0
4.0
0
0
0
2.0
0
0
0.833333333333
0
0.588235294118
0.625
1.11111111111
0
0
1.25
0
0
1.17647058824
0.869565217391
0
0
0
0
0
0.769230769231
0
0
0
0
0
0
0
0.909090909091
0
0
0
0
0
1.0
0
0
0.625
1.25
0.5
0.588235294118
1.66666666667
0.666666666667
1.42857142857
0.909090909091
0
0
0
1.42857142857
0.714285714286
0
0.454545454545
0
2.22222222222
0
0
1.11111111111
0
0
0.833333333333
0
3.33333333333
1.11111111111
0.833333333333
1.66666666667
1.42857142857
0
0
1.42857142857
0
1.66666666667
0
1.875
0.833333333333
0
0
0
0
0
2.59259259259
0
0
0.47619047619
1.15384615385
0.666666666667
0.740740740741
0.4
0.714285714286
1.25
0.714285714286
0
0
0
0
0
1.11111111111
0
0
0
1.11111111111
1.66666666667
0
0
1.25
1.11111111111
0
0
0.689655172414
0.714285714286
1.0
0.833333333333
1.42857142857
0
0.833333333333
0
0
0
0
0
0.833333333333
0
0.416666666667
1.53846153846
0
0.30303030303
1.2
1.11111111111
0.909090909091
0
0
0.588235294118
2.5
0
1.42857142857
0
0
1.25
1.61290322581
0
0
0.909090909091
0.909090909091
0
0
0
0
1.42857142857
1.25
0
0
1.11111111111
0
0.588235294118
0
0.833333333333
1.0
0
0
0.769230769231
0.526315789474
0.47619047619
0
0
2.0
0
0.625
0.833333333333
0.909090909091
0
0
0.714285714286
1.05263157895
2.5
0.909090909091
1.0
0
0
0
0.555555555556
0
0
0
0
0
0.833333333333
0.909090909091
0
0
0
0
0
0
2.0
0
0
0.5
0
0
1.42857142857
0
0.714285714286
0
0.714285714286
0
0
0.789473684211
0
0
0
1.81818181818
0.666666666667
1.66666666667
0.833333333333
1.57894736842
0
0
0
0
0.384615384615
0
0.555555555556
0
1.57894736842
0
0
0
0
1.0
0
1.33333333333
0
1.0
1.05263157895
0
0
0.666666666667
0
0.909090909091
0
0.526315789474
1.11111111111
0
0
0
0
0
0
0
0
0
0.714285714286
0
0.555555555556
0.869565217391
0.909090909091
1.875
0
0.47619047619
0
1.66666666667
2.5
1.66666666667
0
0.666666666667
0
0.625
1.0
0
2.0
3.33333333333
0.769230769231
1.66666666667
2.59259259259
0
1.17647058824
2.06896551724
0.625
1.42857142857
0.943396226415
2.22222222222
0
0
0
0.909090909091
0.588235294118
0
2.77777777778
1.66666666667
0
1.66666666667
0.714285714286
0
1.25
0.714285714286
0.357142857143
2.10526315789
0.769230769231
1.11111111111
0.952380952381
2.77777777778
0
0
1.25
0
0
0
0.4
2.22222222222
0
1.17647058824
0.47619047619
0
0.909090909091
1.42857142857
2.5
0
0.666666666667
0.833333333333
0
1.11111111111
0.555555555556
0
0.625
0.714285714286
0.625
0
0.909090909091
0
0
0
0.666666666667
0
0
0
1.30434782609
1.81818181818
2.5
0
0
0.714285714286
0
1.0
0
0.909090909091
0
0.833333333333
0.769230769231
1.66666666667
0
0
0
0.833333333333
0.416666666667
0
0.833333333333
0
0
1.39534883721
0.4
0
2.0
0
1.42857142857
0
0
1.11111111111
0
0
2.42424242424
0
0
0
1.0
0
0
0.434782608696
0
0
0
0
2.0
0.833333333333
0
1.66666666667
1.42857142857
0
0
0
0
0.769230769231
3.33333333333
0
0.833333333333
1.25
0
0
0
0
0
0
2.30769230769
0
0
0
0
0
0
1.25
2.0
0
1.11111111111
0
0
0.625
0.625
0
1.42857142857
0
0
2.66666666667
2.14285714286
1.66666666667
0.833333333333
2.5
0.869565217391
0
0
0
1.11111111111
0
0.416666666667
0
0
0.625
0
0
1.53846153846
0.666666666667
0.909090909091
0
1.05263157895
0
0
2.22222222222
0
0.909090909091
0
0
0
0
2.17391304348
0
0.47619047619
0.909090909091
1.0
0
1.42857142857
0
0
0
0.384615384615
0
1.25
1.53846153846
1.53846153846
0.588235294118
0
0.625
0.5
0.714285714286
2.85714285714
1.42857142857
0
0.909090909091
0
0
1.66666666667
0
0
0.769230769231
0
0
1.66666666667
0
1.25
1.42857142857
1.11111111111
1.05263157895
0
0
0
1.42857142857
1.0
0
0
0.526315789474
1.11111111111
0.555555555556
0.606060606061
0
1.42857142857
0
0.714285714286
0
1.11111111111
1.53846153846
0
0
1.66666666667
0
3.0
0
0
0
1.05263157895
2.5
0.625
0
1.0
0.555555555556
2.0
0.666666666667
1.81818181818
0.588235294118
0
0
0.666666666667
1.42857142857
1.07142857143
0
0.666666666667
0
1.11111111111
1.42857142857
0
1.25
0
1.42857142857
0
0
0
1.81818181818
0
0
1.76470588235
0.789473684211
1.42857142857
0
0
0
1.05263157895
0
0
0
1.42857142857
1.25
1.25
2.0
0.714285714286
2.0
1.5
1.76470588235
1.42857142857
0
0
0
0
0
0.909090909091
0
2.5
0.606060606061
0
0
0
0.47619047619
0.5
0
1.53846153846
0
0.952380952381
0
0.833333333333
0
0
0.769230769231
0
0
0.526315789474
0.833333333333
0
0
1.33333333333
0
1.0
0.666666666667
0
0
0
0.357142857143
0
0
0
0
0
1.17647058824
0.909090909091
0
0
1.53846153846
0
0
0
0
0
0
0
0
0
0
0.416666666667
0
1.25
0
0.625
1.25
3.33333333333
0
0
0
0.833333333333
0
1.11111111111
0
0
2.22222222222
0
1.25
1.33333333333
0
0
0
1.0
0
1.25
2.30769230769
0
2.0
1.66666666667
0
0
1.66666666667
0
0
0
0
0
1.11111111111
0.909090909091
0.434782608696
0
0
0.714285714286
2.5
1.14285714286
0
1.11111111111
0
0
0.454545454545
0
0
0
1.25
1.25
0
0.555555555556
0.833333333333
0
0.714285714286
0.4
0.666666666667
0.588235294118
0.909090909091
0.588235294118
1.57894736842
0
0.952380952381
1.25
0.909090909091
0
0.769230769231
0
0.434782608696
0
1.42857142857
1.42857142857
0.555555555556
0
1.66666666667
0
0
0.769230769231
0
3.07692307692
2.0
0
0
0.714285714286
1.42857142857
0.588235294118
1.42857142857
0
1.11111111111
1.0
1.25
0
0.833333333333
1.53846153846
1.42857142857
1.11111111111
0
0
0.555555555556
0
1.0
1.66666666667
1.33333333333
1.2
0
0
1.17647058824
1.42857142857
0
0
0
0.588235294118
1.25
0
0.666666666667
0
2.22222222222
0.625
0.4
0.454545454545
1.25
0.909090909091
0.666666666667
0
0
0.833333333333
1.42857142857
0
0.625
0.555555555556
2.77777777778
0
0
0
0.526315789474
0
0.5
0
0
0
1.0
0
0.625
0.47619047619
1.66666666667
0
1.11111111111
0
0.666666666667
0
1.42857142857
0
0
0
0
0.714285714286
2.30769230769
0
1.0
0
0
0.5
0.47619047619
0
0
0.434782608696
0.666666666667
2.38095238095
0
0
0
0
0.909090909091
0
1.66666666667
1.11111111111
0.909090909091
0
0
0
0
0.833333333333
1.42857142857
0
0
0
0.714285714286
1.25
0
0
0.384615384615
0.5
0
0
0
0
0
0
1.76470588235
0
0
0
0
0.666666666667
1.0
0.714285714286
1.25
0
1.11111111111
2.0
0
1.81818181818
0
0
0
0
0
0
1.53846153846
0.769230769231
1.66666666667
0
1.0
0
1.30434782609
0
0.625
0.4
0
1.66666666667
1.0
0
0
0
0
0
0
0.588235294118
1.0
0.8
2.22222222222
0
1.0
0
0
0
1.33333333333
0
1.42857142857
1.53846153846
0
0
1.66666666667
0
0.689655172414
0
0.526315789474
0
0
1.66666666667
0
1.66666666667
1.11111111111
0
0
0.645161290323
0.384615384615
0
1.17647058824
0.909090909091
1.72413793103
1.11111111111
0.47619047619
0.869565217391
0.833333333333
2.22222222222
0
0
1.0
0
0
0
0.416666666667
1.11111111111
0
0.625
0.625
0
0.769230769231
0
0
0
0.769230769231
0.967741935484
0.526315789474
0
1.33333333333
0
0
2.77777777778
0.769230769231
0
0.526315789474
0
2.22222222222
0.333333333333
0
0.714285714286
1.66666666667
0.4
0
0.625
0.952380952381
0.526315789474
0.769230769231
1.29032258065
0
1.25
2.5
1.0
0.588235294118
1.25
1.0
1.57894736842
0.714285714286
2.10526315789
0.555555555556
2.5
0
1.17647058824
0
0
0.714285714286
0
0
1.0
0
0
0
0
0
0
0
0.8
0
0
1.66666666667
0
3.75
0
0
0
0
2.60869565217
0
0
0
0
0
0
1.25
0
3.07692307692
0.769230769231
0.434782608696
0
0
0
0.833333333333
0.5
1.61290322581
0
0
0.30303030303
0.666666666667
0
0
0.666666666667
0
1.53846153846
1.25
0.666666666667
0.625
2.30769230769
0
0
0
2.5
0
0
1.0
0
0.952380952381
1.875
0
0
0
1.0
0.714285714286
1.0
0.833333333333
0
0.5
0.625
0
0
0
0
0
1.33333333333
0.555555555556
0
0
0
0
1.42857142857
0
0
1.11111111111
0
2.85714285714
0
1.07142857143
0
0
0.909090909091
0
0
0
0
1.81818181818
1.0
2.22222222222
0.909090909091
0.588235294118
1.42857142857
1.25
1.0
1.5
0.625
2.0
1.0
2.22222222222
1.66666666667
0
1.42857142857
0
0
0
0.5
0
0
0.434782608696
0.526315789474
0
0.952380952381
0.909090909091
0.625
0
1.25
1.42857142857
1.11111111111
1.53846153846
0.909090909091
0
0
0
0.833333333333
1.17647058824
0
0
0
0
0
0
0.769230769231
0
0
0
0.833333333333
0
0.769230769231
0.714285714286
0
0
1.0
1.05263157895
1.11111111111
0
1.25
0.666666666667
0
1.0
0.769230769231
0.833333333333
0
3.75
0.555555555556
0
1.36363636364
1.0
1.11111111111
0
0
0.8
0.714285714286
0.526315789474
0.714285714286
0
1.11111111111
0
1.11111111111
0
0
0
0
0
0.769230769231
0.5
0
0
0.714285714286
0
0
0
1.17647058824
0.526315789474
0
0
0
0
0
0
1.25
0
1.11111111111
0
1.81818181818
0
0
0
0
0
0.454545454545
0.909090909091
1.25
0.47619047619
0.666666666667
0
0
0
0
1.2
0
0
1.76470588235
0.5
0
0.833333333333
0
0
0
0
0.571428571429
0
0
0
0
0
1.11111111111
0
0.869565217391
0
1.0
1.11111111111
0.625
0.416666666667
0
1.0
0
0
0
1.05263157895
0.625
0
0
0.909090909091
0
1.11111111111
0
0
0
0.769230769231
0
0.625
0
0
0
0.833333333333
0
1.66666666667
0.909090909091
2.0
0
0
0
1.0
0
1.25
0.833333333333
0
1.05263157895
0
2.42424242424
0.555555555556
0
0
1.66666666667
0
0.625
0
0.588235294118
0
0.625
0
0.454545454545
0
0
1.90476190476
1.0
0
1.11111111111
0.5
1.17647058824
0
2.0
0
0
0
0
0
0.714285714286
0.769230769231
0.909090909091
0
1.05263157895
1.42857142857
0.909090909091
0
0.909090909091
0
0.30303030303
0
1.25
0.625
0
1.57894736842
0.714285714286
1.30434782609
1.11111111111
2.14285714286
1.66666666667
2.5
0
0.625
0.909090909091
0
0
0.769230769231
1.11111111111
0
0
0
0
1.0
0
1.11111111111
0.555555555556
0
0
2.08333333333
1.11111111111
0.869565217391
0
1.11111111111
0.909090909091
0
1.66666666667
0.416666666667
0
1.90476190476
0
1.11111111111
0.5
0
1.25
0
0
1.6
0
1.0
1.0
0
0
1.11111111111
1.25
0.769230769231
0
0
0
0.454545454545
1.25
0
0
0
0.833333333333
1.11111111111
0
1.15384615385
0
1.25
0.625
1.0
1.66666666667
0
0
0
0
0
3.33333333333
0.434782608696
1.0
0
0
0
0
0
0
0
0
0
2.0
0
0.909090909091
0
1.05263157895
1.11111111111
0
