4.61538461538
1.42857142857
3.57142857143
5.0
0
1.25
1.33333333333
2.0
4.0
5.71428571429
1.0
2.66666666667
3.84615384615
1.0
2.72727272727
3.84615384615
2.72727272727
4.16666666667
2.85714285714
4.16666666667
3.63636363636
2.5
4.44444444444
2.5
1.25
4.61538461538
1.0
3.07692307692
3.33333333333
3.07692307692
3.57142857143
3.57142857143
0.833333333333
4.16666666667
4.28571428571
2.66666666667
2.5
3.63636363636
3.33333333333
4.0
4.61538461538
2.5
4.0
3.18181818182
4.36363636364
1.11111111111
3.33333333333
1.0
2.30769230769
4.375
2.66666666667
2.14285714286
3.63636363636
5.0
3.33333333333
2.5
3.07692307692
3.57142857143
0.833333333333
3.75
1.0
2.14285714286
2.85714285714
1.66666666667
3.07692307692
4.16666666667
3.125
4.0
1.81818181818
4.0
2.14285714286
3.84615384615
0.714285714286
2.0
2.72727272727
2.66666666667
4.28571428571
4.0
1.66666666667
3.52941176471
2.85714285714
3.33333333333
1.81818181818
3.75
3.57142857143
2.0
3.33333333333
3.33333333333
4.16666666667
1.17647058824
5.625
3.40909090909
4.0
2.0
4.16666666667
2.0
0.909090909091
4.16666666667
2.5
3.33333333333
3.33333333333
2.72727272727
1.66666666667
4.61538461538
2.85714285714
1.875
1.53846153846
3.33333333333
3.33333333333
4.16666666667
3.07692307692
2.72727272727
5.0
1.11111111111
3.07692307692
1.53846153846
2.66666666667
3.84615384615
3.07692307692
5.33333333333
4.16666666667
5.0
1.25
3.63636363636
2.5
2.66666666667
2.0
3.33333333333
2.72727272727
3.84615384615
0.909090909091
0
3.75
1.53846153846
2.30769230769
3.86363636364
3.63636363636
2.30769230769
3.33333333333
2.30769230769
1.0
4.16666666667
1.66666666667
0.833333333333
2.5
2.0
3.52941176471
4.44444444444
3.84615384615
4.0
3.84615384615
3.0
4.16666666667
0.909090909091
0.909090909091
2.5
2.14285714286
5.0
3.33333333333
5.0
3.84615384615
4.0
2.30769230769
3.07692307692
1.11111111111
3.07692307692
2.30769230769
4.28571428571
2.0
5.0
5.55555555556
3.07692307692
3.33333333333
3.84615384615
1.53846153846
4.44444444444
4.16666666667
5.0
1.11111111111
1.53846153846
1.0
2.0
3.07692307692
3.125
4.16666666667
1.53846153846
4.16666666667
1.25
3.91304347826
3.75
3.84615384615
3.63636363636
4.0
2.14285714286
3.84615384615
4.16666666667
0.769230769231
3.0
5.0
4.28571428571
1.42857142857
4.54545454545
2.85714285714
3.07692307692
2.30769230769
2.72727272727
2.72727272727
3.07692307692
3.0
3.33333333333
2.72727272727
4.0
2.66666666667
3.15789473684
0.769230769231
2.5
3.07692307692
2.72727272727
4.28571428571
2.0
1.66666666667
4.54545454545
3.0
3.88888888889
3.84615384615
3.84615384615
0.714285714286
2.0
0
1.81818181818
2.35294117647
2.5
4.54545454545
3.63636363636
2.72727272727
3.0
2.72727272727
2.85714285714
2.85714285714
2.5
2.5
10.6329113924
3.63636363636
0.909090909091
4.61538461538
4.16666666667
1.0
5.0
3.46153846154
2.66666666667
3.0
3.07692307692
4.16666666667
4.0
3.33333333333
1.875
3.63636363636
4.21052631579
2.22222222222
4.16666666667
4.16666666667
2.0
4.66666666667
4.28571428571
3.33333333333
2.0
3.75
0.714285714286
3.0
2.72727272727
2.66666666667
3.33333333333
1.25
0.769230769231
4.0
3.63636363636
4.0
2.30769230769
5.0
2.85714285714
4.375
4.61538461538
3.75
5.0
3.33333333333
2.72727272727
3.63636363636
0
3.84615384615
2.30769230769
3.33333333333
3.0
4.54545454545
2.85714285714
2.66666666667
5.0
3.75
5.0
2.72727272727
5.0
2.5
3.33333333333
1.66666666667
2.85714285714
2.5
2.5
2.22222222222
3.07692307692
1.81818181818
3.33333333333
0
0
2.0
2.72727272727
3.33333333333
2.0
4.0
2.5
1.81818181818
3.75
3.63636363636
3.63636363636
4.16666666667
4.0
4.66666666667
4.70588235294
2.72727272727
3.125
1.66666666667
5.0
4.28571428571
2.0
3.75
2.5
4.16666666667
2.5
2.5
4.22535211268
2.14285714286
3.57142857143
3.84615384615
3.75
2.5
4.0
3.33333333333
3.57142857143
3.33333333333
3.84615384615
5.0
2.5
3.63636363636
3.33333333333
2.22222222222
4.0
2.85714285714
0.833333333333
3.75
2.10526315789
3.33333333333
1.33333333333
6.0
4.54545454545
4.0
3.57142857143
0.909090909091
2.0
3.75
3.07692307692
0.909090909091
2.5
3.07692307692
2.85714285714
4.11764705882
2.5
1.0
2.5
1.53846153846
2.22222222222
3.0
3.57142857143
4.44444444444
1.66666666667
3.07692307692
1.81818181818
0
3.33333333333
0.833333333333
3.07692307692
3.0
2.72727272727
1.42857142857
3.33333333333
0.833333333333
2.72727272727
4.54545454545
3.07692307692
1.81818181818
0
2.5
3.07692307692
2.77777777778
4.28571428571
2.5
3.52941176471
3.84615384615
1.81818181818
1.0
2.14285714286
3.52941176471
3.33333333333
2.72727272727
3.07692307692
3.0
1.81818181818
3.84615384615
3.63636363636
4.03846153846
3.84615384615
4.0
3.52941176471
4.0
4.16666666667
3.33333333333
0.769230769231
3.40909090909
1.11111111111
3.63636363636
2.5
2.85714285714
3.84615384615
0.714285714286
3.07692307692
1.53846153846
2.5
2.0
4.61538461538
3.78378378378
3.0
4.54545454545
3.63636363636
1.0
3.125
2.0
3.0
4.54545454545
0
2.5
0
4.0
3.63636363636
3.07692307692
2.5
2.66666666667
2.5
3.57142857143
2.30769230769
2.5
2.66666666667
3.125
3.0
3.07692307692
3.52941176471
3.52941176471
4.0
3.33333333333
3.33333333333
4.0
3.0
3.84615384615
4.61538461538
2.94117647059
2.0
1.81818181818
2.85714285714
3.0
5.0
2.85714285714
4.16666666667
3.0
3.33333333333
0.833333333333
3.84615384615
2.35294117647
4.54545454545
2.5
2.0
3.57142857143
1.66666666667
3.33333333333
4.0
4.54545454545
2.89855072464
0.714285714286
3.7037037037
2.22222222222
2.0
4.0
3.33333333333
4.16666666667
1.53846153846
4.0
4.28571428571
1.66666666667
3.57142857143
3.75
4.54545454545
1.53846153846
4.54545454545
4.28571428571
3.33333333333
3.07692307692
3.63636363636
3.0
3.33333333333
0.833333333333
2.72727272727
2.14285714286
3.33333333333
3.0
3.88888888889
2.14285714286
3.33333333333
3.33333333333
3.125
0.909090909091
0.714285714286
0.909090909091
2.5
0.666666666667
4.16666666667
0
4.54545454545
1.25
4.0
3.57142857143
4.16666666667
2.22222222222
3.33333333333
3.75
2.30769230769
3.42857142857
3.07692307692
2.22222222222
1.53846153846
3.57142857143
3.75
2.0
4.0
3.33333333333
3.33333333333
3.94736842105
2.5
1.25
0.833333333333
2.72727272727
3.75
2.5
4.0
2.66666666667
4.28571428571
3.04347826087
2.0
3.63636363636
3.07692307692
0.625
0
2.72727272727
4.44444444444
1.33333333333
2.72727272727
4.28571428571
4.0
1.53846153846
2.35294117647
5.0
3.63636363636
3.0
4.54545454545
1.53846153846
4.16666666667
1.53846153846
2.85714285714
1.11111111111
2.72727272727
5.0
4.0
2.5
0.714285714286
2.85714285714
0.769230769231
3.84615384615
4.0
2.0
2.30769230769
2.5
2.72727272727
1.11111111111
4.44444444444
1.25
2.5
2.30769230769
4.375
3.75
1.66666666667
2.72727272727
2.85714285714
3.75
2.66666666667
3.33333333333
4.16666666667
3.84615384615
2.30769230769
4.28571428571
2.14285714286
4.16666666667
3.63636363636
3.07692307692
2.5
3.57142857143
3.90243902439
3.57142857143
0.769230769231
3.52941176471
2.66666666667
4.0
2.72727272727
2.35294117647
2.0
4.0
4.6875
2.30769230769
3.84615384615
3.0
2.35294117647
2.0
4.0
1.25
1.875
0.833333333333
2.72727272727
1.25
3.75
1.25
3.57142857143
0.909090909091
3.33333333333
2.0
0.714285714286
0
3.0
4.0
2.5
2.5
4.28571428571
3.75
3.07692307692
3.07692307692
1.81818181818
4.16666666667
3.33333333333
1.81818181818
3.84615384615
0.909090909091
2.72727272727
3.33333333333
3.63636363636
3.0
3.33333333333
3.33333333333
2.72727272727
3.33333333333
3.84615384615
3.07692307692
4.28571428571
2.81690140845
0
1.53846153846
1.33333333333
3.33333333333
2.72727272727
3.84615384615
3.84615384615
0.833333333333
0.714285714286
4.16666666667
6.0
2.30769230769
2.85714285714
2.85714285714
2.66666666667
3.57142857143
3.33333333333
1.66666666667
3.33333333333
0.833333333333
4.28571428571
3.07692307692
4.16666666667
3.07692307692
1.875
3.75
3.63636363636
2.72727272727
4.0
2.30769230769
3.84615384615
4.54545454545
5.0
2.66666666667
1.25
4.44444444444
0.952380952381
2.0
3.84615384615
0
2.14285714286
3.33333333333
3.33333333333
3.57142857143
4.0
5.38461538462
2.85714285714
2.5
4.44444444444
1.66666666667
0.833333333333
4.16666666667
3.33333333333
3.33333333333
3.57142857143
1.81818181818
3.84615384615
2.0
3.84615384615
2.30769230769
3.33333333333
4.0
3.63636363636
4.28571428571
2.72727272727
0.833333333333
3.07692307692
2.5
4.0
3.33333333333
2.85714285714
3.0
0.909090909091
3.0
3.07692307692
3.63636363636
3.0
2.14285714286
3.63636363636
2.85714285714
4.0
3.94736842105
2.30769230769
2.72727272727
4.44444444444
4.54545454545
4.28571428571
3.33333333333
2.30769230769
4.16666666667
4.16666666667
2.85714285714
4.54545454545
4.54545454545
4.16666666667
2.30769230769
2.5
3.75
0.769230769231
2.14285714286
3.07692307692
4.28571428571
4.0
3.33333333333
4.16666666667
1.66666666667
2.5
4.16666666667
2.5
3.52941176471
3.33333333333
4.28571428571
2.30769230769
1.875
2.0
2.5
3.75
1.81818181818
3.84615384615
3.63636363636
2.98507462687
4.0
4.0
2.30769230769
3.84615384615
4.16666666667
0.833333333333
1.25
2.30769230769
1.66666666667
1.0
5.0
0.909090909091
2.85714285714
1.25
2.5
1.0
2.5
5.29411764706
2.5
3.0
2.72727272727
3.57142857143
1.17647058824
3.33333333333
2.35294117647
4.0
3.33333333333
3.33333333333
1.53846153846
3.80952380952
3.07692307692
3.33333333333
2.14285714286
2.14285714286
2.5
0.909090909091
1.53846153846
4.0
2.5
1.33333333333
4.16666666667
2.14285714286
2.14285714286
4.0
2.30769230769
2.72727272727
2.0
3.33333333333
1.81818181818
3.57142857143
3.75
3.33333333333
2.85714285714
1.875
3.0
1.25
3.63636363636
3.07692307692
4.54545454545
2.30769230769
3.63636363636
2.5
2.5
1.81818181818
4.66666666667
3.0
1.33333333333
4.0
3.07692307692
4.0
2.30769230769
3.75
2.85714285714
0
3.07692307692
2.14285714286
1.875
5.0
3.84615384615
3.33333333333
4.34782608696
4.0
1.66666666667
5.0
1.53846153846
2.30769230769
3.84615384615
0
1.17647058824
3.33333333333
5.0
3.5
3.07692307692
5.0
3.33333333333
5.29411764706
1.33333333333
2.5
2.14285714286
3.125
3.75
3.33333333333
3.84615384615
1.11111111111
2.22222222222
0
2.85714285714
4.0
3.0
3.33333333333
5.0
4.16666666667
3.57142857143
0.833333333333
1.81818181818
3.63636363636
3.07692307692
1.81818181818
2.72727272727
3.07692307692
2.85714285714
0
1.53846153846
2.30769230769
1.66666666667
2.85714285714
3.84615384615
3.125
4.0
0
3.33333333333
0
4.61538461538
4.0
2.72727272727
1.66666666667
3.63636363636
3.63636363636
3.75
3.33333333333
2.85714285714
2.85714285714
4.375
2.5
0.909090909091
1.11111111111
3.0
2.72727272727
5.0
0.769230769231
2.0
2.0
1.42857142857
1.81818181818
1.81818181818
2.72727272727
3.07692307692
3.0
4.16666666667
0.625
3.33333333333
2.5
0
3.75
3.33333333333
1.0
3.125
0
3.33333333333
3.63636363636
3.33333333333
1.53846153846
4.28571428571
5.0
2.30769230769
2.72727272727
3.84615384615
4.16666666667
3.07692307692
3.33333333333
2.30769230769
4.16666666667
1.0
3.33333333333
3.63636363636
3.84615384615
4.0
4.16666666667
0.909090909091
3.63636363636
3.77358490566
3.75
4.16666666667
1.66666666667
2.30769230769
3.0
0.833333333333
4.13793103448
3.0
0.909090909091
1.42857142857
4.66666666667
4.54545454545
2.85714285714
3.57142857143
3.63636363636
3.84615384615
2.94117647059
4.66666666667
2.77777777778
4.66666666667
2.77777777778
4.16666666667
3.75
2.72727272727
3.125
3.0
2.0
1.81818181818
3.84615384615
4.0
3.33333333333
2.77777777778
3.33333333333
2.14285714286
3.07692307692
3.07692307692
0
4.28571428571
4.375
2.5
2.0
3.07692307692
4.11764705882
7.85714285714
3.75
2.72727272727
4.0
3.84615384615
1.0
1.66666666667
2.5
1.875
3.84615384615
4.0
3.07692307692
3.07692307692
2.0
2.5
0
2.5
3.07692307692
3.33333333333
0
2.72727272727
2.66666666667
2.0
3.84615384615
3.07692307692
2.5
3.75
0.714285714286
1.53846153846
1.11111111111
2.5
3.84615384615
0
2.5
3.0
3.125
4.0
4.0
1.33333333333
3.33333333333
4.0
3.63636363636
3.33333333333
3.33333333333
4.61538461538
4.375
2.5
3.63636363636
1.66666666667
4.0
4.16666666667
4.16666666667
2.0
3.33333333333
4.16666666667
3.75
3.88888888889
2.85714285714
0.769230769231
3.75
0
1.81818181818
3.0
0.833333333333
2.30769230769
2.14285714286
10.6666666667
3.57142857143
3.07692307692
3.57142857143
4.16666666667
3.07692307692
1.66666666667
2.5
4.16666666667
4.16666666667
1.33333333333
2.30769230769
4.44444444444
4.0
0.909090909091
4.0
4.0
4.0
1.25
1.875
2.72727272727
1.81818181818
2.0
2.0
3.75
4.0
4.0
3.0
2.30769230769
4.0
0.909090909091
3.38983050847
3.33333333333
3.33333333333
2.30769230769
3.63636363636
1.66666666667
0
4.0
3.15789473684
3.63636363636
2.30769230769
3.33333333333
4.54545454545
2.94117647059
4.28571428571
2.72727272727
3.63636363636
2.72727272727
0.714285714286
0.833333333333
2.72727272727
3.0
2.5
4.70588235294
1.42857142857
3.57142857143
4.16666666667
3.33333333333
0.769230769231
4.0
5.0
3.33333333333
2.35294117647
4.0
1.25
4.54545454545
2.66666666667
2.72727272727
4.0
3.84615384615
1.42857142857
1.81818181818
3.63636363636
3.33333333333
0
1.05263157895
2.5
2.0
2.63157894737
1.875
3.33333333333
2.0
3.07692307692
2.0
2.14285714286
0
3.57142857143
2.5
3.0
4.61538461538
5.0
4.44444444444
3.0
4.0
3.63636363636
4.16666666667
5.0
3.33333333333
4.66666666667
3.84615384615
4.0
2.5
3.33333333333
3.63636363636
3.0
1.0
2.14285714286
4.0
4.16666666667
0
2.14285714286
2.5
4.54545454545
5.0
0
4.61538461538
2.85714285714
3.07692307692
3.57142857143
3.75
3.57142857143
2.22222222222
2.5
4.54545454545
4.28571428571
4.54545454545
4.44444444444
4.44444444444
1.81818181818
2.72727272727
4.54545454545
2.14285714286
5.38461538462
3.33333333333
3.33333333333
3.33333333333
1.81818181818
3.84615384615
4.54545454545
2.0
1.53846153846
0.909090909091
4.54545454545
1.5
1.90476190476
2.85714285714
3.52941176471
5.0
2.66666666667
3.63636363636
1.42857142857
4.28571428571
4.28571428571
3.0
1.76470588235
3.33333333333
2.5
0.909090909091
2.85714285714
4.16666666667
3.84615384615
4.16666666667
3.84615384615
5.0
2.5
3.75
3.57142857143
3.0
2.5
3.63636363636
1.53846153846
4.0
4.16666666667
3.63636363636
3.07692307692
2.85714285714
4.61538461538
4.44444444444
1.53846153846
2.85714285714
2.5
3.0
3.75
2.85714285714
4.0
4.0
2.72727272727
2.5
2.22222222222
1.0
3.07692307692
2.0
3.33333333333
4.28571428571
3.63636363636
4.0
2.30769230769
3.33333333333
3.33333333333
5.0
0.909090909091
0
3.57142857143
2.85714285714
3.33333333333
0.714285714286
3.33333333333
3.33333333333
5.0
4.0
0.714285714286
3.33333333333
2.14285714286
2.5
4.0
4.28571428571
3.07692307692
4.16666666667
4.16666666667
1.53846153846
3.75
3.63636363636
1.66666666667
3.0
2.30769230769
1.66666666667
2.66666666667
1.53846153846
4.32989690722
2.14285714286
3.125
3.07692307692
0.909090909091
4.0
4.34782608696
4.0
2.5
2.72727272727
3.57142857143
3.33333333333
4.28571428571
1.17647058824
4.54545454545
1.25
1.81818181818
0.909090909091
1.81818181818
2.5
3.33333333333
3.33333333333
2.85714285714
4.0
4.28571428571
3.63636363636
2.5
3.63636363636
1.53846153846
5.0
2.5
5.45454545455
1.66666666667
4.16666666667
3.33333333333
4.70588235294
2.0
3.52941176471
2.5
5.0
2.35294117647
5.0
2.0
3.33333333333
3.07692307692
2.5
0.833333333333
3.125
3.07692307692
3.63636363636
3.75
4.0
3.33333333333
3.57142857143
3.0
5.0
2.72727272727
3.33333333333
4.54545454545
1.66666666667
4.54545454545
2.5
2.22222222222
4.61538461538
3.88888888889
2.14285714286
4.0
2.35294117647
2.14285714286
3.88888888889
0
3.63636363636
3.75
2.85714285714
3.125
3.84615384615
3.33333333333
3.84615384615
2.0
3.52941176471
3.84615384615
4.16666666667
3.73001776199
0.833333333333
3.75
2.72727272727
3.84615384615
3.0
2.0
5.0
4.66666666667
2.0
3.84615384615
2.0
3.33333333333
3.84615384615
3.84615384615
3.07692307692
4.28571428571
2.5
2.0
2.72727272727
5.0
3.88888888889
2.72727272727
5.0
2.94117647059
2.77777777778
1.53846153846
2.72727272727
3.63636363636
1.0
0
1.66666666667
3.33333333333
3.84615384615
2.72727272727
3.0
5.0
2.0
3.33333333333
4.0
0.769230769231
4.61538461538
2.5
3.84615384615
1.81818181818
4.0
3.57142857143
4.16666666667
2.85714285714
3.63636363636
2.22222222222
2.0
4.0
4.28571428571
2.30769230769
2.0
4.16666666667
5.0
2.72727272727
3.07692307692
2.77777777778
4.0
2.14285714286
3.84615384615
0
0.666666666667
4.44444444444
4.54545454545
3.07692307692
1.11111111111
4.61538461538
0
4.0
3.33333333333
1.53846153846
5.0
1.81818181818
1.66666666667
1.66666666667
3.84615384615
3.07692307692
2.72727272727
1.81818181818
3.33333333333
3.57142857143
3.63636363636
3.84615384615
3.63636363636
2.22222222222
3.8961038961
4.54545454545
0.833333333333
2.5
