3.16227766017
1.53093108924
3.60843918244
1.875
0.0
1.88982236505
1.2598815767
1.82574185835
2.5
4.33012701892
1.66666666667
0.625
2.98807152334
0.845154254729
1.82574185835
3.34076552391
3.08606699924
3.57142857143
2.39045721867
2.85714285714
2.39045721867
1.33630620956
3.33333333333
2.0
0.912870929175
4.12478955692
0.77151674981
2.58198889747
3.57142857143
2.85714285714
3.125
2.14285714286
0.0
3.125
4.22577127364
1.67705098312
2.85714285714
3.60843918244
3.14970394174
2.98807152334
4.12478955692
1.58113883008
3.57142857143
3.38061701891
2.59437260831
0.912870929175
3.57217254156
1.66666666667
2.67261241912
3.53553390593
2.2360679775
2.31455024943
2.31455024943
2.00445931434
3.08606699924
3.0
2.85714285714
3.06970306757
0.721687836487
3.75
0.77151674981
1.2598815767
2.51259453815
1.58113883008
2.98142397
5.0
2.10818510678
2.51976315339
2.67261241912
1.11111111111
1.19522860933
4.00891862869
0.721687836487
2.53546276419
3.98862017609
1.43019388387
4.472135955
4.28571428571
2.37170824513
3.43203236492
2.94627825494
2.63523138347
0.77151674981
2.51976315339
3.5
2.53546276419
2.88675134595
2.88675134595
4.28571428571
2.40192230708
3.0
1.58113883008
3.08606699924
1.05409255339
1.42857142857
0.845154254729
0.77151674981
4.40958551844
0.721687836487
3.33333333333
0.707106781187
1.875
1.5
4.71404520791
3.5
2.22222222222
1.58113883008
1.0
2.72165526976
3.60843918244
1.875
3.14970394174
1.25
1.13227703414
2.51976315339
1.17851130198
1.19522860933
1.44337567297
1.42857142857
2.51259453815
2.85714285714
3.38061701891
0.476731294623
1.58113883008
2.04124145232
2.79508497187
1.54303349962
3.75
2.37170824513
3.67423461417
0.790569415042
0.0
3.33333333333
2.22222222222
1.42857142857
3.98755829023
4.29058165161
0.0
3.08606699924
2.00445931434
0.912870929175
3.33333333333
1.58113883008
0.0
1.66666666667
2.31455024943
2.5
2.0
2.00445931434
3.33333333333
4.12478955692
3.08606699924
4.00891862869
0.0
1.54303349962
2.88675134595
1.17851130198
0.714285714286
3.33333333333
4.375
2.94627825494
1.490711985
1.17851130198
3.34076552391
1.02062072616
2.22222222222
1.33630620956
2.5
1.36930639376
2.73861278753
4.10791918129
2.46182981959
3.85758374905
1.66666666667
1.11803398875
1.58113883008
3.4020690872
2.35702260396
0.0
1.11803398875
2.14285714286
1.67705098312
2.98807152334
2.5
3.57142857143
1.54303349962
4.33012701892
1.02062072616
3.2232918561
4.08248290464
2.79508497187
2.85714285714
3.92232270276
1.88982236505
1.42857142857
4.33012701892
1.25
3.75
3.916747259
3.125
0.0
4.22577127364
1.17851130198
1.88982236505
2.16506350946
3.08606699924
3.07728727448
2.5
1.58113883008
1.36082763488
0.912870929175
2.00445931434
3.16227766017
1.44337567297
0.714285714286
1.2598815767
3.34076552391
2.85714285714
1.792842914
1.66666666667
1.84637236469
4.33012701892
2.0
3.125
4.26401432711
3.125
1.66666666667
1.66666666667
0.0
0.0
2.04124145232
2.85714285714
3.85758374905
0.845154254729
3.55023473402
0.77151674981
3.14970394174
2.67261241912
3.48155311911
2.37170824513
2.53546276419
1.44337567297
3.08606699924
0.0
0.0
2.77777777778
1.54303349962
1.792842914
3.03488489333
1.76776695297
2.5
2.67261241912
3.08606699924
4.08248290464
2.73861278753
1.84637236469
1.54303349962
3.60288346061
1.54303349962
3.85758374905
3.60843918244
1.30558241967
4.00891862869
2.98807152334
1.2598815767
2.5
3.6514837167
0.589255650989
1.82574185835
1.66666666667
2.13200716356
3.77964473009
2.04124145232
0.0
3.33333333333
0.845154254729
3.33333333333
0.0
2.00445931434
2.5
4.472135955
2.94627825494
3.75
2.94627825494
3.75
2.31455024943
3.08606699924
0.0
3.4020690872
1.17851130198
3.7267799625
3.0
4.33012701892
1.792842914
2.01007563052
3.4020690872
2.5
1.33630620956
3.0
2.14285714286
2.67261241912
3.57142857143
0.668153104781
2.01801838199
2.5
2.85714285714
2.0
2.67261241912
1.36082763488
2.16506350946
0.77151674981
1.0
2.0
2.16506350946
2.18217890236
1.76776695297
3.36787657027
2.5
1.82574185835
3.75
3.6514837167
2.72165526976
4.22577127364
3.22748612184
4.16025147169
4.52267016867
0.845154254729
2.5
2.39045721867
2.72727272727
3.4020690872
2.5
1.41736677378
0.68041381744
3.08606699924
2.00445931434
1.33630620956
1.875
1.17851130198
1.44337567297
3.22748612184
3.0
1.36082763488
3.33333333333
3.53553390593
2.79508497187
3.75
2.72165526976
2.2360679775
2.79508497187
3.85758374905
3.60843918244
1.82574185835
3.77964473009
1.76776695297
0.0
4.16666666667
1.30558241967
3.57142857143
1.05409255339
4.12478955692
3.4020690872
2.46182981959
2.22222222222
1.9364916731
1.82574185835
3.16227766017
2.94627825494
0.0
2.04124145232
2.51976315339
1.792842914
2.77777777778
0.68041381744
0.77151674981
2.31455024943
1.11803398875
2.2360679775
2.65165042945
3.5
2.31455024943
0.0
3.16227766017
2.31455024943
1.69030850946
2.35702260396
0.629940788349
4.67707173347
3.33333333333
2.5
1.11803398875
3.4020690872
0.714285714286
2.51976315339
2.00445931434
2.67261241912
1.69030850946
0.77151674981
2.14285714286
2.79508497187
1.96116135138
3.34076552391
1.74077655956
0.833333333333
3.53553390593
1.88982236505
0.0
1.63663417677
3.81385035698
0.707106781187
1.66666666667
3.81385035698
1.41421356237
2.31455024943
1.33630620956
2.98142397
1.84900065408
2.5
2.5
1.60128153805
3.11804782231
3.34076552391
2.94627825494
0.527046276695
1.67705098312
1.82574185835
2.88675134595
1.44337567297
1.41421356237
3.4020690872
0.597614304667
1.44337567297
0.668153104781
3.125
1.54303349962
4.71404520791
3.67883603691
0.912870929175
2.31455024943
2.65165042945
0.714285714286
2.0
1.58113883008
3.57142857143
1.69030850946
0.833333333333
3.0
0.476731294623
4.02015126104
2.83473354757
2.69679944985
2.31455024943
3.01511344578
0.0
2.77777777778
1.36082763488
1.44337567297
2.13200716356
2.79508497187
2.86038776774
1.36082763488
3.5
3.16227766017
3.22748612184
3.53553390593
3.38061701891
3.33333333333
1.69030850946
4.00891862869
3.77964473009
1.05409255339
2.98807152334
0.833333333333
1.42857142857
1.66666666667
4.54545454545
2.94627825494
2.27921152919
2.2360679775
3.08606699924
0.714285714286
3.43203236492
0.50251890763
4.28571428571
1.88982236505
1.9364916731
2.88675134595
1.792842914
2.77777777778
4.28571428571
3.60843918244
1.23091490979
0.0
0.845154254729
2.2360679775
2.5
4.00891862869
2.85714285714
3.53553390593
1.54303349962
3.0
1.875
2.31455024943
0.0
0.668153104781
3.08606699924
0.721687836487
2.53546276419
4.18330013267
0.629940788349
3.4020690872
3.41881729379
2.5
3.14970394174
1.63663417677
0.0
1.59900537267
1.82574185835
2.53546276419
4.24264068712
1.875
1.490711985
3.33333333333
3.63803437554
0.0
0.0
1.58113883008
0.845154254729
0.962250448649
2.35702260396
0.0
3.08606699924
0.0
3.33333333333
0.668153104781
4.08248290464
1.82574185835
2.13200716356
2.67261241912
1.58113883008
2.39045721867
2.14285714286
2.73861278753
2.00445931434
3.33333333333
4.0
1.0
1.02062072616
2.51976315339
3.16227766017
2.19264504827
2.0
1.78174161275
1.2598815767
3.4020690872
3.35410196625
2.04124145232
3.57142857143
2.94627825494
4.00891862869
3.2025630761
2.53546276419
3.33333333333
2.67261241912
1.20873444604
0.668153104781
2.73861278753
2.53546276419
1.67705098312
2.58198889747
3.14970394174
1.54303349962
1.54303349962
2.88675134595
0.589255650989
3.60843918244
3.33333333333
4.00891862869
1.11111111111
4.40958551844
1.17851130198
1.66666666667
0.0
1.44337567297
1.875
2.5
2.5
0.0
1.58113883008
0.589255650989
1.84637236469
1.69030850946
2.51976315339
2.04124145232
2.14285714286
2.31455024943
0.833333333333
2.88675134595
0.555555555556
2.16506350946
2.14285714286
4.0
3.125
2.14285714286
3.14970394174
2.51976315339
2.86038776774
2.51259453815
3.6514837167
3.4020690872
1.76776695297
2.94627825494
3.33333333333
1.29099444874
1.42857142857
4.00891862869
2.51976315339
1.59900537267
3.19801074533
4.4020438924
1.17851130198
0.559016994375
3.69800130817
3.51763235341
0.912870929175
1.69030850946
2.73861278753
1.875
1.0
3.97058823529
1.33630620956
4.00891862869
2.73861278753
2.0
0.77151674981
3.34076552391
0.936585811582
1.70940864689
0.0
1.54303349962
0.527046276695
1.02062072616
1.11803398875
2.04124145232
1.875
1.29099444874
1.54303349962
0.533001790889
0.0
1.69030850946
3.6514837167
3.35410196625
0.0
2.51259453815
1.0
2.73861278753
2.5
1.54303349962
3.77964473009
2.39045721867
1.54303349962
3.77964473009
0.0
3.34076552391
3.75
2.31455024943
1.58113883008
3.60843918244
2.85714285714
2.53546276419
1.44337567297
3.34076552391
3.22748612184
3.06186217848
0.418121005004
0.77151674981
1.88982236505
1.9641855033
3.57142857143
3.53553390593
3.7267799625
1.58113883008
0.721687836487
0.625
2.14285714286
2.98807152334
2.35702260396
1.44337567297
3.5
1.11803398875
3.33333333333
1.33630620956
0.0
2.72165526976
0.77151674981
3.35410196625
0.68041381744
4.18330013267
2.94627825494
2.13200716356
2.98807152334
3.85758374905
2.88675134595
3.33333333333
2.04124145232
2.67261241912
1.54303349962
2.31455024943
0.597614304667
1.88982236505
2.73861278753
0.800640769025
1.82574185835
2.00445931434
0.589255650989
0.77151674981
2.73861278753
1.63299316186
3.89249472081
3.0
3.81385035698
3.125
1.54303349962
1.82574185835
1.54303349962
0.0
4.28571428571
3.0
0.668153104781
4.0
2.04124145232
2.84267621807
0.912870929175
1.33630620956
2.14285714286
3.14970394174
3.77964473009
3.85758374905
3.6514837167
1.54303349962
0.721687836487
1.33630620956
2.16506350946
2.84901441149
3.85758374905
3.30289129538
3.33333333333
2.63523138347
3.06186217848
2.66500895445
3.85758374905
2.73861278753
2.5
2.31455024943
2.79508497187
3.73101253622
0.668153104781
1.59900537267
3.53553390593
3.6514837167
4.62910049886
3.6514837167
2.5
1.76776695297
2.00445931434
3.33333333333
3.08606699924
4.16666666667
3.33333333333
2.98142397
2.51976315339
2.73861278753
2.38365647311
0.527046276695
1.9364916731
3.08606699924
4.26401432711
3.35410196625
3.75
4.28571428571
0.714285714286
1.42857142857
3.34076552391
2.16506350946
1.82574185835
3.38061701891
3.77964473009
2.94627825494
2.2360679775
1.76776695297
2.72165526976
3.75
2.51976315339
2.98807152334
3.75
0.559016994375
1.66666666667
3.87298334621
1.875
1.88982236505
3.08606699924
0.721687836487
1.66666666667
1.42857142857
0.714285714286
1.33630620956
2.22222222222
0.790569415042
2.35702260396
0.912870929175
2.04124145232
0.0
3.01511344578
4.12478955692
1.44337567297
2.88675134595
3.125
2.94627825494
1.36930639376
3.06186217848
2.10818510678
4.12478955692
2.2360679775
4.0
0.0
2.61116483934
2.00445931434
3.19801074533
1.76776695297
2.88675134595
1.36930639376
1.84637236469
1.25
2.84901441149
3.34076552391
1.74077655956
2.79508497187
2.2360679775
1.25
4.08248290464
2.67261241912
1.66666666667
1.13227703414
3.6514837167
0.77151674981
1.2598815767
3.6514837167
2.94627825494
2.27921152919
1.04828483672
3.0
0.867109969524
2.31455024943
2.02259958739
4.62910049886
2.00445931434
2.00445931434
2.88675134595
1.36082763488
1.70940864689
2.22222222222
3.08606699924
1.25
4.16666666667
3.33333333333
3.68932393686
2.00445931434
3.5
1.33630620956
0.0
3.34076552391
1.33630620956
0.0
4.28571428571
3.585685828
0.668153104781
4.13670151996
2.37170824513
1.76776695297
4.16666666667
1.88982236505
2.67261241912
2.5
0.845154254729
0.50251890763
2.2360679775
4.18330013267
1.85312329165
2.67261241912
1.42857142857
3.08606699924
4.29058165161
0.625
2.31455024943
2.39045721867
2.27921152919
3.125
2.16506350946
3.57142857143
0.912870929175
1.69030850946
0.597614304667
2.85714285714
3.33333333333
0.845154254729
3.57142857143
3.57142857143
3.4020690872
2.67261241912
0.77151674981
1.66666666667
1.54303349962
3.34076552391
0.912870929175
3.53553390593
2.72165526976
1.66666666667
0.668153104781
1.2598815767
1.88982236505
1.36082763488
3.33333333333
0.668153104781
1.63663417677
3.35410196625
1.11803398875
3.75
0.0
3.34076552391
1.58113883008
3.08606699924
1.19522860933
2.88675134595
3.85758374905
4.0
3.33333333333
1.05409255339
3.63636363636
1.19522860933
2.16506350946
1.33630620956
1.36930639376
2.16506350946
1.58113883008
3.57142857143
0.625
1.69030850946
2.10818510678
1.19522860933
2.04124145232
1.88982236505
3.16227766017
3.81385035698
3.0
1.42857142857
0.527046276695
2.63523138347
0.721687836487
0.0
3.19801074533
3.75
1.54303349962
3.06186217848
0.0
3.38061701891
3.85758374905
2.5
1.29099444874
3.75734574651
3.22748612184
1.54303349962
2.53546276419
2.35702260396
4.00891862869
1.88982236505
3.5
1.84637236469
0.68041381744
0.0
2.5
2.85714285714
2.67261241912
3.0
3.34076552391
1.54303349962
2.85714285714
2.31455024943
4.0
4.28571428571
0.7453559925
1.42857142857
2.5
0.714285714286
1.82574185835
3.33333333333
0.0
1.33630620956
4.21637021356
4.00891862869
2.00445931434
4.0
2.88675134595
2.51976315339
2.61488180184
4.26401432711
1.66666666667
3.04635897922
1.90692517849
4.33012701892
3.35410196625
2.37170824513
2.18217890236
1.66666666667
0.625
2.31455024943
3.85758374905
2.5
5.0
2.08333333333
3.57142857143
2.2360679775
1.76776695297
4.375
0.0
2.85714285714
4.09090909091
1.43019388387
0.0
2.00445931434
4.21637021356
3.33711906236
2.94627825494
2.00445931434
2.73861278753
2.00445931434
0.0
1.2598815767
2.79508497187
1.9364916731
3.14970394174
3.33333333333
1.1396057646
2.35702260396
2.01007563052
2.09656967344
0.0
2.51976315339
2.67261241912
3.33333333333
0.0
3.53553390593
2.11288563682
0.625
3.08606699924
3.34076552391
2.0
3.0
1.17851130198
1.88982236505
1.69030850946
2.11288563682
2.12132034356
0.645497224368
1.78174161275
1.82574185835
2.61116483934
3.77964473009
3.36787657027
1.43019388387
1.76776695297
2.0
0.714285714286
2.88675134595
3.75
3.77964473009
3.57217254156
1.33630620956
2.31455024943
2.16506350946
3.68932393686
2.14285714286
3.16227766017
2.38365647311
2.01007563052
3.60843918244
1.82574185835
3.33711906236
3.48155311911
0.668153104781
3.75
1.17851130198
2.00445931434
2.5
1.33630620956
1.76776695297
2.35702260396
2.00445931434
1.33630620956
2.98807152334
3.68932393686
4.28571428571
2.2360679775
0.77151674981
1.36082763488
3.60843918244
4.40958551844
1.76776695297
1.25
3.38061701891
3.77964473009
0.77151674981
3.33333333333
3.33711906236
4.0
0.0
1.58113883008
2.31455024943
2.63523138347
1.76776695297
1.792842914
3.39683110243
2.85714285714
2.94627825494
2.53546276419
1.88982236505
3.33333333333
0.77151674981
1.44337567297
2.73861278753
3.60843918244
2.35702260396
1.44337567297
1.44337567297
1.25
0.845154254729
2.95803989155
2.85714285714
2.5
3.75
3.85758374905
2.5
4.56435464588
2.31455024943
2.31455024943
2.85714285714
0.629940788349
1.25
0.674199862463
2.53546276419
1.84900065408
3.0
1.44337567297
3.125
4.00891862869
1.875
1.11803398875
2.73861278753
1.25
3.57142857143
2.27272727273
4.16666666667
1.00503781526
3.85758374905
2.35702260396
2.31455024943
4.08248290464
3.53553390593
0.0
2.16506350946
4.12478955692
1.88982236505
0.0
0.0
2.14285714286
1.69030850946
2.20970869121
0.589255650989
3.5
1.59900537267
2.94627825494
2.13200716356
2.2360679775
0.625
2.94627825494
1.69030850946
2.73861278753
0.77151674981
1.66666666667
2.73861278753
2.73861278753
1.82574185835
3.08606699924
2.12132034356
3.75
3.34076552391
3.14970394174
2.00445931434
2.72165526976
1.875
3.38061701891
3.34076552391
3.77964473009
0.0
2.14285714286
2.73861278753
0.77151674981
0.0
1.17851130198
2.2360679775
2.85714285714
0.912870929175
0.0
3.08606699924
3.01511344578
1.88982236505
1.76776695297
3.0
3.91311896062
1.82574185835
2.15165741456
2.31455024943
2.67261241912
3.33333333333
1.66666666667
3.6514837167
2.14285714286
2.53546276419
3.585685828
1.57242725508
3.34076552391
3.125
3.75
2.83473354757
0.615457454897
2.67261241912
3.85758374905
1.33630620956
2.00445931434
0.77151674981
0.912870929175
1.01129979369
1.0
2.67261241912
3.01511344578
3.38061701891
1.9518001459
3.33333333333
1.88982236505
4.00891862869
3.53553390593
1.44337567297
1.63299316186
2.88675134595
2.53546276419
0.721687836487
1.50755672289
2.85714285714
4.00891862869
3.60843918244
2.77777777778
4.16666666667
2.5
4.0
4.00891862869
3.33333333333
2.72165526976
2.53546276419
1.36082763488
2.31455024943
4.12478955692
3.08606699924
1.36082763488
2.16506350946
1.69030850946
3.35410196625
1.25
2.22222222222
2.31455024943
1.66666666667
3.50823207723
1.70940864689
2.73861278753
4.40958551844
3.125
1.00503781526
1.69030850946
0.438529009654
2.2360679775
0.0
2.2360679775
3.63636363636
2.53546276419
4.0
2.67261241912
3.57142857143
2.31455024943
0.833333333333
0.77151674981
0.0
2.94627825494
1.58113883008
3.57142857143
0.714285714286
3.34076552391
3.35410196625
2.5
2.94627825494
0.629940788349
3.75
1.17851130198
2.63523138347
3.6514837167
3.75
2.94627825494
3.33333333333
3.60843918244
1.88982236505
2.2360679775
2.31455024943
1.76776695297
2.0
1.875
0.77151674981
1.44337567297
2.01007563052
1.25
2.00445931434
2.51259453815
2.79508497187
1.25
3.5
3.75
3.33333333333
2.10818510678
3.08606699924
3.35410196625
2.51259453815
3.125
1.00503781526
1.54303349962
1.1396057646
2.39045721867
0.833333333333
2.79508497187
2.12132034356
1.67705098312
3.14970394174
1.76776695297
4.16666666667
3.53553390593
2.53546276419
2.14285714286
2.53546276419
2.00445931434
3.33333333333
3.0
4.33012701892
0.77151674981
2.88675134595
0.0
4.21637021356
1.02062072616
3.46153846154
1.59900537267
1.875
0.944911182523
4.00891862869
0.589255650989
2.5
1.9364916731
2.85714285714
0.0
2.85714285714
2.77777777778
3.85758374905
1.38675049056
2.00445931434
2.31455024943
3.57142857143
2.72165526976
1.0
1.82574185835
3.91311896062
3.60843918244
1.54303349962
4.67707173347
1.875
1.82574185835
3.08606699924
2.73861278753
1.67705098312
4.12478955692
2.28217732294
2.35702260396
3.12018860377
0.645497224368
3.85758374905
3.75
3.01511344578
1.59900537267
4.21637021356
3.6514837167
3.85758374905
1.82574185835
3.30718913883
3.41881729379
2.77777777778
3.70328039909
0.77151674981
3.0
2.88675134595
3.68932393686
3.08606699924
1.88982236505
4.0
1.58113883008
0.533001790889
1.88982236505
2.0
2.00445931434
4.08248290464
2.5
2.00445931434
2.85714285714
1.11111111111
2.35702260396
2.2360679775
2.5
4.16025147169
2.69679944985
1.25
1.42857142857
3.0
0.668153104781
2.16506350946
1.82574185835
1.66666666667
0.505076272276
1.11111111111
1.875
3.4020690872
0.790569415042
2.84901441149
1.66666666667
1.792842914
2.31455024943
3.95284707521
0.668153104781
2.14285714286
2.2360679775
2.5
1.58113883008
0.589255650989
3.85758374905
4.44444444444
2.85714285714
3.95284707521
0.912870929175
1.17851130198
2.53546276419
3.68932393686
1.76776695297
4.33012701892
3.125
0.833333333333
2.31455024943
2.94627825494
1.75411603861
2.27921152919
1.9364916731
2.61116483934
0.0
1.33630620956
4.62910049886
2.85714285714
3.35410196625
2.31455024943
4.00891862869
0.0
3.41881729379
0.721687836487
1.11111111111
4.67707173347
0.845154254729
0.721687836487
1.44337567297
3.34076552391
2.67261241912
2.16506350946
0.833333333333
2.72772362795
2.94627825494
3.08606699924
2.63523138347
3.08606699924
0.845154254729
0.714285714286
4.22577127364
0.0
1.33630620956
