3.33333333333
0
2.22222222222
3.63636363636
1.66666666667
3.15789473684
3.63636363636
4.0
4.32989690722
3.33333333333
4.0
1.33333333333
4.16666666667
0.714285714286
3.57142857143
4.0
4.61538461538
2.30769230769
4.61538461538
3.75
2.5
3.75
3.75
4.0
2.0
3.33333333333
5.0
0
1.76470588235
4.54545454545
3.1746031746
3.33333333333
2.85714285714
1.81818181818
3.63636363636
3.75
2.72727272727
1.57894736842
2.0
3.57142857143
1.81818181818
3.07692307692
4.61538461538
2.35294117647
3.84615384615
0.833333333333
1.81818181818
1.33333333333
4.28571428571
2.85714285714
3.33333333333
3.84615384615
3.75
2.85714285714
2.85714285714
0
3.84615384615
3.68421052632
4.28571428571
2.22222222222
2.5
3.84615384615
4.61538461538
4.54545454545
2.77777777778
1.81818181818
4.28571428571
4.44444444444
3.63636363636
3.33333333333
4.16666666667
4.44444444444
3.63636363636
2.72727272727
2.22222222222
3.75
3.33333333333
3.75
2.0
4.44444444444
2.66666666667
2.98507462687
4.0
1.42857142857
2.72727272727
2.5
4.0
4.0
1.66666666667
2.14285714286
1.0
2.94117647059
2.85714285714
2.72727272727
2.5
2.85714285714
3.125
4.08163265306
3.63636363636
4.28571428571
2.5
4.28571428571
3.33333333333
4.0
1.53846153846
3.63636363636
4.28571428571
2.66666666667
3.07692307692
3.15789473684
3.33333333333
4.28571428571
4.16666666667
3.52941176471
3.0
3.33333333333
3.75
3.33333333333
5.0
1.25
3.68421052632
2.77777777778
3.75
2.30769230769
1.25
3.75
3.125
3.52941176471
3.33333333333
3.07692307692
3.75
4.16666666667
3.125
0.666666666667
3.0
3.0
4.28571428571
3.33333333333
0
2.5
0.909090909091
1.0
1.875
3.33333333333
2.72727272727
2.72727272727
2.72727272727
4.44444444444
3.84615384615
3.07692307692
2.14285714286
3.0
4.61538461538
3.63636363636
3.75
3.15789473684
3.63636363636
0
3.84615384615
0
4.0
4.0
3.84615384615
3.33333333333
0
2.5
3.33333333333
3.88888888889
3.07692307692
3.33333333333
5.0
1.42857142857
2.66666666667
2.5
2.5
3.33333333333
3.7037037037
3.07692307692
2.66666666667
4.44444444444
4.0
3.0
3.33333333333
2.5
4.0
2.94117647059
2.85714285714
4.16666666667
2.81690140845
3.0
3.33333333333
2.85714285714
2.72727272727
4.66666666667
0
3.75
1.33333333333
3.07692307692
1.33333333333
0
4.66666666667
2.85714285714
0.625
4.0
1.66666666667
4.0
2.66666666667
3.0
2.5
2.5
1.875
4.61538461538
3.63636363636
1.875
4.16666666667
3.57142857143
3.75
3.84615384615
3.63636363636
2.53164556962
4.66666666667
3.0
3.0
0.769230769231
3.07692307692
5.0
2.66666666667
4.54545454545
2.72727272727
2.22222222222
4.0
4.0
2.72727272727
0.714285714286
4.44444444444
3.33333333333
2.72727272727
0.909090909091
4.0
3.57142857143
2.5
3.88888888889
0.588235294118
2.30769230769
5.0
0
3.33333333333
4.16666666667
5.0
3.07692307692
3.84615384615
3.33333333333
3.75
1.42857142857
0.909090909091
5.0
3.0
2.66666666667
2.72727272727
0.714285714286
5.0
4.0
2.85714285714
5.0
4.11764705882
2.77777777778
2.17391304348
4.0
3.07692307692
2.94117647059
3.33333333333
2.72727272727
4.0
4.0
2.38095238095
3.84615384615
3.52941176471
3.33333333333
4.0
3.33333333333
4.44444444444
0
1.66666666667
3.33333333333
3.07692307692
3.33333333333
2.63157894737
4.61538461538
2.30769230769
3.0
3.75
4.16666666667
2.5
2.22222222222
3.84615384615
2.94117647059
2.72727272727
3.63636363636
0
3.84615384615
4.28571428571
3.57142857143
3.75
1.93548387097
4.44444444444
3.125
4.0
3.33333333333
3.75
4.16666666667
3.63636363636
0.833333333333
4.16666666667
3.63636363636
2.72727272727
3.33333333333
2.5
3.0
2.85714285714
4.54545454545
0.666666666667
1.0
4.54545454545
4.0
0.714285714286
4.16666666667
2.5
3.84615384615
1.0
3.75
3.33333333333
1.25
3.63636363636
2.30769230769
3.63636363636
4.5
4.54545454545
2.0
4.28571428571
3.125
5.0
2.5
5.0
2.5
2.5
4.28571428571
2.0
2.5
5.0
3.75
4.375
2.5
3.57142857143
1.11111111111
4.44444444444
3.33333333333
2.66666666667
4.66666666667
3.75
3.63636363636
3.38983050847
3.07692307692
2.72727272727
3.0
1.66666666667
3.125
2.30769230769
1.81818181818
0
2.5
0.833333333333
3.84615384615
2.0
2.30769230769
3.63636363636
2.72727272727
4.44444444444
3.33333333333
2.0
1.66666666667
4.54545454545
1.42857142857
4.44444444444
3.07692307692
1.17647058824
3.33333333333
2.72727272727
2.30769230769
3.63636363636
3.07692307692
1.81818181818
3.0
4.0
4.28571428571
2.5
3.33333333333
3.0
3.33333333333
4.21052631579
4.61538461538
3.87096774194
0.909090909091
2.5
5.0
4.54545454545
4.61538461538
3.0
4.22535211268
2.94117647059
2.5
0
4.0
3.125
3.52941176471
3.0
1.66666666667
2.0
3.125
1.53846153846
1.81818181818
3.42857142857
3.57142857143
2.5
0.909090909091
3.0
2.72727272727
3.84615384615
4.54545454545
3.63636363636
3.33333333333
3.7037037037
2.85714285714
2.85714285714
0.833333333333
2.5
1.42857142857
2.72727272727
2.66666666667
4.0
3.33333333333
0.869565217391
2.72727272727
4.16666666667
3.57142857143
4.16666666667
3.75
4.28571428571
1.36363636364
3.63636363636
1.05263157895
4.0
2.72727272727
5.0
0.769230769231
1.53846153846
2.5
0.833333333333
3.75
1.66666666667
3.33333333333
3.33333333333
1.42857142857
5.0
2.22222222222
2.5
0.769230769231
4.61538461538
3.52941176471
4.0
5.0
1.0
1.42857142857
4.54545454545
1.42857142857
3.75
3.33333333333
1.66666666667
2.22222222222
4.0
4.16666666667
4.0
3.63636363636
2.22222222222
3.0
2.14285714286
2.63157894737
0.909090909091
4.16666666667
1.5
3.33333333333
2.5
2.22222222222
3.33333333333
3.33333333333
4.0
2.5
2.72727272727
1.81818181818
0
2.5
3.0
3.75
4.54545454545
3.57142857143
1.81818181818
4.61538461538
2.35294117647
3.63636363636
3.0
3.63636363636
3.75
3.63636363636
3.0
2.72727272727
4.54545454545
2.30769230769
3.63636363636
3.07692307692
2.5
3.75
4.44444444444
3.33333333333
5.0
2.85714285714
2.22222222222
1.66666666667
2.72727272727
1.33333333333
4.0
4.44444444444
4.54545454545
3.33333333333
2.22222222222
3.07692307692
3.52941176471
1.53846153846
4.44444444444
3.33333333333
5.0
4.0
0
2.85714285714
5.0
4.54545454545
3.0
2.66666666667
4.16666666667
4.54545454545
1.0
1.17647058824
2.72727272727
1.81818181818
2.72727272727
3.75
4.11764705882
3.33333333333
0.833333333333
0
1.66666666667
3.15789473684
3.07692307692
3.57142857143
0
3.75
5.0
2.14285714286
2.5
3.33333333333
4.0
0
2.22222222222
3.33333333333
0
1.66666666667
1.875
2.30769230769
3.33333333333
4.28571428571
4.11764705882
4.16666666667
1.36363636364
4.0
0.909090909091
2.5
2.72727272727
2.72727272727
3.33333333333
3.07692307692
3.33333333333
3.33333333333
4.375
0.909090909091
2.22222222222
2.22222222222
3.75
3.0
2.72727272727
3.33333333333
5.0
2.30769230769
1.53846153846
3.84615384615
4.44444444444
4.54545454545
4.0
4.0
2.72727272727
4.0
2.5
2.30769230769
0.666666666667
3.33333333333
3.84615384615
4.0
3.84615384615
2.5
3.63636363636
3.75
4.54545454545
4.0
2.85714285714
2.72727272727
3.84615384615
2.5
0
2.0
1.25
0.769230769231
2.35294117647
1.76470588235
2.5
2.5
3.57142857143
3.33333333333
4.0
4.91803278689
2.85714285714
0
3.57142857143
2.30769230769
2.72727272727
0.555555555556
4.28571428571
2.30769230769
3.33333333333
2.7397260274
1.66666666667
3.33333333333
2.72727272727
4.28571428571
3.33333333333
3.63636363636
3.33333333333
0.625
3.07692307692
3.63636363636
4.54545454545
4.54545454545
2.72727272727
3.33333333333
2.0
2.72727272727
4.0
3.75
3.63636363636
0.769230769231
2.0
2.85714285714
2.14285714286
1.66666666667
2.30769230769
3.18181818182
2.5
3.75
3.33333333333
2.5
1.53846153846
4.16666666667
3.75
2.22222222222
0.714285714286
2.72727272727
2.72727272727
3.57142857143
3.75
2.5
1.875
4.16666666667
3.57142857143
3.125
3.33333333333
5.0
2.63157894737
1.66666666667
2.85714285714
2.30769230769
4.44444444444
2.72727272727
3.75
1.57894736842
3.33333333333
3.63636363636
4.0
3.33333333333
5.0
3.07692307692
2.0
1.33333333333
4.66666666667
1.875
4.16666666667
2.72727272727
2.0
1.33333333333
3.63636363636
3.75
2.5
4.16666666667
0
2.5
4.16666666667
3.63636363636
0
3.0
4.28571428571
1.11111111111
3.33333333333
2.85714285714
4.16666666667
3.0
1.39534883721
4.54545454545
1.76470588235
4.0
3.75
3.33333333333
1.53846153846
2.22222222222
3.84615384615
2.77777777778
3.0
5.0
3.33333333333
1.81818181818
0.588235294118
2.5
2.5
0
0
2.5
1.0
4.44444444444
4.44444444444
2.85714285714
1.66666666667
3.57142857143
2.38095238095
5.0
3.50877192982
4.16666666667
2.5
4.44444444444
4.0
2.92682926829
1.66666666667
2.94117647059
3.0
2.85714285714
0
3.33333333333
4.0
3.57142857143
3.0
1.875
4.16666666667
3.75
3.0
3.33333333333
3.07692307692
2.30769230769
3.0
1.33333333333
1.66666666667
4.0
1.11111111111
2.94117647059
4.0
0.666666666667
1.11111111111
4.28571428571
4.44444444444
2.22222222222
3.0
4.0
2.5
2.0
1.42857142857
0
3.5
0
4.0
2.22222222222
3.33333333333
3.63636363636
4.11764705882
1.875
3.33333333333
1.71428571429
2.0
2.5
1.33333333333
4.54545454545
4.0
2.5
3.33333333333
5.0
2.5
2.77777777778
5.0
4.0
2.0
3.0
3.84615384615
0.769230769231
3.84615384615
3.15789473684
4.0
0.769230769231
2.0
4.0
0
3.75
3.52941176471
0.666666666667
2.94117647059
0.666666666667
0
3.52941176471
1.76470588235
1.66666666667
3.63636363636
2.72727272727
2.30769230769
4.11764705882
3.63636363636
1.66666666667
3.33333333333
4.375
0
2.85714285714
2.72727272727
0
3.0
3.125
3.75
5.0
1.11111111111
3.84615384615
3.33333333333
2.0
3.33333333333
3.33333333333
1.57894736842
1.42857142857
1.11111111111
3.75
0.769230769231
4.21052631579
1.57894736842
2.5
3.84615384615
2.77777777778
0
1.42857142857
3.75
0.909090909091
3.33333333333
3.7037037037
3.07692307692
3.57142857143
2.5
2.72727272727
3.75
1.11111111111
3.0
4.0
3.07692307692
0.909090909091
3.77358490566
3.75
2.22222222222
0
4.54545454545
3.63636363636
4.0
3.33333333333
2.0
3.75
3.52941176471
0.833333333333
4.70588235294
2.0
3.57142857143
3.33333333333
1.11111111111
2.30769230769
2.72727272727
1.66666666667
4.0
1.33333333333
3.33333333333
2.63157894737
3.57142857143
2.5
3.57142857143
2.85714285714
4.44444444444
3.52941176471
3.0
3.33333333333
3.07692307692
3.52941176471
2.0
3.75
3.63636363636
4.54545454545
3.57142857143
1.0
3.75
4.61538461538
1.42857142857
2.85714285714
1.11111111111
2.0
0.869565217391
1.76470588235
3.33333333333
3.88888888889
4.54545454545
3.75
4.21052631579
4.28571428571
3.33333333333
2.5
3.44827586207
1.66666666667
1.53846153846
3.75
2.4
1.42857142857
3.44827586207
4.16666666667
2.22222222222
3.33333333333
2.06896551724
1.81818181818
1.11111111111
4.44444444444
3.57142857143
2.85714285714
3.57142857143
1.81818181818
4.34782608696
2.22222222222
4.44444444444
2.72727272727
2.30769230769
3.84615384615
3.07692307692
2.66666666667
1.81818181818
2.77777777778
2.85714285714
4.28571428571
3.07692307692
3.63636363636
2.85714285714
1.25
1.875
3.33333333333
2.5
4.44444444444
2.0
3.38983050847
0.588235294118
4.375
5.0
2.30769230769
3.125
3.33333333333
3.75
2.0
2.5
0
2.0
3.33333333333
3.92857142857
2.72727272727
2.72727272727
4.54545454545
2.30769230769
3.0
2.72727272727
0
2.5
4.28571428571
1.76470588235
4.16666666667
3.33333333333
3.75
0.833333333333
3.57142857143
2.85714285714
3.33333333333
3.75
3.07692307692
3.52941176471
3.63636363636
2.30769230769
4.28571428571
4.66666666667
3.33333333333
3.75
3.57142857143
2.72727272727
4.0
3.33333333333
3.0
4.44444444444
2.30769230769
1.53846153846
2.66666666667
3.33333333333
3.63636363636
2.85714285714
2.22222222222
3.33333333333
0
3.75
2.0
4.61538461538
3.75
3.84615384615
3.0
3.0
4.61538461538
2.22222222222
1.11111111111
3.63636363636
4.0
4.28571428571
3.57142857143
1.81818181818
3.33333333333
0.625
1.42857142857
2.94117647059
3.88888888889
3.07692307692
2.85714285714
4.54545454545
3.63636363636
4.16666666667
2.85714285714
2.30769230769
2.85714285714
2.72727272727
4.44444444444
4.375
3.75
3.0
3.33333333333
2.5
2.0
2.5
0.909090909091
3.33333333333
1.25
5.0
0.625
3.52941176471
3.33333333333
3.84615384615
4.54545454545
4.0
3.84615384615
3.125
3.63636363636
1.17647058824
3.0
2.35294117647
0
2.0
3.0
4.0
3.33333333333
0
2.94117647059
0.909090909091
3.33333333333
2.5
4.28571428571
3.07692307692
2.72727272727
3.84615384615
0.769230769231
4.0
2.5
3.0
2.72727272727
4.28571428571
3.63636363636
3.75
4.16666666667
0.909090909091
2.72727272727
3.0
2.77777777778
2.14285714286
4.44444444444
3.33333333333
5.0
3.84615384615
3.15789473684
2.63157894737
4.66666666667
2.85714285714
2.94117647059
3.63636363636
2.72727272727
3.33333333333
2.77777777778
4.28571428571
2.0
4.54545454545
0
3.33333333333
2.10526315789
3.07692307692
3.33333333333
4.66666666667
3.33333333333
4.16666666667
3.07692307692
3.63636363636
2.66666666667
3.0
4.54545454545
2.72727272727
2.44897959184
3.57142857143
1.25
2.0
1.53846153846
2.5
3.0
2.94117647059
2.30769230769
4.0
1.33333333333
4.0
1.17647058824
4.0
3.75
3.33333333333
3.33333333333
1.33333333333
3.07692307692
1.33333333333
2.72727272727
2.35294117647
4.54545454545
4.61538461538
3.33333333333
3.07692307692
1.81818181818
1.81818181818
3.07692307692
4.44444444444
2.22222222222
4.16666666667
3.33333333333
3.8961038961
0.625
3.63636363636
0
4.375
3.0
4.0
4.375
3.75
4.0
1.33333333333
4.16666666667
3.88888888889
3.07692307692
0
2.5
4.54545454545
3.77358490566
2.30769230769
2.5
2.5
3.07692307692
3.15789473684
4.44444444444
2.5
2.85714285714
4.0
3.07692307692
4.28571428571
3.84615384615
2.0
2.5
2.14285714286
3.84615384615
2.10526315789
3.33333333333
5.0
3.33333333333
2.0
4.28571428571
0
4.16666666667
0.625
3.52941176471
1.875
1.66666666667
4.44444444444
2.14285714286
2.85714285714
2.5
3.57142857143
2.38095238095
1.90476190476
3.125
3.63636363636
3.07692307692
3.87096774194
3.84615384615
2.5
3.33333333333
1.0
3.63636363636
3.33333333333
1.0
0
2.66666666667
3.57142857143
1.25
3.07692307692
0.588235294118
2.22222222222
2.66666666667
3.68421052632
0.833333333333
4.70588235294
5.0
4.54545454545
0
3.33333333333
3.33333333333
0
3.125
1.66666666667
4.28571428571
5.0
4.0
1.42857142857
3.63636363636
3.33333333333
4.28571428571
2.22222222222
1.0
3.125
3.88888888889
3.33333333333
3.52941176471
1.25
1.5
3.75
4.54545454545
3.125
2.85714285714
3.57142857143
3.57142857143
4.44444444444
3.33333333333
5.0
3.84615384615
4.54545454545
3.125
3.0
1.875
2.92682926829
2.0
4.0
3.57142857143
4.44444444444
2.14285714286
1.11111111111
1.11111111111
2.0
3.33333333333
1.875
3.63636363636
3.0
4.0
2.5
1.0
3.0
3.0
3.52941176471
0
3.33333333333
3.52941176471
4.54545454545
2.0
3.52941176471
4.44444444444
4.16666666667
4.44444444444
3.07692307692
3.33333333333
3.0
1.81818181818
1.57894736842
5.0
0.625
3.63636363636
3.33333333333
2.72727272727
2.30769230769
2.5
2.66666666667
4.66666666667
3.33333333333
3.0
3.33333333333
3.63636363636
3.75
0.909090909091
2.72727272727
2.5
3.84615384615
2.85714285714
3.52941176471
3.63636363636
1.25
2.72727272727
2.66666666667
0
2.10526315789
3.33333333333
3.33333333333
2.72727272727
2.5
1.33333333333
3.33333333333
2.14285714286
3.33333333333
4.54545454545
2.30769230769
3.33333333333
1.33333333333
2.85714285714
3.33333333333
5.0
3.57142857143
2.30769230769
2.5
2.85714285714
2.5
2.66666666667
1.53846153846
3.75
1.0
3.0
3.75
3.63636363636
2.72727272727
3.57142857143
3.57142857143
3.33333333333
1.25
2.30769230769
3.84615384615
2.35294117647
1.66666666667
3.07692307692
3.125
1.33333333333
1.42857142857
4.0
2.0
5.0
3.57142857143
3.33333333333
2.0
4.54545454545
1.66666666667
1.66666666667
3.52941176471
0.714285714286
4.0
3.33333333333
1.81818181818
2.22222222222
3.15789473684
2.85714285714
2.0
2.22222222222
4.28571428571
2.22222222222
4.08163265306
3.0
1.875
3.84615384615
3.63636363636
4.28571428571
3.57142857143
1.42857142857
1.66666666667
3.87096774194
3.33333333333
3.63636363636
0.769230769231
1.66666666667
2.5
0.909090909091
1.0
3.63636363636
1.53846153846
2.72727272727
5.0
2.66666666667
2.22222222222
2.5
1.25
3.75
4.44444444444
3.33333333333
5.0
0.909090909091
2.0
0.909090909091
3.63636363636
3.33333333333
3.52941176471
1.5
3.0
1.81818181818
2.63157894737
2.66666666667
3.81818181818
2.5
1.81818181818
0.909090909091
1.81818181818
3.33333333333
2.0
4.16666666667
3.07692307692
2.85714285714
4.44444444444
3.1914893617
4.16666666667
3.44827586207
3.07692307692
2.30769230769
1.66666666667
2.0
4.16666666667
3.33333333333
0.833333333333
1.81818181818
3.75
2.5
2.5
2.94117647059
4.0
0
1.33333333333
3.33333333333
0.769230769231
3.57142857143
0.625
3.33333333333
1.42857142857
4.54545454545
2.0
3.0
2.22222222222
3.07692307692
2.22222222222
3.33333333333
3.63636363636
5.0
1.57894736842
3.0
