3.77964473009
0.833333333333
0.435194139889
2.04124145232
3.33333333333
2.67261241912
2.88675134595
2.2360679775
3.56512047954
3.08606699924
3.6514837167
2.04124145232
3.50823207723
1.85312329165
2.67261241912
4.29058165161
2.51976315339
2.27272727273
2.82038037409
2.31455024943
3.23575114465
2.5
3.33333333333
3.4020690872
2.00445931434
2.67261241912
4.00891862869
1.63299316186
1.69030850946
3.10252613997
3.66233510382
3.125
2.45145168923
2.14285714286
3.34076552391
3.6514837167
2.86038776774
0.716114874039
2.58198889747
3.19801074533
1.36082763488
2.51259453815
3.916747259
3.25791882768
3.68932393686
1.25
1.2598815767
1.78571428571
4.34813178273
3.08606699924
4.08248290464
3.14970394174
3.57142857143
2.58198889747
2.35702260396
0.50251890763
4.19313934689
2.689264371
3.50823207723
1.44337567297
2.73861278753
4.21637021356
3.91311896062
3.92232270276
1.82574185835
2.63523138347
3.22748612184
2.16506350946
3.16227766017
2.72727272727
3.5
4.16666666667
3.53553390593
3.14970394174
2.46182981959
4.00891862869
4.00320384513
3.85758374905
2.25924028529
3.53553390593
1.63663417677
2.00160192256
3.57142857143
1.88444590361
2.63523138347
2.5
4.12478955692
3.57142857143
1.42133810904
1.71498585143
2.14285714286
2.43975018237
3.11399577665
2.5
2.68437746097
3.33333333333
3.7267799625
3.5
3.23575114465
4.29058165161
2.00445931434
4.44444444444
2.72772362795
2.67261241912
1.94461117066
2.04124145232
3.63636363636
3.08606699924
3.33711906236
2.41746889208
3.60843918244
3.68932393686
4.21637021356
3.35410196625
2.88675134595
2.58198889747
3.33333333333
3.38061701891
4.00891862869
1.66666666667
3.28687867567
2.67261241912
3.50324524873
1.90692517849
2.25924028529
3.76308904503
3.18198051534
2.42681335849
2.92684703502
3.16227766017
2.73861278753
3.53553390593
2.45049014705
1.30558241967
2.88675134595
0.790569415042
3.6514837167
2.42681335849
1.33630620956
3.18181818182
1.7782168979
2.82038037409
1.83339699406
2.04124145232
3.06186217848
2.5
1.792842914
2.85714285714
4.16666666667
2.37170824513
3.28719129326
3.57142857143
4.21637021356
1.33630620956
3.08606699924
2.39045721867
3.77964473009
1.44337567297
3.12771621086
2.33549683248
3.57142857143
4.5
3.16227766017
3.08606699924
2.31455024943
2.2360679775
3.57142857143
3.7267799625
2.31455024943
2.5
2.63523138347
1.58113883008
1.7902871851
2.00445931434
2.41746889208
1.88982236505
3.55023473402
2.77350098113
2.98142397
4.33012701892
4.21637021356
2.5
3.34496804003
4.16666666667
2.73861278753
2.67261241912
2.85714285714
4.0
3.49956619637
4.00891862869
2.63523138347
2.5
2.58198889747
3.8490017946
1.29099444874
3.33333333333
2.69069117599
2.10818510678
0.912870929175
1.9364916731
3.2232918561
1.9462473604
1.22474487139
3.06970306757
1.84900065408
4.28571428571
2.95803989155
3.33848930445
1.76776695297
1.54303349962
1.53392997769
3.00668897151
2.79508497187
1.43019388387
4.28571428571
1.17851130198
4.16666666667
3.5
4.00891862869
2.9740593874
3.6514837167
3.08606699924
3.57142857143
1.91741247212
3.04635897922
3.6514837167
2.26133508433
3.33333333333
2.85714285714
3.08606699924
3.76308904503
4.10391340834
2.13200716356
1.63299316186
3.69274472938
2.24988521287
3.08606699924
2.63523138347
3.34076552391
3.19801074533
2.90473750966
3.98540570665
2.15758485668
1.63299316186
4.33012701892
0.790569415042
3.91311896062
4.375
3.75
2.75009549108
3.26598632371
3.47182537415
4.16666666667
2.40192230708
2.58198889747
5.0
2.22222222222
2.86445949616
2.88675134595
1.82818106032
3.85758374905
4.22577127364
2.58198889747
4.16666666667
3.93863180722
2.63822426506
2.7914526312
1.54303349962
2.22717701594
1.29099444874
2.84267621807
2.94627825494
3.34076552391
2.25924028529
2.07019667803
3.73101253622
3.34323924918
2.63523138347
2.16506350946
2.00160192256
3.4020690872
2.31455024943
3.125
4.0
2.22222222222
2.63523138347
0.888523316639
3.6514837167
1.59900537267
3.60843918244
4.16666666667
3.95284707521
2.35702260396
2.31455024943
3.51763235341
3.50438322025
3.34076552391
3.57217254156
2.9740593874
3.68932393686
4.29058165161
3.2646431255
3.50823207723
2.01007563052
3.77964473009
2.45049014705
3.76308904503
2.13200716356
3.33333333333
4.29058165161
4.12478955692
2.27921152919
4.18121005004
4.12478955692
2.67261241912
2.98807152334
1.96116135138
3.16227766017
2.73861278753
3.60843918244
2.58198889747
0.870388279778
2.51976315339
3.75
1.0
4.12478955692
1.9364916731
3.33333333333
1.84637236469
3.33333333333
3.69274472938
2.11288563682
3.33333333333
1.69841555122
3.125
3.59546247753
3.34076552391
2.17642875033
4.21637021356
1.33630620956
4.44444444444
1.25
5.0
3.57142857143
2.35702260396
3.19801074533
1.88444590361
2.6207120918
3.57142857143
4.09090909091
3.93863180722
2.10818510678
4.21637021356
0.714285714286
3.85758374905
2.10818510678
2.51259453815
4.16666666667
4.0
3.14970394174
3.24918216644
3.26598632371
2.00445931434
2.04124145232
2.88675134595
2.90473750966
3.46153846154
1.17851130198
0.476731294623
2.5
0.912870929175
2.31125081761
1.9364916731
2.43975018237
1.875
2.94627825494
3.60843918244
2.31125081761
1.53093108924
1.9364916731
3.60843918244
1.66666666667
4.70791909069
2.40562612162
2.1917850188
2.70030862434
1.29099444874
2.10818510678
3.34076552391
2.86038776774
2.67261241912
2.85714285714
3.57142857143
2.38365647311
2.47716847153
1.96116135138
1.66666666667
2.5
3.04290309725
3.01511344578
3.57142857143
0.533001790889
2.16506350946
2.85714285714
2.67261241912
3.91311896062
3.75
3.2232918561
2.58198889747
2.27921152919
2.14834462212
2.2360679775
2.75009549108
2.94117647059
2.67261241912
1.05409255339
1.19522860933
3.2025630761
2.35702260396
0.629940788349
2.16506350946
3.33711906236
2.5
2.02113020864
3.14970394174
3.53553390593
1.51522881683
4.08248290464
2.31455024943
3.33333333333
2.40562612162
3.75
2.38365647311
0.50251890763
2.31455024943
2.9488391231
1.9364916731
3.00668897151
3.6514837167
3.08606699924
1.59071190744
3.14970394174
3.53553390593
4.03603676398
4.472135955
1.54303349962
3.77964473009
1.73275820021
3.91311896062
2.35702260396
4.40958551844
2.5
3.77964473009
0.589255650989
0.877058019307
3.16227766017
2.13200716356
3.33333333333
2.5
2.67261241912
3.6514837167
2.22374794998
3.6514837167
3.77964473009
1.54303349962
0.877058019307
3.76308904503
3.15063018906
4.28571428571
3.33333333333
1.02062072616
2.25924028529
4.08248290464
1.66666666667
4.16666666667
2.73861278753
2.77777777778
2.50640205914
1.88982236505
4.00891862869
3.81385035698
3.94676108688
2.72165526976
1.88982236505
2.86038776774
3.35968420453
0.559016994375
4.0
1.56385810543
2.04124145232
2.80224269159
2.85714285714
1.875
3.6514837167
3.64246398193
3.098898934
2.98807152334
0.629940788349
1.58113883008
3.6514837167
2.94627825494
3.33333333333
3.66899692853
4.02015126104
1.792842914
3.15063018906
2.82038037409
2.00445931434
3.08606699924
2.10818510678
2.85714285714
3.14970394174
2.00445931434
1.2598815767
3.85758374905
1.02062072616
3.14970394174
3.50324524873
3.08606699924
1.66666666667
3.85758374905
2.88675134595
3.88888888889
3.00668897151
1.69030850946
3.125
2.94627825494
1.81818181818
1.42857142857
4.33012701892
3.75
3.85758374905
3.34076552391
3.11804782231
3.33333333333
2.15165741456
3.77964473009
2.14285714286
4.44444444444
3.08606699924
0.589255650989
2.63523138347
3.85758374905
4.35194139889
1.02062072616
3.26598632371
3.22748612184
3.35410196625
0.912870929175
1.74077655956
2.85714285714
1.69030850946
1.76776695297
2.5
4.47368421053
3.42997170285
0.37267799625
1.41421356237
2.45145168923
3.00668897151
3.16227766017
2.67261241912
1.26773138209
4.16666666667
3.33333333333
3.16227766017
2.106752429
3.34076552391
4.375
1.17851130198
3.08606699924
3.60843918244
1.05409255339
1.25
2.01455741006
2.76685785546
3.89249472081
3.8490017946
3.95284707521
2.91090868214
2.04124145232
2.94627825494
3.33711906236
3.2025630761
1.09108945118
2.5515518154
2.73861278753
1.50755672289
2.73861278753
3.85758374905
3.6514837167
1.11111111111
2.31455024943
2.16506350946
1.82574185835
3.75
2.46182981959
3.4020690872
3.08606699924
2.10818510678
1.96116135138
3.81356384905
3.85758374905
3.81881307913
4.12478955692
3.57142857143
2.94627825494
3.57142857143
1.74077655956
2.5515518154
3.19801074533
3.33333333333
2.77350098113
2.82038037409
3.41881729379
1.82574185835
2.00445931434
2.5
4.12478955692
2.84267621807
3.70624658331
3.0
4.21637021356
2.85773803325
1.29099444874
2.77777777778
2.40562612162
1.31558702896
1.82574185835
1.9364916731
2.5
2.5
3.07692307692
2.39045721867
3.77964473009
3.53553390593
3.23575114465
1.02062072616
3.95452878006
2.27272727273
2.94627825494
1.9583736295
3.33333333333
3.33333333333
2.58198889747
1.31590338992
1.66666666667
3.22748612184
3.33333333333
3.16227766017
2.16506350946
2.5
3.57142857143
0.912870929175
4.09945795875
3.14970394174
4.19313934689
3.91311896062
3.53553390593
3.08606699924
1.36082763488
2.79508497187
3.60843918244
2.5515518154
2.09060502502
1.26773138209
1.84637236469
3.6514837167
1.31558702896
1.70940864689
1.50755672289
2.83683257307
1.66666666667
4.16666666667
3.33333333333
2.88675134595
1.74077655956
4.21637021356
2.5
2.31455024943
1.33630620956
2.10818510678
3.77964473009
3.33711906236
3.3920026265
3.46551640042
2.22374794998
3.16227766017
3.01511344578
2.10042012604
2.63822426506
3.85758374905
2.59807621135
2.73861278753
2.73861278753
2.5
2.31455024943
2.94174202707
4.16666666667
2.30783165689
3.125
4.02015126104
3.67423461417
3.0
2.5
3.01511344578
2.35702260396
1.75411603861
3.11804782231
2.59437260831
2.51976315339
3.16227766017
2.38365647311
2.85714285714
3.80319414628
2.73861278753
2.31793162486
4.04145188433
1.69030850946
2.35702260396
3.77964473009
3.34076552391
2.00445931434
1.36082763488
4.56435464588
3.25395686728
2.72165526976
1.78174161275
3.91311896062
3.00668897151
2.83473354757
3.85758374905
2.22374794998
3.4020690872
4.16666666667
3.6514837167
1.43019388387
1.66666666667
3.0
2.50489716434
2.5
2.2360679775
1.63299316186
2.98807152334
1.18585412256
1.54303349962
2.22222222222
2.31455024943
1.54303349962
2.38365647311
1.71190595816
4.08248290464
3.77964473009
1.30558241967
1.17851130198
3.12379008836
2.73861278753
3.85758374905
3.50324524873
4.0
3.38061701891
4.00891862869
4.28571428571
2.40192230708
1.88982236505
2.35702260396
2.86038776774
2.2360679775
2.64906471413
3.60843918244
3.34076552391
3.76308904503
1.44337567297
1.17851130198
3.81356384905
3.0
2.88675134595
3.91311896062
3.35410196625
1.9462473604
3.125
1.40028008403
1.88982236505
2.85714285714
2.00445931434
1.88982236505
3.34076552391
0.836242010007
1.54303349962
3.35410196625
3.85758374905
1.490711985
1.54303349962
2.31455024943
2.31455024943
1.92879187453
1.74077655956
0.833333333333
3.5634832255
2.45495126515
3.8490017946
1.76776695297
3.87298334621
3.34076552391
4.24918292799
1.90692517849
3.55756236769
1.82574185835
1.76776695297
2.31125081761
1.5
2.00445931434
2.31455024943
3.14970394174
3.0
3.57142857143
3.06186217848
3.03169531295
3.85758374905
2.58198889747
2.77350098113
3.75
3.16227766017
1.59900537267
3.75
2.66666666667
4.00891862869
1.82574185835
2.63523138347
3.57142857143
1.04828483672
3.6514837167
3.33333333333
1.45095250022
3.06785995539
0.456435464588
0.968245836552
2.0203050891
1.97814142019
1.88982236505
3.77964473009
2.92770021885
1.58113883008
3.2686022523
2.72852578166
1.38675049056
3.16227766017
4.29863476811
1.9364916731
3.74227599592
3.0
1.0
2.00445931434
2.63822426506
3.85758374905
3.85758374905
1.24072916746
2.45145168923
2.5
2.95656197995
2.27272727273
2.50775195659
2.10818510678
1.55699788832
2.14285714286
2.5
1.25436301501
3.81356384905
2.56135882028
3.66679398811
3.68932393686
2.41746889208
1.22474487139
2.40192230708
3.33333333333
2.39045721867
2.31455024943
2.79508497187
3.12731395811
2.40562612162
2.31455024943
2.39045721867
3.33333333333
2.67261241912
3.75
3.34366927545
3.0
0.0
3.62620333811
2.73861278753
3.10529501704
1.05409255339
3.57142857143
2.18217890236
3.57142857143
4.09090909091
1.59900537267
2.85714285714
2.51976315339
1.47087101354
4.14039335605
2.67261241912
3.55023473402
4.00891862869
1.57894736842
2.50872603002
2.51976315339
2.63117405792
2.16506350946
2.58092700604
2.36227795631
1.36930639376
3.6514837167
2.5
3.33711906236
3.34496804003
4.00891862869
3.89249472081
3.48155311911
2.5
2.22222222222
1.82818106032
2.13200716356
3.08606699924
2.85714285714
3.8490017946
3.30718913883
1.33630620956
3.08606699924
3.916747259
1.07417231106
3.24759526419
2.31455024943
2.44948974278
0.912870929175
1.91741247212
2.31455024943
3.2232918561
4.00320384513
3.81385035698
3.0
1.82574185835
3.22748612184
2.27921152919
2.01007563052
0.606339062591
2.40562612162
3.08606699924
2.94174202707
1.50755672289
3.0
3.585685828
2.60874597375
0.569802882298
1.87867287326
1.84637236469
1.67183463773
2.46182981959
2.63117405792
3.77964473009
3.916747259
1.70940864689
4.3788026952
2.31455024943
4.62910049886
2.94627825494
2.11288563682
3.5634832255
3.41565025532
3.14485451017
2.16506350946
1.71498585143
3.63636363636
3.22748612184
2.39045721867
4.21637021356
2.04124145232
1.82574185835
2.00445931434
2.2360679775
2.39045721867
2.73861278753
3.08606699924
3.4426518633
1.58113883008
4.07687124164
2.73861278753
2.51259453815
2.69069117599
1.42857142857
2.96499726664
1.33630620956
3.33333333333
2.2360679775
2.67261241912
3.08606699924
3.87835875941
1.88982236505
0.589255650989
3.95577402643
2.10818510678
2.33853586673
1.63663417677
1.70940864689
2.22222222222
3.47182537415
1.42857142857
3.33333333333
2.73861278753
3.16227766017
1.30558241967
2.66500895445
4.0
1.11803398875
4.0
3.72104203768
3.47182537415
2.94627825494
2.38365647311
4.29668924424
4.44749589997
3.54787437593
3.9735970712
3.48155311911
4.21637021356
1.82574185835
3.585685828
2.5
4.22577127364
2.82038037409
2.92684703502
2.04124145232
2.63523138347
2.04124145232
2.31125081761
1.88982236505
1.11803398875
0.456435464588
4.16666666667
2.67261241912
3.68932393686
2.5
2.31125081761
2.2360679775
2.98807152334
3.0
3.34076552391
1.54303349962
3.68932393686
3.34076552391
4.21637021356
2.28217732294
2.51976315339
3.38061701891
1.78571428571
2.80056016806
2.85714285714
4.10391340834
3.81385035698
2.18217890236
4.21637021356
3.91311896062
3.68932393686
2.13003216808
2.00160192256
3.16227766017
3.34076552391
4.08248290464
4.16025147169
2.5
2.37170824513
2.0
2.35702260396
1.44337567297
2.31455024943
0.629940788349
3.77964473009
2.31455024943
3.33333333333
2.58092700604
3.50324524873
2.31455024943
3.19504825211
4.52267016867
4.26401432711
3.48155311911
3.24101861776
3.60843918244
1.38675049056
3.53553390593
1.44337567297
1.76776695297
2.31455024943
1.792842914
2.88675134595
3.33333333333
0.890870806375
2.65165042945
0.68041381744
3.14970394174
2.36227795631
4.472135955
1.875
2.94627825494
3.19801074533
0.953462589246
3.81385035698
1.25436301501
1.59900537267
2.98807152334
4.5
4.12478955692
4.0
3.63636363636
2.53546276419
1.875
2.85714285714
2.92684703502
2.94627825494
4.16666666667
2.53546276419
4.16666666667
2.35702260396
0.629940788349
2.8171808491
4.07687124164
2.31455024943
3.05555555556
3.53553390593
3.74634324633
3.85758374905
2.25924028529
4.56435464588
2.5
3.91311896062
1.27256952595
3.125
2.86445949616
2.17597069945
3.14970394174
3.81385035698
2.50489716434
3.33333333333
3.68932393686
2.51976315339
3.46467433592
2.31455024943
2.88675134595
2.72772362795
1.43019388387
3.53553390593
2.85714285714
3.57142857143
1.52145154863
3.24759526419
2.5
3.18142381488
2.63523138347
3.81385035698
2.70030862434
4.02015126104
2.69230769231
4.00891862869
3.95284707521
2.31455024943
3.16227766017
1.11803398875
2.5515518154
0.953462589246
2.94627825494
2.86445949616
4.00891862869
3.34076552391
3.14970394174
2.2360679775
1.76776695297
2.72772362795
2.27272727273
3.85758374905
2.04124145232
1.91179778225
3.38061701891
3.08606699924
2.85714285714
2.98807152334
1.26773138209
3.38061701891
4.22326513251
3.34076552391
3.6514837167
2.88675134595
2.88675134595
1.67248402001
3.33333333333
3.81385035698
3.33711906236
1.31558702896
2.22222222222
2.94627825494
3.34076552391
2.01007563052
3.57142857143
3.07728727448
3.5634832255
3.45032779671
3.85758374905
1.17851130198
2.67261241912
3.585685828
2.17597069945
4.05553552827
4.12478955692
2.01007563052
2.51976315339
1.43019388387
4.00891862869
1.21267812518
4.00891862869
3.6514837167
3.6514837167
2.63117405792
4.08248290464
1.69030850946
2.85714285714
1.46254484825
2.5
2.41746889208
2.59281489421
2.31455024943
2.22222222222
3.01232038038
3.08606699924
2.77777777778
2.00049401013
1.9867985356
2.01455741006
4.375
2.10818510678
2.85714285714
2.94174202707
1.875
1.43019388387
1.17851130198
3.57217254156
2.31455024943
1.50755672289
2.58198889747
3.87298334621
3.6514837167
1.7349447959
1.90692517849
2.35294117647
3.41881729379
3.06569669742
4.01477534273
0.625
4.40352422964
2.79508497187
4.0
1.9364916731
2.88675134595
2.63523138347
1.33630620956
3.92857142857
2.88675134595
4.00693842672
2.94627825494
4.33012701892
1.54303349962
1.53093108924
3.69274472938
3.6514837167
3.34076552391
0.0
1.71498585143
3.42580079852
2.88675134595
2.53546276419
0.77151674981
1.20873444604
4.16666666667
3.14970394174
4.03112887415
0.716114874039
3.38061701891
3.19801074533
4.22577127364
3.125
4.08248290464
3.77964473009
3.91311896062
2.15165741456
4.375
2.48734169082
3.04635897922
1.90692517849
4.00891862869
2.84901441149
4.40958551844
1.60128153805
0.0
2.67261241912
2.35702260396
3.85758374905
2.0
2.51976315339
2.16506350946
3.06970306757
2.01007563052
0.555555555556
2.88675134595
2.5
3.33333333333
1.88561808316
2.14285714286
2.98142397
3.125
1.29099444874
2.2360679775
3.08606699924
2.72165526976
4.33012701892
2.40562612162
2.73861278753
3.53553390593
1.875
2.08333333333
3.91311896062
2.42681335849
2.98807152334
4.00891862869
3.88888888889
1.58113883008
2.31455024943
2.10042012604
4.18121005004
3.85758374905
1.82574185835
2.98142397
3.585685828
1.0
1.63663417677
2.58198889747
2.69230769231
3.33562192497
2.16506350946
2.58198889747
2.45145168923
2.14285714286
1.42857142857
1.88444590361
1.67705098312
2.60874597375
2.35702260396
3.33333333333
2.79508497187
3.0
1.02062072616
2.98807152334
3.33562192497
2.98807152334
3.73101253622
2.88675134595
2.27921152919
2.86445949616
3.16227766017
2.80224269159
3.75
2.61116483934
2.0
2.35702260396
2.01455741006
4.16666666667
1.20096115354
2.77350098113
3.57142857143
1.25
2.00445931434
4.16666666667
3.33562192497
3.08606699924
3.39683110243
3.44123600806
2.64008448406
1.63430112615
2.10818510678
3.50324524873
1.42857142857
1.62050930888
3.33711906236
3.36787657027
2.17642875033
3.04635897922
3.08606699924
2.50872603002
3.77964473009
4.10791918129
2.15165741456
2.53546276419
3.91311896062
1.67705098312
1.20096115354
3.22251693318
0.860662965824
3.916747259
1.44337567297
2.04124145232
3.08606699924
2.94627825494
2.10818510678
1.09108945118
1.69030850946
3.6514837167
2.5
2.67261241912
3.4020690872
1.54303349962
3.69800130817
1.23091490979
2.67651689516
3.67423461417
1.55699788832
1.90692517849
2.98807152334
3.19801074533
3.125
2.53546276419
2.04124145232
1.90692517849
1.05409255339
2.45145168923
3.0
0.629940788349
2.51976315339
3.68932393686
2.33549683248
2.53546276419
3.0
1.66666666667
4.16666666667
2.69679944985
0.870388279778
3.33333333333
2.40562612162
1.76776695297
0.0
2.94627825494
3.35410196625
3.0
1.71498585143
1.11803398875
0.0
2.51976315339
2.63822426506
3.12018860377
3.60843918244
1.46385010942
2.67261241912
2.94627825494
2.39045721867
1.29099444874
4.375
3.34496804003
2.45145168923
3.85758374905
3.06569669742
2.28217732294
2.63117405792
3.45032779671
2.92684703502
1.66855953118
1.25436301501
3.36787657027
3.08606699924
1.13066754217
1.33630620956
3.35410196625
3.01511344578
3.2025630761
2.68437746097
2.58198889747
1.19522860933
2.4152294577
1.82574185835
1.05409255339
2.04124145232
1.67248402001
2.28217732294
2.19264504827
3.41881729379
2.5
3.57142857143
2.94627825494
2.84267621807
1.43019388387
3.35410196625
3.80319414628
3.38061701891
1.39103721019
1.82574185835
